hebat_daga_aspect = {	#ADM aspect
	cost = 100
	modifier = {
		trade_efficiency = 0.1
	}
	monarch_power = adm
	ai_will_do = {
		factor = 15
	}
}

hebat_tana_aspect = {	#ADM aspect
	cost = 100
	modifier = {
		global_regiment_cost = -0.10
	}
	monarch_power = adm
	ai_will_do = {
		factor = 15
	}
}

hebat_mahar_aspect = {	#ADM aspect
	cost = 100
	modifier = {
		global_autonomy = -0.05
	}
	monarch_power = adm
	ai_will_do = {
		factor = 15
	}
}

hebat_linga_aspect = {	#ADM aspect
	cost = 100
	potential = {
		
	}
	modifier = {
		global_unrest = -2
	}
	monarch_power = adm
	ai_will_do = {
		factor = 15
	}
}

cinulau_dip_aspect = {	#DIP aspect
	cost = 100
	potential = {
		NOT = { has_church_aspect = cinulau_mil_aspect }
		has_country_flag = cinulau_pact_unlocked
	}
	
	modifier = {
		naval_morale = 0.2
	}
	monarch_power = dip
	ai_will_do = {
		factor = 15
	}
}

lupulan_dip_aspect = {	#DIP aspect
	cost = 100
	potential = {
		NOT = { has_church_aspect = lupulan_mil_aspect }
		has_country_flag = lupulan_pact_unlocked
	}

	modifier = {
		province_warscore_cost = -0.1
	}
	monarch_power = dip
	ai_will_do = {
		factor = 15
	}
}

semat_tidakhui_dip_aspect = {	#DIP aspect
	cost = 100
	potential = {
		NOT = { has_church_aspect = semat_tidakhui_mil_aspect }
		has_country_flag = semat_tidakhui_pact_unlocked
	}
	effect = {
		
	}
	modifier = {
		manpower_in_true_faith_provinces= 0.20
	}
	monarch_power = dip
	ai_will_do = {
		factor = 15
	}
}

kharunyana_dip_aspect = {	#DIP aspect
	cost = 100
	potential = {
		NOT = { has_church_aspect = kharunyana_mil_aspect }
		any_owned_province = { province_group = kharunyana_spirit_area }
		OR = {
			has_global_flag = spirittide_start
			has_global_flag = spirittide_ended
		}
	}
	effect = {
		
	}
	modifier = {
		trade_goods_size_modifier = 0.10
	}
	monarch_power = dip
	ai_will_do = {
		factor = 15
	}
}

phokhao_dip_aspect = {	#DIP aspect
	cost = 100
	potential = {
		NOT = { has_church_aspect = phokhao_mil_aspect }
		has_country_flag = phokhao_pact_unlocked
	}
	effect = {
		
	}
	modifier = {
		defensiveness = 0.20
	}
	monarch_power = dip
	ai_will_do = {
		factor = 15
	}
}

gehet_ketine_dip_aspect = {	#DIP aspect
	cost = 100
	potential = {
		NOT = { has_church_aspect = gehet_ketine_mil_aspect }
		has_country_flag = gehet_ketine_pact_unlocked
	}
	effect = {
		
	}
	modifier = {
		movement_speed = 0.20
	}
	monarch_power = dip
	ai_will_do = {
		factor = 15
	}
}

hokuma_dip_aspect = {	#DIP aspect
	cost = 100
	potential = {
		NOT = { has_church_aspect = hokuma_mil_aspect }
		has_country_flag = hokuma_pact_unlocked
	}
	effect = {
		
	}
	modifier = {
		shock_damage_received = -0.10
	}
	monarch_power = dip
	ai_will_do = {
		factor = 15
	}
}

marutha_dip_aspect = {	#DIP aspect
	cost = 100
	potential = {
		NOT = { has_church_aspect = marutha_mil_aspect }
		any_owned_province = { province_group = marutha_spirit_area }
		OR = {
			has_global_flag = spirittide_start
			has_global_flag = spirittide_ended
		}
	}
	effect = {
		
	}
	modifier = {
		land_morale = 0.10
	}
	monarch_power = dip
	ai_will_do = {
		factor = 15
	}
}

hukai_dip_aspect = {	#DIP aspect
	cost = 100
	potential = {
		NOT = { has_church_aspect = hukai_mil_aspect }
		has_country_flag = hukai_pact_unlocked
	}
	effect = {
		
	}
	modifier = {
		siege_ability = 0.10
	}
	monarch_power = dip
	ai_will_do = {
		factor = 15
	}
}

telebei_dip_aspect = {	#DIP aspect
	cost = 100
	potential = {
		NOT = { has_church_aspect = telebei_mil_aspect }
		has_country_flag = telebei_pact_unlocked
	}
	effect = {
		
	}
	modifier = {
			production_efficiency = 0.10
	}
	monarch_power = dip
	ai_will_do = {
		factor = 15
	}
}

yanhe_dip_aspect = {	#DIP aspect
	cost = 100
	potential = {
		NOT = { has_church_aspect = yanhe_mil_aspect }
		any_owned_province = { province_group = yanhe_spirit_area }
		OR = {
			has_global_flag = spirittide_start
			has_global_flag = spirittide_ended
		}
	}
	effect = {
		
	}
	modifier = {
		discipline = 0.05
	}
	monarch_power = dip
	ai_will_do = {
		factor = 15
	}
}

huszien_dip_aspect = {	#DIP aspect
	cost = 100
	potential = {
		always = no
		NOT = { has_church_aspect = huszien_mil_aspect }
	}
	effect = {
		
	}
	modifier = {
		all_power_cost = -0.05
	}
	monarch_power = dip
	ai_will_do = {
		factor = 15
	}
}

hujan_dip_aspect = {	#DIP aspect
	cost = 100
	potential = {
		NOT = { has_church_aspect = hujan_mil_aspect }
	}
	effect = {
		
	}
	modifier = {
		ae_impact = -0.1
	}
	monarch_power = dip
	ai_will_do = {
		factor = 15
	}
}

hengda_dip_aspect = {	#DIP aspect
	cost = 100
	potential = {
		NOT = { has_church_aspect = hengda_mil_aspect }
		has_country_flag = hengda_bowu_pact_unlocked
	}
	effect = {
		
	}
	modifier = {
		infantry_power = 0.10
	}
	monarch_power = dip
	ai_will_do = {
		factor = 15
	}
}

tughayasa_dip_aspect = {	#DIP aspect
	cost = 100
	potential = {
		NOT = { has_church_aspect = tughayasa_mil_aspect }
		has_country_flag = tughayasa_pact_unlocked
	}
	effect = {
		
	}
	modifier = {
		technology_cost = -0.05
	}
	monarch_power = dip
	ai_will_do = {
		factor = 15
	}
}

dhenbasana_dip_aspect = {	#DIP aspect
	cost = 100
	potential = {
		NOT = { has_church_aspect = dhenbasana_mil_aspect }
		any_owned_province = { province_group = dhenbasana_spirit_area }
		OR = {
			has_global_flag = spirittide_start
			has_global_flag = spirittide_ended
		}
	}
	effect = {
		
	}
	modifier = {
		development_cost = -0.1
	}
	monarch_power = dip
	ai_will_do = {
		factor = 15
	}
}

cinulau_mil_aspect = {	#MIL aspect
	cost = 100
	potential = {
		NOT = { has_church_aspect = cinulau_dip_aspect }
		has_country_flag = cinulau_pact_unlocked
	}
	effect = {
		
	}
	modifier = {
		naval_morale = 0.2
	}
	monarch_power = mil
	ai_will_do = {
		factor = 15
	}
}

lupulan_mil_aspect = {	#MIL aspect
	cost = 100
	potential = {
		NOT = { has_church_aspect = lupulan_dip_aspect }
		has_country_flag = lupulan_pact_unlocked
	}
	effect = {
		
	}
	modifier = {
		province_warscore_cost = -0.1
	}
	monarch_power = mil
	ai_will_do = {
		factor = 15
	}
}

semat_tidakhui_mil_aspect = {	#MIL aspect
	cost = 100
	potential = {
		NOT = { has_church_aspect = semat_tidakhui_dip_aspect }
		has_country_flag = semat_tidakhui_pact_unlocked
	}
	effect = {
		
	}
	modifier = {
		manpower_in_true_faith_provinces= 0.20
	}
	monarch_power = mil
	ai_will_do = {
		factor = 15
	}
}

kharunyana_mil_aspect = {	#MIL aspect
	cost = 100
	potential = {
		NOT = { has_church_aspect = kharunyana_dip_aspect }
		any_owned_province = { province_group = kharunyana_spirit_area }
		OR = {
			has_global_flag = spirittide_start
			has_global_flag = spirittide_ended
		}
	}
	effect = {
		
	}
	modifier = {
		trade_goods_size_modifier = 0.10
	}
	monarch_power = mil
	ai_will_do = {
		factor = 15
	}
}

phokhao_mil_aspect = {	#MIL aspect
	cost = 100
	potential = {
		NOT = { has_church_aspect = phokhao_dip_aspect }
		has_country_flag = phokhao_pact_unlocked
	}
	effect = {
		
	}
	modifier = {
		defensiveness = 0.20
	}
	monarch_power = mil
	ai_will_do = {
		factor = 15
	}
}

gehet_ketine_mil_aspect = {	#MIL aspect
	cost = 100
	potential = {
		NOT = { has_church_aspect = gehet_ketine_dip_aspect }
		has_country_flag = phokhao_pact_unlocked
	}
	effect = {
		
	}
	modifier = {
		movement_speed = 0.20
	}
	monarch_power = mil
	ai_will_do = {
		factor = 15
	}
}

hokuma_mil_aspect = {	#MIL aspect
	cost = 100
	potential = {
		NOT = { has_church_aspect = hokuma_dip_aspect }
		has_country_flag = hokuma_pact_unlocked
	}
	effect = {
		
	}
	modifier = {
		shock_damage_received = -0.10
	}
	monarch_power = mil
	ai_will_do = {
		factor = 15
	}
}

marutha_mil_aspect = {	#MIL aspect
	cost = 100
	potential = {
		NOT = { has_church_aspect = marutha_dip_aspect }
		any_owned_province = { province_group = marutha_spirit_area }
		OR = {
			has_global_flag = spirittide_start
			has_global_flag = spirittide_ended
		}
	}
	effect = {
		
	}
	modifier = {
		land_morale = 0.10
	}
	monarch_power = mil
	ai_will_do = {
		factor = 15
	}
}

hukai_mil_aspect = {	#MIL aspect
	cost = 100
	potential = {
		NOT = { has_church_aspect = hukai_dip_aspect }
		has_country_flag = hukai_pact_unlocked
	}
	effect = {
		
	}
	modifier = {
		siege_ability = 0.10
	}
	monarch_power = mil
	ai_will_do = {
		factor = 15
	}
}

telebei_mil_aspect = {	#MIL aspect
	cost = 100
	potential = {
		NOT = { has_church_aspect = telebei_dip_aspect }
		has_country_flag = telebei_pact_unlocked
	}
	effect = {
		
	}
	modifier = {
		production_efficiency = 0.10
	}
	monarch_power = mil
	ai_will_do = {
		factor = 15
	}
}

yanhe_mil_aspect = {	#MIL aspect
	cost = 100
	potential = {
		NOT = { has_church_aspect = yanhe_dip_aspect }
		any_owned_province = { province_group = yanhe_spirit_area }
		OR = {
			has_global_flag = spirittide_start
			has_global_flag = spirittide_ended
		}
	}
	effect = {
		
	}
	modifier = {
		discipline = 0.05
	}
	monarch_power = mil
	ai_will_do = {
		factor = 15
	}
}

huszien_mil_aspect = {	#MIL aspect
	cost = 100
	potential = {
		always = no
		NOT = { has_church_aspect = huszien_dip_aspect }
	}
	effect = {
		
	}
	modifier = {
		all_power_cost = -0.05
	}
	monarch_power = mil
	ai_will_do = {
		factor = 15
	}
}

hujan_mil_aspect = {	#MIL aspect
	cost = 100
	potential = {
		NOT = { has_church_aspect = hujan_dip_aspect }
	}
	effect = {
		
	}
	modifier = {
		ae_impact = -0.1
	}
	monarch_power = mil
	ai_will_do = {
		factor = 15
	}
}

hengda_mil_aspect = {	#MIL aspect
	cost = 100
	potential = {
		NOT = { has_church_aspect = hengda_dip_aspect }
		has_country_flag = hengda_bowu_pact_unlocked
	}
	effect = {
		
	}
	modifier = {
		infantry_power = 0.10
	}
	monarch_power = mil
	ai_will_do = {
		factor = 15
	}
}

tughayasa_mil_aspect = {	#MIL aspect
	cost = 100
	potential = {
		NOT = { has_church_aspect = tughayasa_dip_aspect }
		has_country_flag = tughayasa_pact_unlocked
	}
	effect = {
		
	}
	modifier = {
		technology_cost = -0.05
	}
	monarch_power = mil
	ai_will_do = {
		factor = 15
	}
}

dhenbasana_mil_aspect = {	#MIL aspect
	cost = 100
	potential = {
		NOT = { has_church_aspect = dhenbasana_dip_aspect }
		any_owned_province = { province_group = dhenbasana_spirit_area }
		OR = {
			has_global_flag = spirittide_start
			has_global_flag = spirittide_ended
		}
	}
	effect = {
		
	}
	modifier = {
		development_cost = -0.1
	}
	monarch_power = mil
	ai_will_do = {
		factor = 15
	}
}

#discuss with core and balance when used
#THIS MUST BE DONE, these have not been balanced as they are intended to be balanced in the context of the mt
lupulan_special_dip_aspect = {
	cost = 100
	potential = {
		always = no
		NOT = { has_church_aspect = lupulan_special_mil_aspect }
		NOT = { has_church_aspect = lupulan_dip_aspect }
	}
	effect = {

	}
	modifier = {
		max_absolutism = 20
	}
	monarch_power = DIP
	ai_will_do = {
		factor = 100
	}
}

semat_tidakhui_special_dip_aspect = { #check with balance
	cost = 100
	potential = {
		always = no
		NOT = { has_church_aspect = semat_tidakhui_special_mil_aspect }
		NOT = { has_church_aspect = semat_tidakhui_dip_aspect }
	}
	effect = {

	}
	modifier = {
		fire_damage_received = -0.15
	}
	monarch_power = DIP
	ai_will_do = {
		factor = 100
	}
}

gehet_ketine_special_dip_aspect = {
	cost = 100
	potential = {
		always = no
		NOT = { has_church_aspect = gehet_ketine_special_mil_aspect }
		NOT = { has_church_aspect = gehet_ketine_dip_aspect }
	}
	effect = {

	}
	modifier = {
		raze_power_gain = 0.50
	}
	monarch_power = DIP
	ai_will_do = {
		factor = 100
	}
}

huszien_special_dip_aspect = {
	cost = 100
	potential = {
		always = no
		NOT = { has_church_aspect = huszien_special_mil_aspect }
		NOT = { has_church_aspect = huszien_dip_aspect }
	}
	effect = {

	}
	modifier = {
		administrative_efficiency = 0.05
	}
	monarch_power = DIP
	ai_will_do = {
		factor = 100
	}
}

lupulan_special_mil_aspect = {
	cost = 100
	potential = {
		always = no
		NOT = { has_church_aspect = lupulan_special_dip_aspect }
		NOT = { has_church_aspect = lupulan_mil_aspect }
	}
	effect = {

	}
	modifier = {
		max_absolutism = 20
	}
	monarch_power = MIL
	ai_will_do = {
		factor = 100
	}
}

semat_tidakhui_special_mil_aspect = { #check with balance
	cost = 100
	potential = {
		always = no
		NOT = { has_church_aspect = semat_tidakhui_special_dip_aspect }
		NOT = { has_church_aspect = semat_tidakhui_mil_aspect }
	}
	effect = {

	}
	modifier = {
		fire_damage_received = -0.15
	}
	monarch_power = MIL
	ai_will_do = {
		factor = 100
	}
}

gehet_ketine_special_mil_aspect = {
	cost = 100
	potential = {
		always = no
		NOT = { has_church_aspect = gehet_ketine_special_dip_aspect }
		NOT = { has_church_aspect = gehet_ketine_mil_aspect }
	}
	effect = {

	}
	modifier = {
		raze_power_gain = 0.50
	}
	monarch_power = MIL
	ai_will_do = {
		factor = 100
	}
}

huszien_special_mil_aspect = {
	cost = 100
	potential = {
		always = no
		NOT = { has_church_aspect = huszien_special_dip_aspect }
		NOT = { has_church_aspect = huszien_mil_aspect }
	}
	effect = {

	}
	modifier = {
		administrative_efficiency = 0.05
	}
	monarch_power = MIL
	ai_will_do = {
		factor = 100
	}
}