
ghankedhen_education_branch_1 = {
	slot = 1
	generic = no
	ai = yes
	potential = {
	primary_culture = ghankedhen
	}
	has_country_shield = yes

	ghankedhen_educate_our_prodigy = {
		icon = mission_indian_stateman
		required_missions = { ghankedhen_the_strongest_family }
		position = 3
		
		trigger = {
			court_mage = 2
			adm_power = 100
			dip_power = 100
			mil_power = 100
		}
		
		effect = {
			add_adm_power = -100
			add_dip_power = -100
			add_mil_power = -100
			
			hidden_effect = {
				random_list = {
					33 = { set_country_flag = ghankedhen_prodigy_court_mage }
					33 = { set_country_flag = ghankedhen_prodigy_battle_mage }
					33 = { set_country_flag = ghankedhen_prodigy_failure }
				}
			}
			
			country_event = {
				id = ghankedhen_missions.1
				days = 3650
				random = 365
			}
		}
	}
	
	ghankedhen_arrange_a_grand_wedding = {
		icon = mission_interfaith_relations
		required_missions = { ghankedhen_one_family }
		position = 4
		
		trigger = {
			dip_power = 200
		}
		
		effect = {
			add_dip_power = -200
			add_country_modifier = {
				name = ghankedhen_many_children
				duration = 7300
			}
		}
	}
	
}

ghankedhen_education_branch_2 = {
	slot = 1
	generic = no
	ai = yes
	potential = {
		tag = R74
	}
	has_country_shield = yes

	ghankedhen_philosophy_of_the_father = {
		icon = mission_brahmin_administrators
		required_missions = { ghankedhen_the_new_family }
		position = 6
		
		provinces_to_highlight = {
			owned_by = ROOT
			culture = ghankedhen
			NOT = { has_tax_building_trigger = yes }
		}
		
		trigger = {
			custom_trigger_tooltip = {
				tooltip = ghankedhen_philosophy_of_the_father_tt
				all_owned_province = {
					if = {
						limit = { culture = ghankedhen }
						has_tax_building_trigger = yes
					}
				}
			}
		}
		
		effect = {
			add_country_modifier = {
				name = ghankedhen_education_of_the_heir
				duration = 7300
			}
			increase_heir_adm_effect = yes
			increase_heir_dip_effect = yes
			increase_heir_mil_effect = yes
		}
	}
	
	ghankedhen_teach_the_children = {
		icon = mission_ahmadabad_paper
		required_missions = { ghankedhen_philosophy_of_the_father }
		position = 8
		
		trigger = {
			university = 1
		}
		
		effect = {
			add_country_modifier = {
				name = ghankedhen_educated_younger_generation
				duration = 9125
			}
		}
	}
	
}


ghankedhen_family_reform_1 = {
	slot = 2
	generic = no
	ai = yes
	potential = {
		primary_culture = ghankedhen
	}
	has_country_shield = yes

	ghankedhen_the_strongest_family = {
		icon = mission_marathi_fiefs
		required_missions = { ghankedhen_build_up_familial_bonds }
		position = 2
		
		trigger = {
			custom_trigger_tooltip = {
				tooltip = ghankedhen_the_strongest_family_tt
				if = {
					limit = { heir_mil = 6 }
					NOT = {
						any_known_country = { 
							primary_culture = ghankedhen
							heir_mil = 6
						}
					}
				}
				else_if = {
					limit = { heir_mil = 5 }
					NOT = {
						any_known_country = { 
							primary_culture = ghankedhen
							heir_mil = 5
						}
					}
				}
				else_if = {
					limit = { heir_mil = 4 }
					NOT = {
						any_known_country = { 
							primary_culture = ghankedhen
							heir_mil = 4
						}
					}
				}
				else_if = {
					limit = { heir_mil = 3 }
					NOT = {
						any_known_country = { 
							primary_culture = ghankedhen
							heir_mil = 3
						}
					}
				}
				else_if = {
					limit = { heir_mil = 2 }
					NOT = {
						any_known_country = { 
							primary_culture = ghankedhen
							heir_mil = 2
						}
					}
				}
				else = {
					always = no
				}
			}
		}
		
		effect = {
			add_country_modifier = {
				name = ghankedhen_the_strongest_youths
				duration = 7300
			}
		}
	}
	
	ghankedhen_uncles_advice = {
		icon = mission_integrate_the_gonds
		required_missions = { ghankedhen_the_strongest_family }
		position = 3
		
		trigger = {
			employed_advisor = {
				is_male = yes
				culture = ghankedhen
			}
			NOT = { ruler_age = 20 }
		}
		
		effect = {
			add_ruler_modifier = {
				name = ghankedhen_uncles_advice
				duration = -1
			}
		}
	}
	
	ghankedhen_restructure_the_family_unit = {
		icon = mission_defeat_mewar
		required_missions = { ghankedhen_one_family }
		position = 4
		
		trigger = {
			has_global_modifier_value = {
				which = discipline
				value = 0.1
			}
		}
		
		effect = {
			add_army_professionalism = 0.2
			add_country_modifier = {
				name = ghankedhen_restructured_families
				duration = 3650
			}
		}
	}
	
	ghankedhen_the_new_family = {
		icon = mission_accomodate_the_rajputs
		required_missions = { ghankedhen_arrange_a_grand_wedding ghankedhen_restructure_the_family_unit ghankedhen_a_protected_family }
		position = 5
		
		trigger = {
			adm_power = 100
		}
		
		effect = {
			add_adm_power = -100
			add_government_reform = ghankedhen_families
		}
	}
}

ghankedhen_family_reform_2 = {
	slot = 2
	generic = no
	ai = yes
	potential = {
		tag = R74
	}
	has_country_shield = yes
	
	ghankedhen_a_proper_city = {
		icon = mission_conquer_nagaur
		required_missions = { ghankedhen_the_new_family }
		position = 7
		
		provinces_to_highlight = {
			owned_by = ROOT
			culture = ghankedhen
			NOT = { development = 20 }
		}
		
		trigger = {
			any_owned_province = {
				culture = ghankedhen
				development = 20
			}
			treasury = 500
		}
		
		effect = {
			add_treasury = -500
			random_owned_province = {
				limit = {
					culture = ghankedhen
					development = 20
				}
				move_capital_effect = yes
				area = {
					add_base_tax = 2
					add_province_modifier = {
						name = ghankedhen_emergent_capital
						duration = 7300
					}
				}
			}
		}
	}
	
	ghankedhen_a_new_world_city = {
		icon = mission_growth_of_ahmedabad
		required_missions = { ghankedhen_a_proper_city }
		position = 8
		
		provinces_to_highlight = {
			is_capital_of = ROOT
			OR = {
				NOT = {
					has_building = trade_depot
					has_building = stock_exchange
				}
				NOT = { development = 40 }
			}
		}
		
		trigger = {
			capital_scope = {
				OR = {
					has_building = trade_depot
					has_building = stock_exchange
				}
				development = 40
			}
		}
		
		effect = {
			capital_scope = {
				if = {
					limit = { NOT = { province_has_center_of_trade_of_level = 1 } }
					center_of_trade = 2
				}
				else_if = {
					limit = { NOT = { province_has_center_of_trade_of_level = 3 } }
					add_center_of_trade_level = 1
				}
				else = {
					add_base_production = 1
					add_base_tax = 1
				}
			}
		}
	}
	
}


ghankedhen_strong_family_1 = {
	slot = 3
	generic = no
	ai = yes
	potential = {
		primary_culture = ghankedhen
	}
	has_country_shield = yes
	
	ghankedhen_build_up_familial_bonds = {
		icon = mission_rajput_trade_guilds
		required_missions = {  }
		position = 1
		
		trigger = {
			any_ally = {
				primary_culture = ghankedhen
				marriage_with = ROOT
			}
		}
		
		effect = {
			add_country_modifier = {
				name = ghankedhen_familial_bonds
				duration = 7300
			}
		}
	}

	ghankedhen_gather_the_cousins = {
		icon = mission_integrate_the_purbias
		required_missions = { ghankedhen_build_up_familial_bonds }
		position = 2
		
		trigger = {
			army_size_percentage = 1 
		}
		
		effect = {
			south_ghankedhen_area = {
				limit = { NOT = { owned_by = ROOT is_core = ROOT } }
				add_permanent_claim = ROOT
			}
			north_ghankedhen_area = {
				limit = { NOT = { owned_by = ROOT is_core = ROOT } }
				add_permanent_claim = ROOT
			}
			babhagama_area = {
				limit = { NOT = { owned_by = ROOT is_core = ROOT } }
				add_permanent_claim = ROOT
			}
		}
	}
	
	ghankedhen_one_family = {
		icon = mission_new_army
		required_missions = { ghankedhen_gather_the_cousins }
		position = 3
		
		provinces_to_highlight = {
			OR = { 
				area = north_ghankedhen_area
				province_id = 4440
				province_id = 4441
				province_id = 4442
				province_id = 4446
			}
			NOT = {
				owner = { marriage_with = ROOT }
				owned_by = ROOT
			}
		}
		
		trigger = {
			NOT = {
				any_known_country = {
					primary_culture = ghankedhen
					army_size = ROOT
				}
			}
			num_of_owned_provinces_with = {
				value = 6
				culture = ghankedhen
			}
			north_ghankedhen_area = {
				type = all
				OR = {
					owner = { marriage_with = ROOT }
					owned_by = ROOT
				}
			}
			4440 = {
				OR = {
					owner = { marriage_with = ROOT }
					owned_by = ROOT
				}
			}
			4441 = {
				OR = {
					owner = { marriage_with = ROOT }
					owned_by = ROOT
				}
			}
			4442 = {
				OR = {
					owner = { marriage_with = ROOT }
					owned_by = ROOT
				}
			}
			4446 = {
				OR = {
					owner = { marriage_with = ROOT }
					owned_by = ROOT
				}
			}
		}
		
		effect = {
			custom_tooltip = ghankedhen_one_family_tt
			hidden_effect = {
				every_province = {
					limit = { OR = { culture = ghankedhen owner = { primary_culture = ghankedhen } } NOT = { owned_by = ROOT } }
					cede_province = ROOT
				}
			}
		}
	}
	
	ghankedhen_a_protected_family = {
		icon = mission_have_two_subjects
		required_missions = { ghankedhen_one_family }
		position = 4
		
		provinces_to_highlight = {
			OR = {
				AND = {
					is_capital_of = ROOT
					NOT = { fort_level = 3 }
				}
				AND = {
					owned_by = ROOT
					NOT = { fort_level = 2 }
					NOT = {
						ROOT = {
							num_of_owned_provinces_with = {
								value = 3
								fort_level = 2
							}
						}
					}
				}
			}
		}
		
		trigger = {
			capital_scope = { fort_level = 3 }
			num_of_owned_provinces_with = {
				value = 3
				fort_level = 2
			}
		}
		
		effect = {
			add_country_modifier = {
				name = ghankedhen_protected_family
				duration = 5475
			}
		}
	}
	
}

ghankedhen_strong_family_2 = {
	slot = 3
	generic = no
	ai = yes
	potential = {
		tag = R74
	}
	has_country_shield = yes

	ghankedhen_put_the_sons_to_train = {
		icon = mission_have_two_subjects
		required_missions = { ghankedhen_the_new_family }
		position = 6
		
		provinces_to_highlight = {
			owned_by = ROOT
			NOT = { has_building = barracks }
			NOT = { ROOT = { barracks = 5 } }
		}
		
		trigger = {
			barracks = 5
		}
		
		effect = {
			add_country_modifier = {
				name = ghankedhen_trained_youths
				duration = 3650
			}
		}
	}
	
	ghankedhen_boys_to_warriors = {
		icon = mission_conquer_kannauj
		required_missions = { ghankedhen_put_the_sons_to_train }
		position = 7
		
		provinces_to_highlight = {
			owned_by = ROOT
			NOT = { has_building = training_fields }
			NOT = { ROOT = { training_fields = 10 } }
		}
		
		trigger = {
			training_fields = 10
		}
		
		effect = {
			add_country_modifier = {
				name = ghankedhen_boys_to_warriors
				duration = 5475
			}
		}
	}
	
	ghankedhen_a_family_hall = {
		icon = mission_onward_to_lahore
		required_missions = { ghankedhen_a_proper_city }
		position = 8
		
		provinces_to_highlight = {
			is_capital_of = ROOT
			NOT = { has_building = town_hall }
		}
		
		trigger = {
			capital_scope = { has_building = town_hall }
		}
		
		effect = {
			capital_scope = { 
				area = {
					add_province_modifier = {
						name = ghankedhen_capital_attraction
						duration = -1
					}
				}
			}
		}
	}
	
	ghankedhen_rahens_foundry = {
		icon = mission_rb_build_furnaces
		required_missions = { ghankedhen_a_new_world_city ghankedhen_raheni_mass_production }
		position = 9
		
		provinces_to_highlight = {
			OR = {
				AND = {
					trade_goods = iron
					NOT = {
						ROOT = {
							num_of_owned_provinces_with = {
								value = 2
								trade_goods = iron
							}
						}
					}
				}
				AND = {
					trade_goods = coal
					NOT = {
						ROOT = {
							any_owned_province = {
								trade_goods = coal
							}
						}
					}
				}
			}
			NOT = { owned_by = ROOT }
			has_discovered = ROOT
		}
		
		trigger = {
			num_of_owned_provinces_with = {
				value = 2
				trade_goods = iron
			}
			any_owned_province = {
				trade_goods = coal
			}
		}
		
		effect = {
			random_owned_province = {
				limit = { trade_goods = iron NOT = { has_province_modifier = ghankedhen_rahens_foundry } }
				add_province_modifier = {
					name = ghankedhen_rahens_foundry
					duration = -1
				}
			}
			random_owned_province = {
				limit = { trade_goods = iron NOT = { has_province_modifier = ghankedhen_rahens_foundry } }
				add_province_modifier = {
					name = ghankedhen_rahens_foundry
					duration = -1
				}
			}
		}
	}
	
}


ghankedhen_textiles_1 = {
	slot = 4
	generic = no
	ai = yes
	potential = {
		primary_culture = ghankedhen
	}
	has_country_shield = yes

	ghankedhen_expanded_herds = {
		icon = mission_rb_conquer_wales
		required_missions = {  }
		position = 2
		
		provinces_to_highlight = {
			OR = {
				trade_goods = wool
				trade_goods = livestock
			}
			NOT = { owned_by = ROOT }
			has_discovered = ROOT
			NOT = {
				ROOT = {
					num_of_owned_provinces_with = {
						value = 5
						OR = {
							trade_goods = wool
							trade_goods = livestock
						}
					}
				}
			}
		}
		
		trigger = {
			num_of_owned_provinces_with = {
				value = 5
				OR = {
					trade_goods = wool
					trade_goods = livestock
				}
			}
		}
		
		effect = {
			every_owned_province = {
				limit = { OR = { trade_goods = wool trade_goods = livestock } }
				add_base_production = 1
			}
		}
	}
	
	ghankedhen_shepherd_warriors = {
		icon = mission_control_the_ganges_delta
		required_missions = { ghankedhen_gather_the_cousins ghankedhen_expanded_herds }
		position = 3
		
		provinces_to_highlight = {
			OR = {
				trade_goods = wool
				trade_goods = livestock
			}
			NOT = { owned_by = ROOT }
			has_discovered = ROOT
			NOT = {
				ROOT = {
					num_of_owned_provinces_with = {
						value = 10
						OR = {
							trade_goods = wool
							trade_goods = livestock
						}
					}
				}
			}
		}
		
		trigger = {
			num_of_cavalry = 10
			num_of_owned_provinces_with = {
				value = 10
				OR = {
					trade_goods = wool
					trade_goods = livestock
				}
			}
		}
		
		effect = {
			add_country_modifier = {
				name = ghankedhen_shepherd_warrior
				duration = 9125
			}
		}
	}
	
}

ghankedhen_textiles_2 = {
	slot = 4
	generic = no
	ai = yes
	potential = {
		tag = R74
	}
	has_country_shield = yes

	ghankedhen_new_fabric_industries = {
		icon = mission_dominate_trade_in_bengal
		required_missions = { ghankedhen_shepherd_warriors }
		position = 5
		
		provinces_to_highlight = {
			OR = {
				province_id = 4447
				province_id = 4443
			}
			OR = {
				NOT = { owned_by = ROOT }
				NOT = { is_core = ROOT }
			}
		}
		
		trigger = {
			adm_power = 100
			owns_core_province = 4447
			owns_core_province = 4443
		}
		
		effect = {
			add_adm_power = -100
			4447 = {
				change_trade_goods = cloth
				add_base_production = 1
			}
			4443 = {
				change_trade_goods = cloth
				add_base_production = 1
			}
		}
	}
	
	ghankedhen_put_the_daughters_to_work = {
		icon = mission_modernize_production
		required_missions = { ghankedhen_new_fabric_industries ghankedhen_the_new_family }
		position = 6
		
		trigger = {
			workshop = 5
		}
		
		effect = {
			add_country_modifier = {
				name = ghankedhen_women_in_the_workforce
				duration = 9125
			}
		}
	}

	ghankedhen_ghankedhen_manufacturing = {
		icon = mission_industrialize_bengal
		required_missions = { ghankedhen_put_the_daughters_to_work }
		position = 7
		
		provinces_to_highlight = {
			owned_by = ROOT
			NOT = {
				has_building = mills
				has_building = farm_estate
				has_building = tradecompany
				has_building = plantations
				has_building = textile
				has_building = weapons
				has_building = wharf
				has_building = furnace
			}
		}
		
		trigger = {
			num_of_owned_provinces_with = {
				value = 10
				OR = {
					has_building = mills
					has_building = farm_estate
					has_building = tradecompany
					has_building = plantations
					has_building = textile
					has_building = weapons
					has_building = wharf
					has_building = furnace
				}
			}
		}
		
		effect = {
			custom_tooltip = ghankedhen_ghankedhen_manufacturing_tt
			hidden_effect = {
				every_owned_province = {
					limit = { 
						OR = {
							has_building = mills
							has_building = farm_estate
							has_building = tradecompany
							has_building = plantations
							has_building = textile
							has_building = weapons
							has_building = wharf
							has_building = furnace
						}
						culture = ghankedhen
					}
					add_base_production = 2
				}
			}
		}
	}
	
	ghankedhen_raheni_mass_production = {
		icon = mission_rb_prospect_for_coal
		required_missions = { ghankedhen_ghankedhen_manufacturing ghankedhen_develop_arms_industries }
		position = 8
		
		trigger = {
			has_institution = manufactories
		}
		
		effect = {
			add_country_modifier = {
				name = ghankedhen_mass_production_boom
				duration = 3650
			}
		}
	}
	
}

ghankedhen_metalworking = {
	slot = 5
	generic = no
	ai = yes
	potential = {
		tag = R74
	}
	has_country_shield = yes

	ghankedhen_invite_dwarven_artisans = {
		icon = mission_rb_weather_the_reformation
		required_missions = {  }
		position = 4
		
		trigger = {
			any_known_country = {
				has_country_modifier = dwarven_administration
				has_opinion = { who = ROOT value = 120 }
			}
			num_of_owned_provinces_with = {
				value = 2
				OR = {
					trade_goods = iron
					trade_goods = copper
				}
			}
		}
		
		effect = {
			medium_increase_of_dwarven_tolerance_effect = yes
			random_owned_province = {
				limit = { 
					OR = {
						trade_goods = iron
						trade_goods = copper
					}
					has_dwarven_minority_trigger = no
				}
				add_dwarven_minority_size_effect = yes
			}
			random_owned_province = {
				limit = { 
					OR = {
						trade_goods = iron
						trade_goods = copper
					}
					has_dwarven_minority_trigger = no
				}
				add_dwarven_minority_size_effect = yes
			}
		}
	}
	
	ghankedhen_dwarven_prospecting = {
		icon = mission_junnagadh_fort
		required_missions = { ghankedhen_invite_dwarven_artisans }
		position = 5
		
		provinces_to_highlight = {
			OR = {
				province_id = 4442
				province_id = 4548
				province_id = 4446
			}
			OR = {
				NOT = { owned_by = ROOT }
				NOT = { is_core = ROOT }
			}
		}
		
		trigger = {
			adm_power = 100
			owns_core_province = 4442
			owns_core_province = 4548
			owns_core_province = 4446
		}
		
		effect = {
			add_adm_power = -100
			4442 = {
				change_trade_goods = copper
				add_dwarven_minority_size_effect = yes
			}
			4548 = {
				change_trade_goods = iron
				add_dwarven_minority_size_effect = yes
			}
			4446 = {
				change_trade_goods = iron
				add_dwarven_minority_size_effect = yes
			}
		}
	}

	ghankedhen_dig_new_mines = {
		icon = mission_onward_to_gaur
		required_missions = { ghankedhen_dwarven_prospecting ghankedhen_new_fabric_industries }
		position = 6
		
		provinces_to_highlight = {
			owned_by = ROOT
			OR = {
				trade_goods = iron
				trade_goods = copper
			}
			NOT = { base_production = 7 }
		}
		
		trigger = {
			num_of_owned_provinces_with = {
				value = 7
				OR = {
					trade_goods = iron
					trade_goods = copper
				}
				base_production = 7
			}
		}
		
		effect = {
			add_country_modifier = {
				name = ghankedhen_new_metal_mines
				duration = 9125
			}
		}
	}
	
	ghankedhen_develop_arms_industries = {
		icon = mission_rb_central_belt_coal_mining
		required_missions = { ghankedhen_dig_new_mines }
		position = 7
		
		provinces_to_highlight = {
			owned_by = ROOT
			OR = {
				trade_goods = copper
				trade_goods = iron
				trade_goods = mithril
			}
			NOT = { has_building = weapons }
		}
		
		trigger = {
			weapons = 5
		}
		
		effect = {
			add_country_modifier = {
				name = ghankedhen_booming_arms_industry
				duration = 9125
			}
		}
	}
	
	ghankedhen_raheni_dwarven_riles = {
		icon = mission_gunpowder_warfare
		required_missions = { ghankedhen_develop_arms_industries }
		position = 8
		
		trigger = {
			has_global_modifier_value = {
				which = discipline
				value = 0.25
			}
			high_tolerance_dwarven_race_trigger = yes
			mil_power = 400
		}
		
		effect = {
			add_country_modifier = {
				name = ghankedhen_raheni_dwarven_rifles
				duration = -1
			}
			add_mil_power = -400
		}
	}
}
