jiantsiang = {
	slot = 1
	generic = no
	ai = yes
	potential = {
		tag = Y16
	}
	has_country_shield = yes
	jiantsiang_strike = {
		icon = mission_steppe_warriors
		ai = yes
		position = 2
		required_missions = {
			jiantsiang_will
		}
		
		provinces_to_highlight = {
			OR = {
				AND = {
					OR = {
						area = xuanbing_area
						area = jianzhong_area
					}
					NOT = { country_or_non_sovereign_subject_holds = ROOT }
				}
				AND = {
					area = xuanbing_area
					local_autonomy_above_min = 50
				}
			}
		}
		
		trigger = {
			jianzhong_area = {
				type = all
				country_or_non_sovereign_subject_holds = ROOT
			}
			xuanbing_area = {
				type = all
				country_or_non_sovereign_subject_holds = ROOT
				NOT = {
					local_autonomy_above_min = 50
				}
			}
		}
		
		effect = {
			country_event = { id = flavor_jiantsiang.19 }
			tzunguan_area = {
				limit = {
					NOT = { is_core = ROOT }
					NOT = { owned_by = ROOT }
				}
				add_permanent_claim = ROOT
			}
		}
	}
	
	jiantsiang_incompetence = {
		icon = mission_great_wall
		ai = yes
		position = 3
		required_missions = {
			jiantsiang_strike
			jiantsiang_will
		}
		
		provinces_to_highlight = {
			area = tzunguan_area
			NOT = { country_or_non_sovereign_subject_holds = ROOT }
		}
		
		trigger = {
			tzunguan_area = {
				type = all
				country_or_non_sovereign_subject_holds = ROOT
			}
		}
		
		effect = {
			tzunguan_area = {
				add_base_production = 1
				add_base_manpower = 2
			}
			jianzhong_area = {
				add_base_production = 2
				add_base_tax = 1
			}
		}
	}
	
	jiantsiang_swords = {
		icon = mission_warrior_gold
		ai = yes
		position = 4
		required_missions = {
			jiantsiang_loyalty
		}
		
		provinces_to_highlight = {
			OR = {
				area = beikyuan_area
				area = linghui_area
			}
			NOT = { country_or_non_sovereign_subject_holds = ROOT }
		}
		
		trigger = {
			beikyuan_area = {
				type = all
				country_or_non_sovereign_subject_holds = ROOT
			}
			linghui_area = {
				type = all
				country_or_non_sovereign_subject_holds = ROOT
			}
		}
		
		effect = {
			ningxiang_area = {
				limit = {
					NOT = { is_core = ROOT }
					NOT = { owned_by = ROOT }
				}
				add_permanent_claim = ROOT
			}
			liuminxiang_area = {
				limit = {
					NOT = { is_core = ROOT }
					NOT = { owned_by = ROOT }
				}
				add_permanent_claim = ROOT
			}
			erluxi_area = {
				limit = {
					NOT = { is_core = ROOT }
					NOT = { owned_by = ROOT }
				}
				add_permanent_claim = ROOT
			}
			add_estate_loyalty = {
				estate = estate_adventurers
				loyalty = 20
			}
		}
	}
	
	jiantsiang_peasants = {
		icon = mission_rice_field
		ai = yes
		position = 5
		required_missions = {
			jiantsiang_swords
		}
		
		provinces_to_highlight = {
			OR = {
				area = ningxiang_area
				area = liuminxiang_area
				area = erluxi_area
			}
			NOT = { country_or_non_sovereign_subject_holds = ROOT }
		}
		
		trigger = {
			ningxiang_area = {
				type = all
				country_or_non_sovereign_subject_holds = ROOT
			}
			liuminxiang_area = {
				type = all
				country_or_non_sovereign_subject_holds = ROOT
			}
			erluxi_area = {
				type = all
				country_or_non_sovereign_subject_holds = ROOT
			}
		}
		effect = {
			4868 = {
				add_permanent_claim = ROOT
			}
			add_estate_loyalty = {
				estate = estate_nobles
				loyalty = 20
			}
			country_event = { id = flavor_jiantsiang.2 }
		}
	}
	
	jiantsiang_lords = {
		icon = mission_kowtow
		ai = yes
		position = 6
		required_missions = {
			jiantsiang_peasants
		}
		
		provinces_to_highlight = {
			province_id = 4868
			NOT = { country_or_non_sovereign_subject_holds = ROOT }
		}
		
		trigger = {
			4868 = {
				country_or_non_sovereign_subject_holds = ROOT
			}
		}
		
		effect = {
			country_event = { id = flavor_jiantsiang.10 }
			add_country_modifier = {
				name = jiantsiang_order_restored
				duration = 7300 #20 years
			}
			add_estate_loyalty = {
				estate = estate_eunuchs
				loyalty = 20
			}
		}
	}
	
	jiantsiang_kindling = {
		icon = mission_torch_fire
		ai = yes
		position = 7
		required_missions = {
			jiantsiang_lords
		}
		
		provinces_to_highlight = {
			province_id = 4930
			OR = {
				NOT = { owned_by = ROOT }
				NOT = { has_tax_building_trigger = yes }
			}
		}
		
		trigger = {
			4930 = {
				owned_by = ROOT
				has_tax_building_trigger = yes
			}
			estate_loyalty = {
				estate = estate_church
				loyalty = 50
			}
			religious_unity = 1
		}
		effect = {
			country_event = { id = flavor_jiantsiang.3 }
		}
	}
	
	jiantsiang_blazing = {
		icon = mission_burning_man
		ai = yes
		position = 8
		required_missions = {
			jiantsiang_kindling
		}
		
		trigger = {
			OR = {
				army_tradition = 60
				army_professionalism = 0.4
			}
			has_estate_privilege = estate_mages_battlemage_academies
		}
		
		effect = {
			set_country_flag = jiantsiang_blazing_claws
			custom_tooltip = jiantsiang_blazing_claws_reward_tt
			custom_tooltip = merc_elite_no_army_prof_tt
		}
	}
	
	jiantsiang_undying = {
		icon = mission_horse_siege
		ai = yes
		position = 9
		required_missions = {
			jiantsiang_sons
		}
		
		provinces_to_highlight = {
			OR = {
				AND = {
					area = hongnguan_area
					NOT = { country_or_non_sovereign_subject_holds = ROOT }
				}
				AND = {
					province_id = 4896
					NOT = { has_trade_building_trigger = yes }
				}
			}
		}
		
		trigger = {
			hongnguan_area = {
				type = all
				country_or_non_sovereign_subject_holds = ROOT
			}
			4896 = {
				has_trade_building_trigger = yes
			}
		}
		
		effect = {
			yanzhong_area = {
				limit = {
					NOT = { is_core = ROOT }
					NOT = { owned_by = ROOT }
				}
				add_permanent_claim = ROOT
			}
		}
	}
	
	jiantsiang_league = {
		icon = mission_asian_city
		ai = yes
		position = 10
		required_missions = {
			jiantsiang_undying
			jiantsiang_lucky
		}
		
		provinces_to_highlight = {
			OR = {
				area = yanzhong_area
				area = linyuan_area
			}
			NOT = { country_or_non_sovereign_subject_holds = ROOT }
		}
		
		trigger = {
			yanzhong_area = {
				type = all
				country_or_non_sovereign_subject_holds = ROOT
			}
			linyuan_area = {
				type = all
				country_or_non_sovereign_subject_holds = ROOT
			}
		}
		
		effect = {
			anjiang_area = {
				limit = {
					NOT = { is_core = ROOT }
					NOT = { owned_by = ROOT }
				}
				add_permanent_claim = ROOT
			}
		}
	}
}

jiantsiang_two = {
	slot = 2
	generic = no
	ai = yes
	potential = {
		tag = Y16
	}
	has_country_shield = yes
	
	jiantsiang_will = {
		icon = mission_moon_moon
		ai = yes
		position = 1
		required_missions = {
		}
		
		trigger = {
			army_size_percentage = 0.8
		}
		
		effect = {
			xuanbing_area = {
				limit = {
					NOT = { is_core = ROOT }
					NOT = { owned_by = ROOT }
				}
				add_permanent_claim = ROOT
			}
			add_casus_belli = {
				target = Y14
				type = cb_vassalize_mission
			}
		}
	}
	
	jiantsiang_loyalty = {
		icon = mission_sweat_fealty
		ai = yes
		position = 3
		required_missions = {
			jiantsiang_strike
		}
		
		trigger = {
			has_estate = estate_eunuchs
			estate_loyalty = {
				estate = estate_eunuchs
				loyalty = 40
			}
		}
		
		effect = {
			country_event = { id = flavor_jiantsiang.4 }
			beikyuan_area = {
				limit = {
					NOT = { is_core = ROOT }
					NOT = { owned_by = ROOT }
				}
				add_permanent_claim = ROOT
			}
			linghui_area = {
				limit = {
					NOT = { is_core = ROOT }
					NOT = { owned_by = ROOT }
				}
				add_permanent_claim = ROOT
			}
			beidugang_area = {
				limit = {
					NOT = { is_core = ROOT }
					NOT = { owned_by = ROOT }
				}
				add_permanent_claim = ROOT
			}
		}
	}
	jiantsiang_spears = {
		icon = mission_open_up_china
		ai = yes
		position = 5
		required_missions = {
			jiantsiang_loyalty
		}
		
		provinces_to_highlight = {
			OR = {
				AND = {
					area = beidugang_area
					NOT = { country_or_non_sovereign_subject_holds = ROOT }
				}
				AND = {
					province_id = 4907
					OR = {
						NOT = { owned_by = ROOT }
						NOT = { has_trade_building_trigger = yes }
					}
				}
			}
		}
		
		trigger = {
			beidugang_area = {
				type = all
				country_or_non_sovereign_subject_holds = ROOT
			}
			4907 = {
				owned_by = ROOT
				has_trade_building_trigger = yes
			}
		}
		
		effect = {
			add_estate_loyalty = {
				estate = estate_burghers
				loyalty = 20
			}
			jinjiang_area = {
				limit = {
					NOT = { is_core = ROOT }
					NOT = { owned_by = ROOT }
				}
				add_permanent_claim = ROOT
			}
		}
	}
	
	jiantsiang_crossing = {
		icon = mission_clear_the_delta
		ai = yes
		position = 7
		required_missions = {
			jiantsiang_spears
		}
		
		provinces_to_highlight = {
			area = jinjiang_area
			NOT = { country_or_non_sovereign_subject_holds = ROOT }
		}
		
		trigger = {
			jinjiang_area = {
				type = all
				country_or_non_sovereign_subject_holds = ROOT
			}
		}
		
		effect = {
			mulim_area = {
				limit = {
					NOT = { is_core = ROOT }
					NOT = { owned_by = ROOT }
				}
				add_permanent_claim = ROOT
			}
		}
	}
	
	jiantsiang_sons = {
		icon = mission_conquer_bengal_tau
		ai = yes
		position = 8
		required_missions = {
			jiantsiang_kindling
			jiantsiang_crossing
		}
		
		provinces_to_highlight = {
			area = mulim_area
			NOT = { country_or_non_sovereign_subject_holds = ROOT }
		}
		
		trigger = {
			mulim_area = {
				type = all
				country_or_non_sovereign_subject_holds = ROOT
			}
			estate_loyalty = {
				estate = estate_eunuchs
				loyalty = 50
			}
		}
		
		effect = {
			country_event = { id = flavor_jiantsiang.5 }
			4976 = {
				add_permanent_claim = ROOT
			}
			4856 = {
				add_permanent_claim = ROOT
			}
			hongnguan_area = {
				limit = {
					NOT = { is_core = ROOT }
					NOT = { owned_by = ROOT }
				}
				add_permanent_claim = ROOT
			}
		}
	}
	
	jiantsiang_lucky = {
		icon = mission_sun_temple
		ai = yes
		position = 9
		required_missions = {
			jiantsiang_sons
		}
		
		provinces_to_highlight = {
			OR = {
				AND = {
					OR = {
						province_id = 4976
						province_id = 4856
					}
					NOT = { owned_by = ROOT }
				}
				AND = {
					province_id = 4976
					NOT = { has_tax_building_trigger = yes }
				}
			}
		}
		
		trigger = {
			4976 = {
				owned_by = ROOT
				has_tax_building_trigger = yes
			}
			4856 = {
				owned_by = ROOT
			}
		}
		
		effect = {
			linyuan_area = {
				limit = {
					NOT = { is_core = ROOT }
					NOT = { owned_by = ROOT }
				}
				add_permanent_claim = ROOT
			}
			country_event = {
				id = flavor_jiantsiang.6
			}
		}
	}
}

jiantsiang_three = {
	slot = 3
	generic = no
	ai = yes
	potential = {
		tag = Y16
	}
	has_country_shield = yes
	
	jiantsiang_protector = {
		icon = mission_discussion_arch
		ai = yes
		position = 1
		required_missions = {
		}
		
		trigger = {
			stability = 1
		}
		
		effect = {
			country_event = { id = flavor_jiantsiang.7 }
		}
	}
	
	jiantsiang_men = {
		icon = mission_manchu_warrior
		ai = yes
		position = 2
		required_missions = {
			jiantsiang_will
			jiantsiang_protector
			jiantsiang_defenders
		}
		
		trigger = {
			OR = {
				NOT = { republican_tradition = 30 }
				average_unrest = 3
			}
		}
		
		effect = {
			country_event = { id = flavor_jiantsiang.8 }
		}
	}
	
	jiantsiang_paw = {
		icon = mission_seize_the_dragon_throne
		ai = yes
		position = 4
		required_missions = {
			jiantsiang_men
		}
		
		trigger = {
			OR = {
				NOT = { republican_tradition = 10 }
				NOT = { average_autonomy = 10 }
			}
		}
		
		effect = {
			change_government = monarchy
			country_event = { id = flavor_jiantsiang.16 }
			hidden_effect = {
				add_legitimacy = 75
			}
		}
	}
	
	jiantsiang_tianlou = {
		icon = mission_door_trade
		ai = yes
		position = 6
		required_missions = {
			jiantsiang_spears
			jiantsiang_paw
		}
		
		provinces_to_highlight = {
			province_id = 4871
			NOT = { owned_by = ROOT }
		}
		
		trigger = {
			4871 = {
				owned_by = ROOT
			}
		}
		
		effect = {
			country_event = { id = flavor_jiantsiang.9 }
			tianlou_area = {
				limit = {
					NOT = { is_core = ROOT }
					NOT = { owned_by = ROOT }
				}
				add_permanent_claim = ROOT
			}
		}
	}
	jiantsiang_purge = {
		icon = mission_destroyed_city
		ai = yes
		position = 7
		required_missions = {
			jiantsiang_tianlou
		}
		
		provinces_to_highlight = {
			province_id = 4871
			OR = {
				unrest = 0.1
				NOT = { owned_by = ROOT }
			}
		}
		
		trigger = {
			NOT = {
				estate_influence = {
					estate = estate_eunuchs
					influence = 40
				}
			}
			4871 = {
				owned_by = ROOT
				NOT = { unrest = 0 }
			}
			stability = 2
		}
		
		effect = {
			country_event = { id = flavor_jiantsiang.20 }
		}
	}
	
	jiantsiang_ancients = {
		icon = mission_sunset
		ai = yes
		position = 8
		required_missions = {
			jiantsiang_purge
		}
		
		provinces_to_highlight = {
			province_id = 4871
			OR = {
				NOT = { religion = high_philosophy }
				local_autonomy = 10
			}
		}
		
		trigger = {
			4871 = {
				religion = high_philosophy
				NOT = { local_autonomy = 10 }
			}
			religious_unity = 1
			development_in_provinces = {
				value = 200
				religion = high_philosophy
			}
		}
		
		effect = {
			country_event = { id = flavor_jiantsiang.11 }
		}
	}
	
	jiantsiang_sanctum = {
		icon = mission_kanbawzathadi_palace
		ai = yes
		position = 10
		required_missions = {
			jiantsiang_lucky
			jiantsiang_ancients
			jiantsiang_divinity
		}
		
		trigger = {
			monthly_adm = 10
			monthly_dip = 10
			monthly_mil = 10
		}
		
		effect = {
			country_event = {
				id = flavor_jiantsiang.12
			}
		}
	}
	
	# jiantsiang_fire_lord = {
		# icon = mission_harimar
		# ai = yes
		# position = 11
		# required_missions = {
			# jiantsiang_sanctum
		# }
		
		# trigger = {
			# army_size = 60
			# mil_power = 150
			# NOT = { average_autonomy = 20 }
		# }
		
		# effect = {
			# country_event = { id = flavor_jiantsiang.13 }
		# }
	# }
}

jiantsiang_four = {
	slot = 4
	generic = no
	ai = yes
	potential = {
		tag = Y16
	}
	has_country_shield = yes
	
	jiantsiang_defenders = {
		icon = mission_non-western_cavalry_raid
		ai = yes
		position = 1
		required_missions = {
		}
		
		trigger = {
			if = {
				limit = { exists = Y91 }
				war_with = Y91
			}
			else = {
				NOT = { exists = Y91 }
			}
		}
		
		effect = {
			kheizavho_area = {
				limit = {
					NOT = { is_core = ROOT }
					NOT = { owned_by = ROOT }
				}
				add_permanent_claim = ROOT
			}
			yunghuun_area = {
				limit = {
					NOT = { is_core = ROOT }
					NOT = { owned_by = ROOT }
				}
				add_permanent_claim = ROOT
			}
		}
	}
	
	jiantsiang_wilds = {
		icon = mission_protect_white_sea_trade
		ai = yes
		position = 3
		required_missions = {
			jiantsiang_raids
		}
		
		provinces_to_highlight = {
			OR = {
				area = choogiaza_area
				area = zhunmudi_area
				area = baztazhad_area
			}
			NOT = { country_or_non_sovereign_subject_holds = ROOT }
		}
		
		trigger = {
			choogiaza_area = {
				type = all
				country_or_non_sovereign_subject_holds = ROOT
			}
			zhunmudi_area = {
				type = all
				country_or_non_sovereign_subject_holds = ROOT
			}
			baztazhad_area = {
				type = all
				country_or_non_sovereign_subject_holds = ROOT
			}
		}
		
		effect = {
			joolgimudi_area = {
				limit = {
					NOT = { is_core = ROOT }
					NOT = { owned_by = ROOT }
				}
				add_permanent_claim = ROOT
			}
			chegorgtai_area = {
				limit = {
					NOT = { is_core = ROOT }
					NOT = { owned_by = ROOT }
				}
				add_permanent_claim = ROOT
			}
			zirariik_area = {
				limit = {
					NOT = { is_core = ROOT }
					NOT = { owned_by = ROOT }
				}
				add_permanent_claim = ROOT
			}
			zunkazhad_area = {
				limit = {
					NOT = { is_core = ROOT }
					NOT = { owned_by = ROOT }
				}
				add_permanent_claim = ROOT
			}
		}
	}
	
	jiantsiang_shattering = {
		icon = mission_merchant_trip
		ai = yes
		position = 5
		
		required_missions = {
			jiantsiang_wilds
			jiantsiang_east
		}
		
		provinces_to_highlight = {
			region = shuvuushudi_region
			OR = {
				NOT = { country_or_non_sovereign_subject_holds = ROOT }
				local_autonomy = 30
			}
		}
		
		trigger = {
			shuvuushudi_region = {
				type = all
				country_or_non_sovereign_subject_holds = ROOT
				NOT = { local_autonomy = 30 }
			}
		}
		
		effect = {
			odheongu_region = {
				limit = {
					NOT = { is_core = ROOT }
					NOT = { owned_by = ROOT }
				}
				add_permanent_claim = ROOT
			}
		}
	}
	
	jiantsiang_bay = {
		icon = mission_to_the_south_china_sea
		ai = yes
		position = 7
		required_missions = {
			jiantsiang_tianlou
		}
		
		provinces_to_highlight = {
			OR = {
				AND = {
					province_id = 4871
					NOT = {
						trade_share = {
							country = ROOT
							share = 50
						}
					}
				}
				AND = {
					area = tianlou_area
					NOT = { country_or_non_sovereign_subject_holds = ROOT }
				}
			}
		}
		
		trigger = {
			4871 = { #tianlou
				trade_share = {
					country = ROOT
					share = 50
				}
			}
			tianlou_area = {
				type = all
				country_or_non_sovereign_subject_holds = ROOT
			}
		}
		
		effect = {
			add_estate_loyalty = {
				estate = estate_burghers
				loyalty = 20
			}
			add_country_modifier = {
				name = jiantsiang_gateway
				duration = 7300 #20 years
			}
		}
	}
	
	jiantsiang_prosperity = {
		icon = mission_dominate_persian_gulf
		ai = yes
		position = 8
		required_missions = {
			jiantsiang_bay
		}
		
		provinces_to_highlight = {
			OR = {
				area = tianlou_area
				area = beidugang_area
				area = jiantsiang_area
			}
			OR = {
				NOT = { owned_by = ROOT }
				AND = {
					has_dlc = "Mandate of Heaven"
					NOT = { is_prosperous = yes }
				}
				AND = {
					NOT = { has_dlc = "Mandate of Heaven" }
					devastation = 1
				}
			}
		}
		
		trigger = {
			tianlou_area = {
				type = all
				owned_by = ROOT
				if = {
					limit = { has_dlc = "Mandate of Heaven" }
					is_prosperous = yes
				}
				else = {
					NOT = { devastation = 1 }
				}
			}
			beidugang_area = {
				type = all
				owned_by = ROOT
				if = {
					limit = { has_dlc = "Mandate of Heaven" }
					is_prosperous = yes
				}
				else = {
					NOT = { devastation = 1 }
				}
			}
			jiantsiang_area = {
				type = all
				owned_by = ROOT
				if = {
					limit = { has_dlc = "Mandate of Heaven" }
					is_prosperous = yes
				}
				else = {
					NOT = { devastation = 1 }
				}
			}
		}
		
		effect = {
			add_estate_loyalty = {
				estate = all
				loyalty = 5
			}
			add_country_modifier = {
				name = jiantsiang_harmony
				duration = 7300 #20 years
			}
		}
	}
	jiantsiang_divinity = {
		icon = mission_empowerment
		ai = yes
		position = 9
		
		required_missions = {
			jiantsiang_prosperity
			jiantsiang_treasure
		}
		
		trigger = {
			precursor_relics = 1
			estate_loyalty = {
				estate = estate_mages
				estate = estate_church
				loyalty = 60
			}
		}
		
		effect = {
			add_country_modifier = {
				name = jiantsiang_insights
				duration = 7300 #20 years
			}
		}
	}
}

jiantsiang_five = {
	slot = 5
	generic = no
	ai = yes
	potential = {
		tag = Y16
	}
	has_country_shield = yes
	
	jiantsiang_raids = {
		icon = mission_hanged_tree
		ai = yes
		position = 2
		required_missions = {
			jiantsiang_defenders
		}
		
		provinces_to_highlight = {
			OR = {
				area = kheizavho_area
				area = yunghuun_area
			}
			NOT = { country_or_non_sovereign_subject_holds = ROOT }
		}
		
		trigger = {
			kheizavho_area = {
				type = all
				country_or_non_sovereign_subject_holds = ROOT
			}
			yunghuun_area = {
				type = all
				country_or_non_sovereign_subject_holds = ROOT
			}
		}
		
		effect = {
			choogiaza_area = {
				limit = {
					NOT = { is_core = ROOT }
					NOT = { owned_by = ROOT }
				}
				add_permanent_claim = ROOT
			}
			zhunmudi_area = {
				limit = {
					NOT = { is_core = ROOT }
					NOT = { owned_by = ROOT }
				}
				add_permanent_claim = ROOT
			}
			baztazhad_area = {
				limit = {
					NOT = { is_core = ROOT }
					NOT = { owned_by = ROOT }
				}
				add_permanent_claim = ROOT
			}
		}
	}
	
	jiantsiang_steppe = {
		icon = mission_head_on_spike
		ai = yes
		position = 3
		required_missions = {
			jiantsiang_raids
		}
		
		provinces_to_highlight = {
			province_id = 5415
			NOT = {
				AND = {
					fort_level = 2
					has_manpower_building_trigger = yes
					owned_by = ROOT
					is_core = ROOT
				}
			}
		}
		
		trigger = {
			5415 = {
				fort_level = 2
				has_manpower_building_trigger = yes
				owned_by = ROOT
				is_core = ROOT
			}
		}
		
		effect = {
			5408 = {
				change_religion = righteous_path
				change_culture = northern_yan
			}
			5417 = {
				change_religion = righteous_path
				change_culture = northern_yan
			}
			5416 = {
				change_religion = righteous_path
				change_culture = northern_yan
			}
			5415 = {
				change_religion = ROOT
				change_culture = east_harimari
			}
		}
	}
	
	jiantsiang_east = {
		icon = mission_nomad
		ai = yes
		position = 4
		required_missions = {
			jiantsiang_wilds
			jiantsiang_steppe
		}
		
		provinces_to_highlight = {
			OR = {
				area = zirariik_area
				area = zunkazhad_area
				area = joolgimudi_area
				area = chegorgtai_area
			}
			NOT = { country_or_non_sovereign_subject_holds = ROOT }
		}
		
		trigger = {
			zirariik_area = {
				type = all
				country_or_non_sovereign_subject_holds = ROOT
			}
			zunkazhad_area = {
				type = all
				country_or_non_sovereign_subject_holds = ROOT
			}
			joolgimudi_area = {
				type = all
				country_or_non_sovereign_subject_holds = ROOT
			}
			chegorgtai_area = {
				type = all
				country_or_non_sovereign_subject_holds = ROOT
			}
		}
		
		effect = {
			country_event = { id = flavor_jiantsiang.14 }
		}
	}
	
	jiantsiang_kingdom = {
		icon = mission_collect_yasak
		ai = yes
		position = 5
		required_missions = {
			jiantsiang_east
		}
		
		trigger = {
			accepted_culture = shuvuush
			development_in_provinces = {
				value = 50
				culture = shuvuush
			}
			OR = {
				army_tradition = 60
				army_professionalism = 0.4
			}
		}
		
		effect = {
			set_country_flag = jiantsiang_shuvuush_auxilaries
			custom_tooltip = jiantsiang_shuvuush_auxilaries_reward_tt
			custom_tooltip = merc_elite_no_army_prof_tt
		}
	}
	
	jiantsiang_gate = {
		icon = mission_burning_parthenon
		ai = yes
		position = 6
		required_missions = {
			jiantsiang_shattering
		}
		
		provinces_to_highlight = {
			province_id = 5353
			NOT = { controlled_by = ROOT }
		}
		
		trigger = {
			5353 = {
				controlled_by = ROOT
			}
		}
		
		effect = {
			country_event = { id = flavor_jiantsiang.15 }
		}
	}
	
	jiantsiang_tumbling = {
		icon = mission_steppe_warriors
		ai = yes
		position = 7
		required_missions = {
			jiantsiang_gate
		}
		
		provinces_to_highlight = {
			region = odheongu_region
			NOT = { country_or_non_sovereign_subject_holds = ROOT }
		}
		
		trigger = {
			odheongu_region = {
				type = all
				country_or_non_sovereign_subject_holds = ROOT
			}
		}
		
		effect = {
			add_country_modifier = {
				name = jiantsiang_northern_riches
				duration = 7300 #20 years
			}
		}
	}
	
	jiantsiang_treasure = {
		icon = mission_treasure_room
		ai = yes
		position = 8
		required_missions = {
			jiantsiang_tumbling
		}
		
		provinces_to_highlight = {
			province_id = 5419
			OR = {
				NOT = { country_or_non_sovereign_subject_holds = ROOT }
				NOT = { base_production = 8 }
			}
		}
		
		trigger = {
			5419 = {
				owned_by = ROOT
				base_production = 8
			}
		}
		
		effect = {
			add_estate_loyalty = {
				estate = estate_mages
				loyalty = 10
			}
			add_country_modifier = {
				name = jiantsiang_relics
				duration = 7300 #20 years
			}
		}
	}
}
