
moredhal_slot_1 = {
	slot = 1
	generic = no
	ai = yes
	potential = {
		tag = B62
	}
	has_country_shield = yes
	
	B62_cursewood_connections = {
		icon = mission_alone_in_the_wood
		required_missions = {  }
		position = 1
		
		provinces_to_highlight = {
			area = cursewood_area
		}
		
		trigger = {
			num_of_provinces_owned_or_owned_by_non_sovereign_subjects_with = {
				value = 2
				area = cursewood_area
				custom_trigger_tooltip = {
					tooltip = B62_modern_fort
					province_has_current_tech_fort_trigger = yes
				}
				is_city = yes
				country_or_non_sovereign_subject_holds = B62
			}
		}
			
		effect = {
			random_province = {
				limit = {
					is_city = yes
					area = cannwood_area
					development = 30
					country_or_non_sovereign_subject_holds = B62
				}
				add_province_modifier = { 
					name = moredhal_cursewood_bastion
					duration = 7300
				}
			}
		}
	}

	B62_agroda_weapons = {
		icon = mission_dark_rituals
		required_missions = { B62_archaeology }
		position = 3
		
		provinces_to_highlight = {
		}
		
		trigger = {
			num_of_provinces_owned_or_owned_by_non_sovereign_subjects_with = {
				value = 6
				trade_goods = iron
				has_manufactory_trigger = yes
				is_city = yes
				country_or_non_sovereign_subject_holds = B62
			}
		}
			
		effect = {
			add_country_modifier = { 
				name = moredhal_agroda_arms
				duration = 7300 
			}
		}
	}

	B62_alenic_advance = {
		icon = mission_confrontation
		required_missions = { B62_end_the_aldresians }
		position = 8
		
		provinces_to_highlight = {
			region = alenic_frontier_region
		}
		
		trigger = {
			num_of_provinces_owned_or_owned_by_non_sovereign_subjects_with = {
				value = 12
				region = alenic_frontier_region
				country_or_non_sovereign_subject_holds = B62
				is_city = yes
			}
		}
			
		effect = {
			alenic_frontier_region = {
				limit = {
					NOT = { is_core = ROOT }
					NOT = { owned_by = ROOT }
				}
				add_permanent_claim = ROOT
			}
			damescrown_region = {
				limit = {
					NOT = { is_core = ROOT }
					NOT = { owned_by = ROOT }
				}
				add_claim = ROOT
			}
		}
	}

	B62_river_of_mankind = {
		icon = mission_galleys_in_port
		required_missions = { B62_alenic_advance }
		position = 9
		
		provinces_to_highlight = {
			region = alenic_frontier_region
			OR = {
				has_any_elven_pop_trigger = yes
				has_any_dwarven_pop_trigger = yes
			}
		}
		
		trigger = {
			alenic_frontier_region = {
				type = all
				country_or_non_sovereign_subject_holds = ROOT
				custom_trigger_tooltip = {
					tooltip = B62_purged
					NOT = {
						has_any_elven_pop_trigger = yes
						has_any_dwarven_pop_trigger = yes
					}
				}
			}
		}
			
		effect = {
			337 = {
				add_province_modifier = { 
					name = moredhal_alenath_temple_one
					duration = -1
				}
			}
			custom_tooltip = moredhal_missive_reach_tt
			hidden_effect = {
				alenic_reach_region = {
					limit = {
						OR = {
							owner = { primary_culture = blue_reachman }
							owner = { primary_culture = white_reachman }
							owner = { primary_culture = old_alenic }
						}
					}
					owner = {
						country_event = { 
							id = flavor_moredhal.6
							days = 3
						}
					}
				}
			}
		}
	}

	B62_northern_kin = {
		icon = mission_empire
		required_missions = { B62_river_of_mankind }
		position = 10
		
		provinces_to_highlight = {
			region = gerudian_coast_region
		}
		
		trigger = {
			num_of_provinces_owned_or_owned_by_non_sovereign_subjects_with = {
				value = 12
				region = gerudian_coast_region
				country_or_non_sovereign_subject_holds = B62
				is_city = yes
			}
		}
			
		effect = {
			gerudian_coast_region = {
				limit = {
					NOT = { is_core = ROOT }
					NOT = { owned_by = ROOT }
				}
				add_permanent_claim = ROOT
			}
		}
	}

	B62_heirs_of_the_berserkers = {
		icon = mission_mounted_battle
		required_missions = { B62_northern_kin }
		position = 11
		
		provinces_to_highlight = {
			region = gerudian_coast_region
			OR = {
				has_any_elven_pop_trigger = yes
				has_any_dwarven_pop_trigger = yes
			}
		}
		
		trigger = {
			gerudian_coast_region = {
				type = all
				country_or_non_sovereign_subject_holds = ROOT
				custom_trigger_tooltip = {
					tooltip = B62_purged
					NOT = {
						has_any_elven_pop_trigger = yes
						has_any_dwarven_pop_trigger = yes
					}
				}
			}
		}
			
		effect = {
			custom_tooltip = grudgeknights_tt
			hidden_effect = {
				gerudian_coast_region = {
					add_core = B63
					cede_province = B63
				}
				gerudia_superregion = {
					add_permanent_claim = B63
				}
				B63 = {
					change_religion = infernal_court
					change_primary_culture = moredhalic
					change_government = theocracy
					add_accepted_culture = olavish
					add_prestige = 100
					add_government_reform = infernal_order_state_reform
					define_ruler = {
						name = "Aurgelmer"
						culture = moredhalic
						adm = 4
						dip = 2
						mil = 6
						age = 34
					}
				}
				B62 = {
					create_subject = {
						subject_type = infernal_order_state_subject
						subject = B63
					}
				}
			}
		}
	}

}

moredhal_slot_2 = {
	slot = 2
	generic = no
	ai = yes
	potential = {
		tag = B62
	}
	has_country_shield = yes
	
	B62_archaeology = {
		icon = mission_science
		required_missions = { B62_cursewood_connections B62_agrador }
		position = 2
		
		provinces_to_highlight = {
			area = cannwood_area
		}
		
		trigger = {
			cannwood_area = {
				is_city = yes
				has_building = university
				country_or_non_sovereign_subject_holds = B62
			}
		}
			
		effect = {
			add_country_modifier = { 
				name = moredhal_agroda_relics
				duration = 7300 
			}
		}
	}

	B62_prepare_ritual = {
		icon = mission_missive
		required_missions = { B62_agroda_weapons B62_humanity_inheritance }
		position = 4
		
		provinces_to_highlight = {
			area = cannwood_area
		}
		
		trigger = {
			cannwood_area = {
				is_city = yes
				development = 30
				has_province_flag = is_agrador
				country_or_non_sovereign_subject_holds = B62
			}
		}
			
		effect = {
			random_province = {
				limit = {
					has_province_flag = is_agrador
				}
				add_province_modifier = { 
					name = moredhal_agrador_temple_one
					duration = -1
				}
			}
		}
	}

	B62_end_the_aldresians = {
		icon = mission_head_on_spike
		required_missions = { B62_prepare_reclamation }
		position = 7
		
		provinces_to_highlight = {
			region = forlorn_vale_region
		}
		
		trigger = {
			num_of_provinces_owned_or_owned_by_non_sovereign_subjects_with = {
				value = 12
				region = forlorn_vale_region
				country_or_non_sovereign_subject_holds = B62
				is_city = yes
			}
			422 = {
				country_or_non_sovereign_subject_holds = B62
			}
			423 = {
				country_or_non_sovereign_subject_holds = B62
			}
		}
			
		effect = {
			forlorn_vale_region = {
				limit = {
					NOT = { is_core = ROOT }
					NOT = { owned_by = ROOT }
				}
				add_permanent_claim = ROOT
			}
			alenic_frontier_region = {
				limit = {
					NOT = { is_core = ROOT }
					NOT = { owned_by = ROOT }
				}
				add_claim = ROOT
			}
		}
	}

	B62_ibenions_legacy = {
		icon = mission_three_elves
		required_missions = { B62_end_the_aldresians }
		position = 8
		
		provinces_to_highlight = {
			region = forlorn_vale_region
			OR = {
				has_any_elven_pop_trigger = yes
				has_any_dwarven_pop_trigger = yes
			}
		}
		
		trigger = {
			forlorn_vale_region = {
				type = all
				country_or_non_sovereign_subject_holds = ROOT
				custom_trigger_tooltip = {
					tooltip = B62_purged
					NOT = {
						has_any_elven_pop_trigger = yes
						has_any_dwarven_pop_trigger = yes
					}
				}
			}
		}
			
		effect = {
			352 = {
				add_province_modifier = { 
					name = moredhal_ibevar_temple_one
					duration = -1
				}
			}
		}
	}

	B62_take_the_crown = {
		icon = mission_beheading
		required_missions = { B62_alenic_advance }
		position = 9
		
		provinces_to_highlight = {
			region = damescrown_region
		}
		
		trigger = {
			num_of_provinces_owned_or_owned_by_non_sovereign_subjects_with = {
				value = 12
				region = damescrown_region
				country_or_non_sovereign_subject_holds = B62
				is_city = yes
			}
			249 = {
				country_or_non_sovereign_subject_holds = B62
			}
			216 = {
				country_or_non_sovereign_subject_holds = B62
			}
		}
			
		effect = {
			damescrown_region = {
				limit = {
					NOT = { is_core = ROOT }
					NOT = { owned_by = ROOT }
				}
				add_permanent_claim = ROOT
			}
			custom_tooltip = moredhal_missive_damescrown_tt
			hidden_effect = {
				damescrown_region = {
					limit = {
						OR = {
							owner = { primary_culture = damescrowner }
							owner = { primary_culture = vertesker }
						}
					}
					owner = {
						country_event = { 
							id = flavor_moredhal.6
							days = 3
						}
					}
				}
			}
		}
	}

	B62_crown_of_mankind = {
		icon = mission_captured
		required_missions = { B62_take_the_crown }
		position = 10
		
		provinces_to_highlight = {
			region = damescrown_region
			OR = {
				has_any_elven_pop_trigger = yes
				has_any_dwarven_pop_trigger = yes
			}
		}
		
		trigger = {
			damescrown_region = {
				type = all
				country_or_non_sovereign_subject_holds = ROOT
				custom_trigger_tooltip = {
					tooltip = B62_purged
					NOT = {
						has_any_elven_pop_trigger = yes
						has_any_dwarven_pop_trigger = yes
					}
				}
			}
		}
			
		effect = {
			249 = {
				add_province_modifier = { 
					name = moredhal_aramar_temple_one
					duration = -1
				}
			}
			custom_tooltip = moredhal_missive_small_country_tt
			hidden_effect = {
				small_country_region = {
					limit = {
						NOT = { owner = { culture_group = elven } }
					}
					owner = {
						country_event = { 
							id = flavor_moredhal.6
							days = 3
						}
					}
				}
				dragon_coast_region = {
					limit = {
						NOT = { owner = { culture_group = elven } }
					}
					owner = {
						country_event = { 
							id = flavor_moredhal.6
							days = 3
						}
					}
				}
			}
		}
	}

	B62_into_esmaria = {
		icon = mission_city_prosperity
		required_missions = { B62_imperial_foothold }
		position = 12
		
		provinces_to_highlight = {
			region = esmaria_region
		}
		
		trigger = {
			num_of_provinces_owned_or_owned_by_non_sovereign_subjects_with = {
				value = 12
				region = esmaria_region
				country_or_non_sovereign_subject_holds = B62
				is_city = yes
			}
			266 = {
				country_or_non_sovereign_subject_holds = B62
			}
			280 = {
				country_or_non_sovereign_subject_holds = B62
			}
		}
			
		effect = {
			esmaria_region = {
				limit = {
					NOT = { is_core = ROOT }
					NOT = { owned_by = ROOT }
				}
				add_permanent_claim = ROOT
			}
		}
	}
}

moredhal_slot_3 = {
	slot = 3
	generic = no
	ai = yes
	potential = {
		tag = B62
	}
	has_country_shield = yes
	
	B62_agrador = {
		icon = mission_arise_ashes
		required_missions = {  }
		position = 1
		
		provinces_to_highlight = {
			area = cannwood_area
		}
		
		trigger = {
			cannwood_area = {
				is_city = yes
				development = 30
				country_or_non_sovereign_subject_holds = B62
			}
		}
			
		effect = {
			random_province = {
				limit = {
					is_city = yes
					area = cannwood_area
					development = 30
					country_or_non_sovereign_subject_holds = B62
				}
				set_province_flag = is_agrador
				rename_capital = "Agrador"
				change_province_name = "Agrador"
			}
			cannwood_area = {
				change_culture = moredhalic
			}
		}
	}

	B62_humanity_inheritance = {
		icon = mission_big_house
		required_missions = { B62_archaeology B62_unite_wescann }
		position = 3
		
		provinces_to_highlight = {
			region = west_castanor_region
			OR = {
				has_any_elven_pop_trigger = yes
				has_any_dwarven_pop_trigger = yes
			}
		}
		
		trigger = {
			west_castanor_region = {
				type = all
				country_or_non_sovereign_subject_holds = ROOT
				custom_trigger_tooltip = {
					tooltip = B62_purged
					NOT = {
						has_any_elven_pop_trigger = yes
						has_any_dwarven_pop_trigger = yes
					}
				}
			}
		}
			
		effect = {
			west_castanor_region = {	#Doesnt show up for some reason
				limit = {
					OR = {
						culture_group = escanni
						culture_group = anbennarian
						culture_group = lencori
					}
				}
				change_culture = moredhalic
			}
		}
	}

	B62_embrace_infernal = {
		icon = mission_burning_man
		required_missions = { B62_prepare_ritual B62_build_agraced }
		position = 5
		
		provinces_to_highlight = {
			OR = {
				region = west_castanor_region
				region = south_castanor_region
				region = inner_castanor_region
			}
			OR = {
				has_any_elven_pop_trigger = yes
				has_any_dwarven_pop_trigger = yes
			}
		}
		
		trigger = {
			west_castanor_region = {
				type = all
				country_or_non_sovereign_subject_holds = ROOT
				custom_trigger_tooltip = {
					tooltip = B62_purged
					NOT = {
						has_any_elven_pop_trigger = yes
						has_any_dwarven_pop_trigger = yes
					}
				}
			}
			inner_castanor_region = {
				type = all
				country_or_non_sovereign_subject_holds = ROOT
				custom_trigger_tooltip = {
					tooltip = B62_purged
					NOT = {
						has_any_elven_pop_trigger = yes
						has_any_dwarven_pop_trigger = yes
					}
				}
			}
			south_castanor_region = {
				type = all
				country_or_non_sovereign_subject_holds = ROOT
				custom_trigger_tooltip = {
					tooltip = B62_purged
					NOT = {
						has_any_elven_pop_trigger = yes
						has_any_dwarven_pop_trigger = yes
					}
				}
			}
		}
			
		effect = {
			add_government_reform = infernal_autocracy
			change_religion = infernal_court
			custom_tooltip = moredhal_infernal_tt
			hidden_effect = {
				escann_superregion = {
					limit = {
						culture = moredhalic
					}
					change_religion = infernal_court
				}
				if = {
					limit = { accepted_culture = green_orc }
					escann_superregion = {
						limit = {
							culture = green_orc
						}
						change_religion = infernal_court
					}
				}
			}
		}
	}

	B62_prepare_reclamation = {
		icon = mission_burning_parthenon
		required_missions = { B62_embrace_infernal }
		position = 6
		
		provinces_to_highlight = {
			region = forlorn_vale_region
		}
		
		trigger = {
			custom_trigger_tooltip = {
				tooltip = B62_farrani_resolved
				has_country_flag = farrani_revolt_resolved
			}
		}
			
		effect = {
			forlorn_vale_region = {
				limit = {
					NOT = { is_core = ROOT }
					NOT = { owned_by = ROOT }
				}
				add_claim = ROOT
			}
			2863 = {
				add_claim = ROOT
			}
			4553 = {
				add_claim = ROOT
			}
			4552 = {
				add_claim = ROOT
			}
			4097 = {
				add_claim = ROOT
			}
			889 = {
				add_claim = ROOT
			}
			813 = {
				add_claim = ROOT
			}
		}
	}

	B62_imperial_foothold = {
		icon = mission_kowtow
		required_missions = { B62_crown_of_mankind B62_new_milcorissia }
		position = 11
		
		provinces_to_highlight = {
			superregion = west_cannor_superregion
			owned_by = B62
		}
		
		trigger = {
			num_of_provinces_owned_or_owned_by_non_sovereign_subjects_with = {
				value = 60
				superregion = western_cannor_superregion
				culture = moredhalic
				country_or_non_sovereign_subject_holds = B62
				is_city = yes
			}
		}
			
		effect = {
			custom_tooltip = B62_imperial_claim_tt
			hidden_effect = {
				western_cannor_superregion = {
					limit = {
						NOT = { is_core = ROOT }
						NOT = { owned_by = ROOT }
						is_part_of_hre = yes
					}
					add_permanent_claim = ROOT
				}
			}
		}
	}

	B62_end_of_an_empire = {
		icon = mission_burning_castle
		required_missions = { B62_imperial_foothold }
		position = 12
		
		provinces_to_highlight = {
			province_id = 8
		}
		
		trigger = {
			8 = {
				country_or_non_sovereign_subject_holds = B62
			}
		}
			
		effect = {
			western_cannor_superregion = {
				limit = {
					NOT = { is_core = ROOT }
					NOT = { owned_by = ROOT }
				}
				add_permanent_claim = ROOT
			}
			custom_tooltip = moredhal_missive_dameria_tt
			hidden_effect = {
				west_dameshead_region = {
					limit = {
						NOT = { owner = { culture_group = elven } }
					}
					owner = {
						country_event = { 
							id = flavor_moredhal.6
							days = 3
						}
					}
				}
				east_dameshead_region = {
					limit = {
						NOT = { owner = { culture_group = elven } }
					}
					owner = {
						country_event = { 
							id = flavor_moredhal.6
							days = 3
						}
					}
				}
			}
			dismantle_hre = yes
		}
	}

	B62_city_on_a_hill = {
		icon = mission_magisterium_breakthrough
		required_missions = { B62_into_esmaria B62_end_of_an_empire B62_into_the_dameshead }
		position = 13
		
		provinces_to_highlight = {
			OR = {
				area = west_damesear_area
				area = east_damesear_area
			}
			OR = {
				has_any_elven_pop_trigger = yes
				has_any_dwarven_pop_trigger = yes
			}
		}
		
		trigger = {
			west_damesear_area = {
				type = all
				country_or_non_sovereign_subject_holds = B62
				custom_trigger_tooltip = {
					tooltip = B62_purged
					NOT = {
						has_any_elven_pop_trigger = yes
						has_any_dwarven_pop_trigger = yes
					}
				}
			}
			east_damesear_area = {
				type = all
				country_or_non_sovereign_subject_holds = B62
				custom_trigger_tooltip = {
					tooltip = B62_purged
					NOT = {
						has_any_elven_pop_trigger = yes
						has_any_dwarven_pop_trigger = yes
					}
				}
			}
		}
			
		effect = {
			custom_tooltip = passionates_tt
			hidden_effect = {
				west_damesear_area = {
					add_core = B64
					cede_province = B64
					change_culture = moredhalic
				}
				east_damesear_area = {
					add_core = B64
					cede_province = B64
					change_culture = moredhalic
				}
				akan_region = {
					add_permanent_claim = B64
				}
				businor_region = {
					add_permanent_claim = B64
				}
				sornhills_area = {
					add_permanent_claim = B64
				}
				sorncost_vines_area = {
					add_permanent_claim = B64
				}
				venail_area = {
					add_permanent_claim = B64
				}
				B64 = {
					change_religion = infernal_court
					change_primary_culture = moredhalic
					change_government = theocracy
					add_prestige = 100
					add_government_reform = infernal_order_state_reform
					define_ruler = {
						name = "Morrigan"
						female = yes
						culture = moredhalic
						adm = 5
						dip = 5
						mil = 3
						age = 27
					}
				}
				B62 = {
					create_subject = {
						subject_type = infernal_order_state_subject
						subject = B64
					}
				}
			}
		}
	}

}

moredhal_slot_4 = {
	slot = 4
	generic = no
	ai = yes
	potential = {
		tag = B62
	}
	has_country_shield = yes
	
	B62_unite_wescann = {
		icon = mission_assassination
		required_missions = { B62_agrador B62_army_of_man }
		position = 2
		
		provinces_to_highlight = {
			OR = {
				region = west_castanor_region
				area = cursewood_area
				area = whistlevale_area
			}
		}
		
		trigger = {
			west_castanor_region = {
				type = all
				country_or_non_sovereign_subject_holds = ROOT
			}
			cursewood_area = {
				type = all
				country_or_non_sovereign_subject_holds = ROOT
			}
			whistlevale_area = {
				type = all
				country_or_non_sovereign_subject_holds = ROOT
			}
			development_in_provinces = {
				value = 200
				culture = moredhalic
			}
		}
			
		effect = {
			south_castanor_region = {
				limit = {
					NOT = { is_core = ROOT }
					NOT = { owned_by = ROOT }
				}
				add_permanent_claim = ROOT
			}
			inner_castanor_region = {
				limit = {
					NOT = { is_core = ROOT }
					NOT = { owned_by = ROOT }
				}
				add_permanent_claim = ROOT
			}
		}
	}

	B62_build_agraced = {
		icon = mission_alone_in_the_forest
		required_missions = { B62_bal_mire B62_humanity_inheritance }
		position = 4
		
		provinces_to_highlight = {
			area = castonath_area
		}
		
		trigger = {
			castonath_area = {
				type = all
				NOT = { local_autonomy = 10 }
				country_or_non_sovereign_subject_holds = B62
			}
		}
			
		effect = {
			set_country_flag = moredhal_agraced
			castonath_area = {
				change_culture = moredhalic
			}
			832 = {
				rename_capital = "West Agraced"
				change_province_name = "West Agraced"
			}
			833 = {
				rename_capital = "North Agraced"
				change_province_name = "North Agraced"
			}
			831 = {
				rename_capital = "South Agraced"
				change_province_name = "South Agraced"
			}
		}
	}

	B62_plugging_the_gaps = {
		icon = mission_armoury
		required_missions = { B62_prepare_reclamation }
		position = 7
		
		provinces_to_highlight = {
			OR = {
				province_id = 2863
				province_id = 4553
				province_id = 4552
				province_id = 4097
				province_id = 889
				province_id = 813
			}
		}
		
		trigger = {
			2863 = {
				country_or_non_sovereign_subject_holds = B62
				custom_trigger_tooltip = {
					tooltip = B62_modern_fort
					province_has_current_tech_fort_trigger = yes
				}
			}
			4553 = {
				country_or_non_sovereign_subject_holds = B62
				custom_trigger_tooltip = {
					tooltip = B62_modern_fort
					province_has_current_tech_fort_trigger = yes
				}
			}
			4552 = {
				country_or_non_sovereign_subject_holds = B62
				custom_trigger_tooltip = {
					tooltip = B62_modern_fort
					province_has_current_tech_fort_trigger = yes
				}
			}
			4097 = {
				country_or_non_sovereign_subject_holds = B62
				OR = {
					custom_trigger_tooltip = {
						tooltip = B62_modern_fort
						province_has_current_tech_fort_trigger = yes
					}
					NOT = {
						has_great_project = {
							type = marrhold_tunnel 
						}
					}
				}
			}
			889 = {
				country_or_non_sovereign_subject_holds = B62
				custom_trigger_tooltip = {
					tooltip = B62_modern_fort
					province_has_current_tech_fort_trigger = yes
				}
			}
			813 = {
				country_or_non_sovereign_subject_holds = B62
				custom_trigger_tooltip = {
					tooltip = B62_modern_fort
					province_has_current_tech_fort_trigger = yes
				}
			}
		}
			
		effect = {
			2863 = {
				add_province_modifier = { 
					name = moredhal_dwarovar_bastion
					duration = -1
				}
			}
			4553 = {
				add_province_modifier = { 
					name = moredhal_dwarovar_bastion
					duration = -1
				}
			}
			4552 = {
				add_province_modifier = { 
					name = moredhal_dwarovar_bastion
					duration = -1
				}
			}
			4097 = {
				add_province_modifier = { 
					name = moredhal_dwarovar_bastion
					duration = -1
				}
			}
			889 = {
				add_province_modifier = { 
					name = moredhal_dwarovar_bastion
					duration = -1
				}
			}
			813 = {
				add_province_modifier = { 
					name = moredhal_dwarovar_bastion
					duration = -1
				}
			}
			dostanor_region = {
				limit = {
					NOT = { is_core = ROOT }
					NOT = { owned_by = ROOT }
				}
				add_claim = ROOT
			}
			daravans_folly_region = {
				limit = {
					NOT = { is_core = ROOT }
					NOT = { owned_by = ROOT }
				}
				add_claim = ROOT
			}
			ourdia_region = {
				limit = {
					NOT = { is_core = ROOT }
					NOT = { owned_by = ROOT }
				}
				add_claim = ROOT
			}
		}
	}

	B62_new_frontiers = {
		icon = mission_hanged_tree
		required_missions = { B62_plugging_the_gaps }
		position = 8
		
		provinces_to_highlight = {
			OR = {
				province_id = 2863
				province_id = 4552
				province_id = 4553
				province_id = 4097
				province_id = 889
				province_id = 813
			}
			OR = {
				has_any_elven_pop_trigger = yes
				has_any_dwarven_pop_trigger = yes
			}
		}
		
		trigger = {
			2863 = {
				country_or_non_sovereign_subject_holds = B62
				custom_trigger_tooltip = {
					tooltip = B62_purged
					NOT = {
						has_any_elven_pop_trigger = yes
						has_any_dwarven_pop_trigger = yes
					}
				}
			}
			4552 = {
				country_or_non_sovereign_subject_holds = B62
				custom_trigger_tooltip = {
					tooltip = B62_purged
					NOT = {
						has_any_elven_pop_trigger = yes
						has_any_dwarven_pop_trigger = yes
					}
				}
			}
			4553 = {
				country_or_non_sovereign_subject_holds = B62
				custom_trigger_tooltip = {
					tooltip = B62_purged
					NOT = {
						has_any_elven_pop_trigger = yes
						has_any_dwarven_pop_trigger = yes
					}
				}
			}
			4097 = {
				country_or_non_sovereign_subject_holds = B62
				custom_trigger_tooltip = {
					tooltip = B62_purged
					NOT = {
						has_any_elven_pop_trigger = yes
						has_any_dwarven_pop_trigger = yes
					}
				}
			}
			889 = {
				country_or_non_sovereign_subject_holds = B62
				custom_trigger_tooltip = {
					tooltip = B62_purged
					NOT = {
						has_any_elven_pop_trigger = yes
						has_any_dwarven_pop_trigger = yes
					}
				}
			}
			813 = {
				country_or_non_sovereign_subject_holds = B62
				custom_trigger_tooltip = {
					tooltip = B62_purged
					NOT = {
						has_any_elven_pop_trigger = yes
						has_any_dwarven_pop_trigger = yes
					}
				}
			}
		}
			
		effect = {
			865 = {
				add_province_modifier = { 
					name = moredhal_ardent_temple_one
					duration = -1
				}
			}
		}
	}

	B62_our_borders = {
		icon = mission_forest_shrine
		required_missions = { B62_dostanorian_deluge }
		position = 9
		
		provinces_to_highlight = {
			region = the_borders_region
		}
		
		trigger = {
			num_of_provinces_owned_or_owned_by_non_sovereign_subjects_with = {
				value = 12
				region = the_borders_region
				country_or_non_sovereign_subject_holds = B62
				is_city = yes
			}
			904 = {
				country_or_non_sovereign_subject_holds = B62
			}
			306 = {
				country_or_non_sovereign_subject_holds = B62
			}
		}
			
		effect = {
			the_borders_region = {
				limit = {
					NOT = { is_core = ROOT }
					NOT = { owned_by = ROOT }
				}
				add_permanent_claim = ROOT
			}
			custom_tooltip = moredhal_missive_borders_tt
			hidden_effect = {
				the_borders_region = {
					limit = {
						OR = {
							owner = { primary_culture = arannese }
							owner = { primary_culture = wexonard }
						}
					}
					owner = {
						country_event = { 
							id = flavor_moredhal.6
							days = 3
						}
					}
				}
			}
		}
	}

	B62_new_milcorissia = {
		icon = mission_face_off
		required_missions = { B62_our_borders }
		position = 10
		
		provinces_to_highlight = {
			region = the_borders_region
			OR = {
				has_any_elven_pop_trigger = yes
				has_any_dwarven_pop_trigger = yes
			}
		}
		
		trigger = {
			the_borders_region = {
				type = all
				country_or_non_sovereign_subject_holds = ROOT
				custom_trigger_tooltip = {
					tooltip = B62_purged
					NOT = {
						has_any_elven_pop_trigger = yes
						has_any_dwarven_pop_trigger = yes
					}
				}
			}
		}
			
		effect = {
			919 = {
				add_province_modifier = { 
					name = moredhal_rhinmond_temple_one
					duration = -1
				}
			}
			custom_tooltip = moredhal_missive_esmaria_tt
			hidden_effect = {
				businor_region = {
					limit = {
						NOT = { owner = { culture_group = elven } }
						NOT = { owner = { culture_group = dwarven } }
					}
					owner = {
						country_event = { 
							id = flavor_moredhal.6
							days = 3
						}
					}
				}
				esmaria_region = {
					limit = {
						NOT = { owner = { culture_group = elven } }
						NOT = { owner = { culture_group = dwarven } }
					}
					owner = {
						country_event = { 
							id = flavor_moredhal.6
							days = 3
						}
					}
				}
			}
		}
	}

	B62_into_the_dameshead = {
		icon = mission_dual_diplomacy
		required_missions = { B62_imperial_foothold }
		position = 12
		
		provinces_to_highlight = {
			region = east_dameshead_region
		}
		
		trigger = {
			num_of_provinces_owned_or_owned_by_non_sovereign_subjects_with = {
				value = 12
				region = east_dameshead_region
				country_or_non_sovereign_subject_holds = B62
				is_city = yes
			}
			328 = {
				country_or_non_sovereign_subject_holds = B62
			}
			327 = {
				country_or_non_sovereign_subject_holds = B62
			}
		}
			
		effect = {
			east_dameshead_region = {
				limit = {
					NOT = { is_core = ROOT }
					NOT = { owned_by = ROOT }
				}
				add_permanent_claim = ROOT
			}
		}
	}

}

moredhal_slot_5 = {
	slot = 5
	generic = no
	ai = yes
	potential = {
		tag = B62
	}
	has_country_shield = yes
	
	B62_army_of_man = {
		icon = mission_four_men
		required_missions = {  }
		position = 1
		
		provinces_to_highlight = {
			region = west_castanor_region
		}
		
		trigger = {
			num_of_provinces_owned_or_owned_by_non_sovereign_subjects_with = {
				value = 5
				region = west_castanor_region
				has_manpower_building_trigger = yes
				is_city = yes
			}
		}
			
		effect = {
			add_country_modifier = { 
				name = moredhal_reclamation_army
				duration = 7300 
			}
		}
	}

	B62_bal_mire = {
		icon = mission_colonial
		required_missions = { B62_unite_wescann }
		position = 3
		
		provinces_to_highlight = {
			province_id = 229
		}
		
		trigger = {
			229 = {
				is_city = yes
				custom_trigger_tooltip = {
					tooltip = B62_modern_fort
					province_has_current_tech_fort_trigger = yes
				}
				has_province_modifier = castanorian_citadel
				country_or_non_sovereign_subject_holds = B62
			}
		}
			
		effect = {
			balmire_area = {
				add_province_modifier = { 
					name = moredhal_reclaimed_mire
					duration = 7300
				}
			}
		}
	}

	B62_dostanorian_deluge = {
		icon = mission_great_wall
		required_missions = { B62_plugging_the_gaps }
		position = 8
		
		provinces_to_highlight = {
			OR = {
				region = dostanor_region
				region = daravans_folly_region
				region = ourdia_region
			}
		}
		
		trigger = {
			num_of_provinces_owned_or_owned_by_non_sovereign_subjects_with = {
				value = 12
				OR = {
					region = dostanor_region
					region = daravans_folly_region
					region = ourdia_region
				}
				country_or_non_sovereign_subject_holds = B62
				is_city = yes
			}
		}
			
		effect = {
			dostanor_region = {
				limit = {
					NOT = { is_core = ROOT }
					NOT = { owned_by = ROOT }
				}
				add_permanent_claim = ROOT
			}
			daravans_folly_region = {
				limit = {
					NOT = { is_core = ROOT }
					NOT = { owned_by = ROOT }
				}
				add_permanent_claim = ROOT
			}
			ourdia_region = {
				limit = {
					NOT = { is_core = ROOT }
					NOT = { owned_by = ROOT }
				}
				add_permanent_claim = ROOT
			}
			the_borders_region = {
				limit = {
					NOT = { is_core = ROOT }
					NOT = { owned_by = ROOT }
				}
				add_claim = ROOT
			}
		}
	}

	B62_purify_dostanor = {
		icon = mission_mosque
		required_missions = { B62_dostanorian_deluge }
		position = 9
		
		provinces_to_highlight = {
			OR = {
				region = dostanor_region
				region = daravans_folly_region
				region = ourdia_region
			}
			OR = {
				has_any_elven_pop_trigger = yes
				has_any_dwarven_pop_trigger = yes
			}
		}
		
		trigger = {
			dostanor_region = {
				type = all
				country_or_non_sovereign_subject_holds = ROOT
				custom_trigger_tooltip = {
					tooltip = B62_purged
					NOT = {
						has_any_elven_pop_trigger = yes
						has_any_dwarven_pop_trigger = yes
					}
				}
			}
			daravans_folly_region = {
				type = all
				country_or_non_sovereign_subject_holds = ROOT
				custom_trigger_tooltip = {
					tooltip = B62_purged
					NOT = {
						has_any_elven_pop_trigger = yes
						has_any_dwarven_pop_trigger = yes
					}
				}
			}
			ourdia_region = {
				type = all
				country_or_non_sovereign_subject_holds = ROOT
				custom_trigger_tooltip = {
					tooltip = B62_purged
					NOT = {
						has_any_elven_pop_trigger = yes
						has_any_dwarven_pop_trigger = yes
					}
				}
			}
		}
			
		effect = {
			428 = {
				add_province_modifier = { 
					name = moredhal_rackman_temple_one
					duration = -1
				}
			}
			if = {
				limit = { accepted_culture = green_orc }
				custom_tooltip = moredhal_missive_deepwoods_tt
				hidden_effect = {
					west_deepwoods_region = {
						limit = {
							owner = { primary_culture = green_orc }
						}
						owner = {
							country_event = { 
								id = flavor_moredhal.6
								days = 3
							}
						}
					}
					east_deepwoods_region = {
						limit = {
							owner = { primary_culture = green_orc }
						}
						owner = {
							country_event = { 
								id = flavor_moredhal.6
								days = 3
							}
						}
					}
				}
			}
		}
	}

	B62_enter_the_woods = {
		icon = mission_green_village
		required_missions = { B62_purify_dostanor }
		position = 10
		
		provinces_to_highlight = {
			region = west_deepwoods_region
		}
		
		trigger = {
			num_of_provinces_owned_or_owned_by_non_sovereign_subjects_with = {
				value = 12
				region = west_deepwoods_region
				country_or_non_sovereign_subject_holds = B62
				is_city = yes
			}
		}
			
		effect = {
			west_deepwoods_region = {
				limit = {
					NOT = { is_core = ROOT }
					NOT = { owned_by = ROOT }
				}
				add_permanent_claim = ROOT
			}
		}
	}

	B62_toxic_love = {
		icon = mission_empowerment
		required_missions = { B62_enter_the_woods }
		position = 11
		
		provinces_to_highlight = {
			region = west_deepwoods_region
			OR = {
				has_any_elven_pop_trigger = yes
				has_any_dwarven_pop_trigger = yes
			}
		}
		
		trigger = {
			west_deepwoods_region = {
				type = all
				country_or_non_sovereign_subject_holds = ROOT
				custom_trigger_tooltip = {
					tooltip = B62_purged
					NOT = {
						has_any_elven_pop_trigger = yes
						has_any_dwarven_pop_trigger = yes
					}
				}
			}
			east_deepwoods_region = {
				type = all
				country_or_non_sovereign_subject_holds = ROOT
				custom_trigger_tooltip = {
					tooltip = B62_purged
					NOT = {
						has_any_elven_pop_trigger = yes
						has_any_dwarven_pop_trigger = yes
					}
				}
			}
		}
			
		effect = {
			custom_tooltip = devotees_tt
			hidden_effect = {
				west_deepwoods_region = {
					add_core = B65
					cede_province = B65
				}
				east_deepwoods_region = {
					add_core = B65
				}
				east_deepwoods_region = {
					limit = { 
						OR = {
							owned_by = B62
							owner = { is_subject_of = B62 }
						}
					}
					cede_province = B65
				}
				serpentreach_region = {
					add_permanent_claim = B65
				}
				B65 = {
					change_religion = infernal_court
					change_primary_culture = moredhalic
					add_accepted_culture = green_orc
					change_government = theocracy
					add_prestige = 100
					add_government_reform = infernal_order_state_reform
					define_ruler = {
						name = "Darzic"
						culture = half_orc
						adm = 5
						dip = 2
						mil = 5
						age = 54
					}
				}
				B62 = {
					create_subject = {
						subject_type = infernal_order_state_subject
						subject = B65
					}
				}
			}
		}
	}

}