yanzhong_1 = {
	slot = 2
	generic = no
	ai = yes
	has_country_shield = yes
	potential = { tag = Y08 } 

	yanzhong_wicked_coins = {
		icon = mission_build_up_to_force_limit
		position = 2
		required_missions = { yanzhong_patrol } 
		provinces_to_highlight = {

			owner = {
				tag = Y02
			}

		}

		trigger = {

			trade_embargoing = Y02
			army_strength = {
				who = Y02
				value = 1
			}
			
		} 

		effect = { 

			4851 = { add_permanent_claim = ROOT }
			4852 = { add_permanent_claim = ROOT }
			4975 = { add_permanent_claim = ROOT }
			
		} 
	}

	yanzhong_river_further = {
		icon = secure_dejima
		position = 3
		required_missions = { yanzhong_wicked_coins } 
		provinces_to_highlight = { 

			OR = {
				province_id = 4851
				province_id = 4852
				province_id = 4975	
			} 
			NOT = { owned_by = ROOT }
			
		}

		trigger = {

			4851 = { owned_by = ROOT }
			4852 = { owned_by = ROOT }
			4975 = { owned_by = ROOT }
			
		} 

		effect = {

			balrijin_area = { add_permanent_claim = ROOT }
			
		} 
	}

	yanzhong_mollify = {
		icon = mission_candide_letter
		position = 4
		required_missions = { yanzhong_river_further } 
		provinces_to_highlight = { 

			area = balrijin_area
			NOT = { has_tax_building_trigger = yes }
			NOT = { has_trade_building_trigger = yes }
			NOT = { num_of_times_improved = 5 }
		
		}

		trigger = {
			
			balrijin_area = {
				type = all
				owned_by = ROOT
				has_tax_building_trigger = yes
				has_trade_building_trigger = yes
				num_of_times_improved = yes
			}

		}

		effect = { 

			add_country_modifier = {
				name = yanzhong_mollify
				duration = 1825
			} 
			medium_increase_of_kobold_tolerance_effect = yes
			
		}
	}
}
yanzhong_2 = {
	slot = 3
	generic = no
	ai = yes
	has_country_shield = yes
	potential = { tag = Y08 } 

	yanzhong_patrol = {
		icon = mission_assemble_an_army_and_factory_smoke
		position = 1
		provinces_to_highlight = {  } 

		trigger = {

			treasury = 100
			manpower = 5
			
		} 

		effect = { 

			add_treasury = -100
			add_manpower = -5
			
			add_government_reform = yanzhong_patrol_reform
			
		} 
	}

	yanzhong_uni = {
		icon = mission_early_game_buildings
		position = 2
		required_missions = { yanzhong_patrol } 
		provinces_to_highlight = { 

			owner = {
				tag = Y06
			}

		}

		trigger = {

			reverse_has_opinion = {
				who = Y06
				value = 170
			}
			treasury = 150
			
		}

		effect = {

			add_treasury = -150
			custom_tooltip = yanzhong_yangcheng_tt
			set_country_flag = yanzhong_yangcheng_allow
			
		} 
	}

	yanzhong_funded = {
		icon = mission_armoury
		position = 3
		required_missions = {
			yanzhong_uni
			yanzhong_contract
		}
		provinces_to_highlight = {

			OR = {
				owner = {
					tag = Y07
				}
				AND = {
					province_id = 4859
					NOT = { owned_by = ROOT }
				}
			}
			
		}

		trigger = {

			4859 = { owned_by = ROOT }
			reverse_has_opinion = {
				who = Y07
				value = 170
			}
			treasury = 200
			
		} 

		effect = {

			add_treasury = -200
			custom_tooltip = yanzhong_guhe_tt
			set_country_flag = yanzhong_guhe_allow
			
		} 
	}

	yanzhong_path = {
		icon = mission_merchant_trip
		position = 4
		required_missions = { yanzhong_funded } 
		provinces_to_highlight = {

			OR = {
				province_id = 4853
				province_id = 4854
				province_id = 4859
				province_id = 4861
			}
			NOT = { owned_by = ROOT }
		} 

		trigger = {

			4853 = { owned_by = ROOT }
			4854 = { owned_by = ROOT }
			4859 = { owned_by = ROOT }
			4861 = { owned_by = ROOT }

			treasury = 250
			manpower = 5
			
		} 

		effect = {

			country_event = { id = yanzhong.1 }
			add_treasury = -250
			add_manpower = -5
			custom_tooltip = yanzhong_path_tt
			hidden_effect = {
				4853 = {
					add_permanent_province_modifier = {
						name = golden_highway
						duration = -1
					}
				}
				4854 = {
					add_permanent_province_modifier = {
						name = golden_highway
						duration = -1
					}
				}
				4859 = {
					add_permanent_province_modifier = {
						name = golden_highway
						duration = -1
					}
				}
				4861 = {
					add_permanent_province_modifier = {
						name = golden_highway
						duration = -1
					}
				}
			}

		}
	}

	yanzhong_standard = {
		icon = mission_war_chest
		position = 5
		required_missions = {
			yanzhong_path
			yanzhong_mollify
		}
		provinces_to_highlight = {

			province_id = 4859
			
		} 

		trigger = {

			4859 = {
				has_most_province_trade_power = ROOT
			}
			
		} 

		effect = { 

			add_country_modifier = {
				name = yanzhong_golden
				duration = 3650
			}
			
			set_country_flag = yanzhong_pulse
			custom_tooltip = yanzhong_pulse_tt

		}
	}
}
yanzhong_3 = {
	slot = 4
	generic = no
	ai = yes
	has_country_shield = yes
	potential = { tag = Y08 } 

	yanzhong_contract = {
		icon = mission_assassination
		position = 2
		required_missions = { yanzhong_patrol } 
		provinces_to_highlight = {

			owner = {
				tag = Y10
			}

		}

		trigger = {

			reverse_has_opinion = {
				who = Y10
				value = 130
			}
			treasury = 250
			
		}

		effect = { 

			add_treasury = -250
			Y10 = { country_event = { id = yanzhong.2 } }

		}
	}

	yanzhong_prudence = {
		icon = mission_missive
		position = 3
		required_missions = { yanzhong_contract } 
		provinces_to_highlight = {

			owner = {
				tag = Y10
			}
			
		} 

		trigger = {

			reverse_has_opinion = {
				who = Y10
				value = 130
			}
			treasury = 300
			
		}

		effect = {

			add_treasury = -300
			custom_tooltip = yanzhong_yingzhen_tt
			set_country_flag = yanzhong_yingzhen_allow 
			
		}
	}
}
yanzhong_5_blank = {
	slot = 5
	generic = no
	ai = yes
	has_country_shield = yes
	potential = { tag = Y08 } 

}
