namespace = flavor_dhenijanraj
country_event = {
	id = flavor_dhenijanraj.1
	title = "flavor_dhenijanraj.1.t"
	desc = "flavor_dhenijanraj.1.d"
	picture = WAR_ELEPHANT_eventPicture

	fire_only_once = yes
	trigger = {
		always = yes
	}
	is_triggered_only = yes
	option = {
		name = "flavor_dhenijanraj.1.a"
		add_prestige = 10
	}
}

country_event = {
	id = flavor_dhenijanraj.2
	title = "flavor_dhenijanraj.2.t"
	desc = "flavor_dhenijanraj.2.d"
	picture = RELIGIOUS_TURMOIL_eventPicture
	fire_only_once = yes
	trigger = {
		always = yes
	}
	is_triggered_only = yes
	option = {
		name = "flavor_dhenijanraj.2.a"
		add_legitimacy = 10
	}
}

country_event = {
	id = flavor_dhenijanraj.3
	title = "flavor_dhenijanraj.3.t"
	desc = "flavor_dhenijanraj.3.d"
	picture = LIBERUM_VETO_eventPicture

	fire_only_once = yes
	trigger = {
		always = yes
	}
	is_triggered_only = yes
	option = {
		name = "flavor_dhenijanraj.3.a"
		trigger = {
			always = yes
		}
		ai_chance = {
			factor = 1
		}
		add_treasury = -1000
		add_manpower = -10
		add_adm_power = -200
		if = {
			limit = {
				4265 = { # Grozumdihr
					OR = {
						country_or_non_sovereign_subject_holds = ROOT
						is_city = no
					}
				}
			}
			4265 = { # Grozumdihr 
				add_core = I18
				cede_province = I18
				change_culture = peridot_dwarf
				change_religion = high_philosophy
			}
			hidden_effect = {
				I18 = {
					change_religion = high_philosophy
					change_government = monarchy
					add_government_reform = dwarven_clans_reform
					set_religious_school = {
						group = raheni
						school = orange_sash_school
					}
					define_ruler = {
						name = "Sindri 'the Returned'"
						dynasty = "of the Peridot Flower"
						adm = 5
						dip = 4
						mil = 4
						age = 73
						claim = 95
					}
					grozumdihr_area = { add_permanent_claim = PREV }
				}
			}
			create_subject = {
				subject_type = autonomous_vassal
				subject = I18
			}
		}
		else_if = {
			limit = { exists = I18 }
			add_casus_belli = {
				type = cb_vassalize_mission
				months = 300
				target = I18
			}
		}
		else = {
			4265 = { add_permanent_claim = ROOT } # Grozumdihr
		}
	}
}

country_event = {
	id = flavor_dhenijanraj.300
	title = "flavor_dhenijanraj.300.t"
	desc = "flavor_dhenijanraj.300.d"
	picture = RELIGIOUS_TURMOIL_eventPicture
	fire_only_once = yes
	trigger = {
		always = yes
	}
	is_triggered_only = yes
	option = {
		name = "flavor_dhenijanraj.300.a"
		ai_chance = {
			factor = 1
		}
		4265 = { # Grozumdihr 
			add_core = I18
			cede_province = I18
			change_culture = peridot_dwarf
			change_religion = high_philosophy
			area = {
				limit = { owned_by = ROOT }
				add_core = I18
				cede_province = I18
				change_culture = peridot_dwarf
				change_religion = high_philosophy
			}

		}
		hidden_effect = {
			I18 = {
				change_religion = high_philosophy
				change_government = monarchy
				add_government_reform = dwarven_clans_reform
				set_religious_school = {
					group = raheni
					school = orange_sash_school
				}
				define_ruler = {
					name = "Sindri 'the Returned'"
					dynasty = "of the Peridot Flower"
					adm = 5
					dip = 4
					mil = 4
					age = 73
					claim = 95
				}
				grozumdihr_area = { add_permanent_claim = PREV }
			}
		}
		create_subject = {
			subject_type = autonomous_vassal
			subject = I18
		}
	}
}

country_event = {
	id = flavor_dhenijanraj.4
	title = "flavor_dhenijanraj.4.t"
	desc = "flavor_dhenijanraj.4.d"
	picture = REFORM_eventPicture

	fire_only_once = yes
	trigger = {
		always = yes
	}
	is_triggered_only = yes
	option = {
		name = "flavor_dhenijanraj.4.a"
		add_stability = 1
	}
}

country_event = {
	id = flavor_dhenijanraj.5
	title = "flavor_dhenijanraj.5.t"
	desc = "flavor_dhenijanraj.5.d"
	picture = RELIGIOUS_TURMOIL_eventPicture
	fire_only_once = yes
	trigger = {
		always = yes
	}
	is_triggered_only = yes
	option = {
		name = "flavor_dhenijanraj.5.a"
		4401 = {
			add_permanent_province_modifier = {
				name = R51_vajiya_shrine
				duration = -1
			}
		}
	}
}

country_event = {
	id = flavor_dhenijanraj.6
	title = "flavor_dhenijanraj.6.t"
	desc = "flavor_dhenijanraj.6.d"
	picture = RELIGIOUS_TURMOIL_eventPicture
	fire_only_once = yes
	trigger = {
		always = yes
	}
	is_triggered_only = yes
	option = {
		name = "flavor_dhenijanraj.6.a"
		add_army_professionalism = 0.05
	}
}

country_event = {
	id = flavor_dhenijanraj.7
	title = "flavor_dhenijanraj.7.t"
	desc = "flavor_dhenijanraj.7.d"
	picture = CONQUEST_eventPicture

	fire_only_once = yes
	trigger = {
		always = yes
	}
	is_triggered_only = yes
	option = {
		name = "flavor_dhenijanraj.7.a"
		add_country_modifier = {
			name = R51_disempowered_gangs
			duration = 9125
		}
	}
	option = {
		name = "flavor_dhenijanraj.7.b"
		add_country_modifier = {
			name = R51_coopted_gangs
			duration = 9125
		}
	}
}

country_event = {
	id = flavor_dhenijanraj.8
	title = "flavor_dhenijanraj.8.t"
	desc = "flavor_dhenijanraj.8.d"
	picture = RELIGIOUS_TURMOIL_eventPicture
	fire_only_once = yes
	trigger = {
		always = yes
	}
	is_triggered_only = yes
	option = {
		name = "flavor_dhenijanraj.8.a"
	}
}

country_event = {
	id = flavor_dhenijanraj.9
	title = "flavor_dhenijanraj.9.t"
	desc = "flavor_dhenijanraj.9.d"
	picture = RELIGIOUS_TURMOIL_eventPicture
	fire_only_once = yes
	trigger = {
		always = yes
	}
	is_triggered_only = yes
	option = {
		name = "flavor_dhenijanraj.9.a"
	}
}

country_event = {
	id = flavor_dhenijanraj.10
	title = "flavor_dhenijanraj.10.t"
	desc = "flavor_dhenijanraj.10.d"
	picture = DEATH_OF_HEIR_eventPicture

	fire_only_once = yes
	trigger = {
		tag = R51
		has_country_flag = R51_bim_lau_restorer_burial_flag
	}
	is_triggered_only = yes
	option = {
		name = "flavor_dhenijanraj.10.a"
		add_country_modifier = {
			name = R51_spiritual_burial
			duration = 9125
		}
		clr_country_flag = R51_bim_lau_restorer_burial_flag
	}
}

country_event = {
	id = flavor_dhenijanraj.11
	title = "flavor_dhenijanraj.11.t"
	desc = "flavor_dhenijanraj.11.d"
	picture = BIG_BOOK_eventPicture

	fire_only_once = yes
	trigger = {
		always = yes
	}
	is_triggered_only = yes
	option = {
		name = "flavor_dhenijanraj.11.a"
		add_country_modifier = {
			name = R51_final_harimraj_bonus
			duration = -1
		}
	}
}

country_event = {
	id = flavor_dhenijanraj.12
	title = "flavor_dhenijanraj.12.t"
	desc = "flavor_dhenijanraj.12.d"
	picture = 1_Brahmin_Estate__eventPicture
	fire_only_once = yes
	trigger = {
		always = yes
	}
	is_triggered_only = yes
	option = {
		name = "flavor_dhenijanraj.12.a"
		custom_tooltip = flavor_dhenijanraj.12.tt
		set_country_flag = dwarf_in_uppercastes
	}
}
