

namespace = flavor_kobildzan

country_event = {
	id = flavor_kobildzan.1
	title = flavor_kobildzan.1.t
	desc = flavor_kobildzan.1.d
	picture = GREAT_BUILDING_eventPicture
	
	fire_only_once = yes
	is_triggered_only = yes
	
	trigger = {
		always = yes
	}
	
	# Dragon path
	option = {		
		name = flavor_kobildzan.1.a
		ai_chance = { factor = 50 }	
		hidden_effect = { set_country_flag = kobold_dragon_path }
		swap_non_generic_missions = yes
		add_country_modifier = {
			name = narrowminded_modifier
			duration = 3650
		}
		country_event = {
			id = flavor_kobildzan.20
			days = 3650
		}
	}
	
	# Artificier path
	option = {		
		name = flavor_kobildzan.1.b
		ai_chance = { factor = 50 }	
		hidden_effect = { set_country_flag = kobold_artificier_path }
		swap_non_generic_missions = yes
		
		add_country_modifier = {
			name = innovative_modifier
			duration = 3650
		}
		country_event = {
			id = flavor_kobildzan.21
			days = 3650
		}
	}
}

#The DragonSpawn
country_event = {
	id = flavor_kobildzan.2
	title = flavor_kobildzan.2.t
	desc = flavor_kobildzan.2.d
	picture = GREAT_BUILDING_eventPicture
	
	fire_only_once = yes
	is_triggered_only = yes
	
	trigger = {
		always = yes
	}
	
	# Dragon Spawn
	option = {		
		name = flavor_kobildzan.2.a
		ai_chance = { factor = 50 }	
		define_ruler = {
			name = "Zrakar"
			age = 18
			adm = 4
			dip = 4
			mil = 5
		}
		add_ruler_personality = mage_personality
		add_ruler_modifier = {
			name = kobold_dragonspawn
			duration = -1
		}
	}
}

#The KoboldHoard
country_event = {
	id = flavor_kobildzan.3
	title = flavor_kobildzan.3.t
	desc = flavor_kobildzan.3.d
	picture = KOBOLD_HOARD_eventPicture
	
	is_triggered_only = yes
	
	trigger = {
		always = yes
		religion = kobold_dragon_cult
		NOT = { has_global_flag = dragon_roar }
	}
	
	# little investment
	option = {		
		name = flavor_kobildzan.3.a
		ai_chance = { factor = 50 }	
		trigger = { treasury = 100 }
		add_treasury = -100
		hidden_effect = { REB = { change_variable = { dragon_cult_hoard = 100 } } }
		tooltip = { random = { chance = 10 add_stability_or_adm_power = yes } }
		set_country_flag = hoard_chance_1
		hidden_effect = { country_event = { id = flavor_kobildzan.100 } }
		hidden_effect = { country_event = { id = flavor_kobildzan.4 } }
		hidden_effect = { 189 = { upgrade_kobold_hoard = yes } }
	}
	
	# Normal investment
	option = {		
		name = flavor_kobildzan.3.b
		ai_chance = { factor = 50 }	
		trigger = { treasury = 250 }
		add_treasury = -250
		hidden_effect = { REB = { change_variable = { dragon_cult_hoard = 250 } } }
		add_prestige = 2
		tooltip = { random = { chance = 10 add_stability_or_adm_power = yes } }
		set_country_flag = hoard_chance_1
		hidden_effect = { country_event = { id = flavor_kobildzan.100 } }
		hidden_effect = { country_event = { id = flavor_kobildzan.4 } }
		hidden_effect = { 189 = { upgrade_kobold_hoard = yes } }
	}
	
	# Big investment
	option = {		
		name = flavor_kobildzan.3.c
		ai_chance = { factor = 50 }	
		trigger = { treasury = 500 }
		add_treasury = -500
		hidden_effect = { REB = { change_variable = { dragon_cult_hoard = 500 } } }
		add_prestige = 5
		tooltip = { random = { chance = 25 add_stability_or_adm_power = yes } }
		set_country_flag = hoard_chance_2
		hidden_effect = { country_event = { id = flavor_kobildzan.100 } }
		hidden_effect = { country_event = { id = flavor_kobildzan.4 } }
		hidden_effect = { 189 = { upgrade_kobold_hoard = yes } }
	}
	
	# Huge investment
	option = {		
		name = flavor_kobildzan.3.e
		ai_chance = { factor = 50 }	
		trigger = { treasury = 1000 }
		add_treasury = -1000
		hidden_effect = { REB = { change_variable = { dragon_cult_hoard = 1000 } } }
		add_prestige = 10
		tooltip = { random = { chance = 50 add_stability_or_adm_power = yes } }
		set_country_flag = hoard_chance_3
		hidden_effect = { country_event = { id = flavor_kobildzan.100 } }
		hidden_effect = { country_event = { id = flavor_kobildzan.4 } }
		hidden_effect = { 189 = { upgrade_kobold_hoard = yes } }
	}
	
	# Colossal investment
	option = {		
		name = flavor_kobildzan.3.f
		ai_chance = { factor = 50 }
		trigger = { treasury = 2000 }
		add_treasury = -2000
		hidden_effect = { REB = { change_variable = { dragon_cult_hoard = 2000 } } }
		add_prestige = 25
		tooltip = { random = { chance = 75 add_stability_or_adm_power = yes } }
		set_country_flag = hoard_chance_4
		hidden_effect = { country_event = { id = flavor_kobildzan.100 } }
		hidden_effect = { country_event = { id = flavor_kobildzan.4 } }
		hidden_effect = { 189 = { upgrade_kobold_hoard = yes } }
	}
	
	option = {		
		name = flavor_kobildzan.3.g
		ai_chance = { factor = 50 }
		trigger = { treasury = 5000 }
		add_treasury = -5000
		hidden_effect = { REB = { change_variable = { dragon_cult_hoard = 5000 } } }
		add_prestige = 50
		add_stability_or_adm_power = yes
		hidden_effect = { country_event = { id = flavor_kobildzan.4 } }
		hidden_effect = { 189 = { upgrade_kobold_hoard = yes } }
	}
	
	# Go Back
	option = {		
		name = flavor_kobildzan.3.h
		ai_chance = { factor = 50 }
		hidden_effect = { clr_country_flag = kobold_hoard_menu }
	}
}

country_event = {
	id = flavor_kobildzan.4
	title = flavor_kobildzan.4.t
	desc = flavor_kobildzan.4.d
	picture = GREAT_BUILDING_eventPicture
	
	is_triggered_only = yes
	hidden = yes
	
	trigger = {
		always = yes
	}
	
	# Dragon Spawn
	option = {		
		name = flavor_kobildzan.4.a
		ai_chance = { factor = 50 }	
		country_event = { id = flavor_kobildzan.3 }
	}
}

country_event = {
	id = flavor_kobildzan.5
	title = flavor_kobildzan.5.t
	desc = flavor_kobildzan.5.d
	picture = GREAT_BUILDING_eventPicture
	
	major = yes
	fire_only_once = yes
	
	mean_time_to_happen = {
		years = 5
		
		modifier = {
			factor = 0.5
			REB = { check_variable = { dragon_cult_hoard = 40000 } }
		}
	}
	
	trigger = {
		capital_scope = { continent = europe }
		NOT = { religion = kobold_dragon_cult }
		REB = { check_variable = { dragon_cult_hoard = 35000 } }
	}
	
	option = {		
		name = flavor_kobildzan.5.a
		ai_chance = { factor = 50 }	
	}
}

#The Dragon's Roar
country_event = {
	id = flavor_kobildzan.6
	title = flavor_kobildzan.6.t
	desc = flavor_kobildzan.6.d
	picture = GREAT_BUILDING_eventPicture
	
	fire_only_once = yes
	major = yes
	
	mean_time_to_happen = {
		years = 150
		
		modifier = {
			factor = 0.9
			REB = { check_variable = { dragon_cult_hoard = 40000 } }
		}
		modifier = {
			factor = 0.8
			REB = { check_variable = { dragon_cult_hoard = 50000 } }
		}
		modifier = {
			factor = 0.7
			REB = { check_variable = { dragon_cult_hoard = 60000 } }
		}
		modifier = {
			factor = 0.2
			REB = { check_variable = { dragon_cult_hoard = 75000 } }
		}
	}
	
	trigger = {
		owns = 189
		REB = { check_variable = { dragon_cult_hoard = 30000 } }
		has_country_modifier = kobold_administration
		OR = { has_country_flag = kobold_artificier_path has_country_flag = kobold_dragon_path  }
	}
	
	immediate = {
		hidden_effect = { set_global_flag = dragon_roar }
	}
	
	option = {	
		name = flavor_kobildzan.6.a
		ai_chance = { factor = 50 }	
		add_yearly_manpower = -5
		add_stability = -3
		change_price = {
			trade_goods = grain
			key = dragon_roar_winter
			value = -0.75
			duration = 1095
		}
		change_price = {
			trade_goods = wine
			key = dragon_roar_winter
			value = -0.75
			duration = 1095
		}
		add_country_modifier = {
			name = kobold_aftermath_of_the_dragon_roar
			duration = 3650
		}
		189 = {
			remove_province_modifier = kobold_hoard_1
			remove_province_modifier = kobold_hoard_2
			remove_province_modifier = kobold_hoard_3
			remove_province_modifier = kobold_hoard_4
			remove_province_modifier = kobold_hoard_5
			remove_province_modifier = kobold_hoard_6
			remove_province_modifier = kobold_hoard_7
			remove_province_modifier = kobold_hoard_8
			remove_province_modifier = kobold_hoard_9
			remove_province_modifier = kobold_hoard_10
			remove_province_modifier = kobold_hoard_11
			add_base_production = -3
			add_base_tax = -3
			add_base_manpower = -3
			add_devastation = 100
			add_permanent_province_modifier = {
				name = devasted_province
				duration = 1825
			}
		}
		dragondepth_area = {
			add_base_production = -2
			add_base_tax = -2
			add_base_manpower = -2
			add_devastation = 50
		}
		dragonheights_area = {
			add_base_production = -2
			add_base_tax = -2
			add_base_manpower = -2
			add_devastation = 50
		}
		westmoor_proper_area = {
			add_base_production = -2
			add_base_tax = -2
			add_base_manpower = -2
			add_devastation = 50
		}
		westmounts_area = {
			add_base_production = -2
			add_base_tax = -2
			add_base_manpower = -2
			add_devastation = 50
		}
		dragonhills_area = {
			add_base_production = -2
			add_base_tax = -2
			add_base_manpower = -2
			add_devastation = 50
		}
		gnomish_pass_area = {
			add_base_production = -2
			add_base_tax = -2
			add_base_manpower = -2
			add_devastation = 50
		}
		dragon_coast_region = {
			random_list = {
				33 = { add_base_manpower = -1 }
				33 = { add_base_tax = -1 }
				33 = { add_base_production = -1 }
			}
			add_devastation = 25
		}
		alenic_frontier_region = {
			random_list = {
				33 = { add_base_manpower = -1 }
				33 = { add_base_tax = -1 }
				33 = { add_base_production = -1 }
			}
			add_devastation = 25
		}
		damescrown_region = {
			random_list = {
				33 = { add_base_manpower = -1 }
				33 = { add_base_tax = -1 }
				33 = { add_base_production = -1 }
			}
			add_devastation = 25
		}
		small_country_region = {
			random_list = {
				33 = { add_base_manpower = -1 }
				33 = { add_base_tax = -1 }
				33 = { add_base_production = -1 }
			}
			add_devastation = 25
		}
		hidden_effect = { REB = { set_variable = { dragon_cult_hoard = 0 } } }
	}
}

#The Dragon Gift
country_event = {
	id = flavor_kobildzan.7
	title = flavor_kobildzan.7.t
	desc = flavor_kobildzan.7.d
	picture = GREAT_BUILDING_eventPicture
	
	fire_only_once = yes
	
	mean_time_to_happen = {
		years = 2
	}
	
	trigger = {
		tag = Z38
		has_global_flag = dragon_roar
		owns = 189
		NOT = { 189 = { has_province_modifier = devasted_province } }
	}
	
	option = {		
		name = flavor_kobildzan.7.a
		ai_chance = { factor = 50 }	
		189 = {
			add_permanent_province_modifier = {
				name = the_dragon_gift
				duration = -1
			}
			if = {
				limit = { trade_goods = copper }
				change_trade_goods = gems
			}
		}
	}
}

#The Dragon Will
country_event = {
	id = flavor_kobildzan.8
	title = flavor_kobildzan.8.t
	desc = flavor_kobildzan.8.d
	picture = GREAT_BUILDING_eventPicture
	
	fire_only_once = yes
	
	mean_time_to_happen = {
		years = 10
	}
	
	trigger = {
		tag = Z38
		has_global_flag = dragon_roar
		has_country_flag = kobold_dragon_path
	}
	
	option = {		
		name = flavor_kobildzan.8.a
		ai_chance = { factor = 50 }	
		add_country_modifier = {
			name = kobold_dragon_will
			duration = -1
		}
	}
}

#The Dragon Fire
country_event = {
	id = flavor_kobildzan.9
	title = flavor_kobildzan.9.t
	desc = flavor_kobildzan.9.d
	picture = GREAT_BUILDING_eventPicture
	
	fire_only_once = yes
	
	mean_time_to_happen = {
		years = 10
	}
	
	trigger = {
		tag = Z38
		has_global_flag = dragon_roar
		has_country_flag = kobold_artificier_path
	}
	
	option = {		
		name = flavor_kobildzan.9.a
		ai_chance = { factor = 50 }	
		add_country_modifier = {
			name = kobold_dragon_fire
			duration = -1
		}
	}
}

#The biggest cavern
country_event = {
	id = flavor_kobildzan.10
	title = flavor_kobildzan.10.t
	desc = {
		trigger = { has_country_flag = kobold_dragon_path }
		desc = flavor_kobildzan.10.d
	}
	desc = {
		trigger = { has_country_flag = kobold_artificier_path }
		desc = flavor_kobildzan.10.dd
	}
	picture = GREAT_BUILDING_eventPicture
	
	fire_only_once = yes
	
	mean_time_to_happen = {
		years = 20
	}
	
	trigger = {
		tag = Z38
		has_global_flag = dragon_roar
		owns = 189
		OR = {
			has_country_flag = kobold_artificier_path
			has_country_flag = kobold_dragon_path
		}
	}
	#Dragon's Heart
	option = {		
		name = flavor_kobildzan.10.a
		ai_chance = { factor = 50 }	
		trigger = { has_country_flag = kobold_dragon_path }
		189 = {
			change_province_name = "Dragon's Heart"
			rename_capital = "Dragon's Heart"
		}
		add_country_modifier = {
			name = kobold_dragon_heart
			duration = -1
		}
	}
	#Lava Warrens
	option = {		
		name = flavor_kobildzan.10.a
		ai_chance = { factor = 50 }	
		trigger = { has_country_flag = kobold_artificier_path }
		189 = {
			change_province_name = "Kobildzex City"
			rename_capital = "Lava Warrens"
			add_province_modifier = {
				name = kobold_rejuvenate_capital
				duration = 3650
			}
		}
	}
}
#The Dragon's Spawns
country_event = {
	id = flavor_kobildzan.11
	title = flavor_kobildzan.11.t
	desc = flavor_kobildzan.11.d
	picture = GREAT_BUILDING_eventPicture
	
	fire_only_once = yes
	
	mean_time_to_happen = {
		years = 5
	}
	
	trigger = {
		tag = Z38
		has_global_flag = dragon_roar
		NOT = { has_country_flag = kobold_aftermath_of_the_dragon_roar }
	}
	
	option = {		
		name = flavor_kobildzan.11.a
		ai_chance = { factor = 50 }	
		add_country_modifier = {
			name = kobold_dragon_spawn
			duration = 7300
		}
	}
}

#The Fire Touched, dude with stronger scale
country_event = {
	id = flavor_kobildzan.12
	title = flavor_kobildzan.12.t
	desc = flavor_kobildzan.12.d
	picture = GREAT_BUILDING_eventPicture
	
	fire_only_once = yes
	
	mean_time_to_happen = {
		years = 25
	}
	
	trigger = {
		tag = Z38
		has_global_flag = dragon_roar
	}
	
	option = {		
		name = flavor_kobildzan.12.a
		ai_chance = { factor = 50 }	
		add_country_modifier = {
			name = kobold_fire_touched
			duration = -1
		}
	}
}

#Stability gain for hoard
country_event = {
	id = flavor_kobildzan.100
	title = flavor_kobildzan.100.t
	desc = flavor_kobildzan.100.d
	picture = GREAT_BUILDING_eventPicture
	
	hidden = yes
	is_triggered_only = yes
	
	after = {
		clr_country_flag = hoard_chance_1
		clr_country_flag = hoard_chance_2
		clr_country_flag = hoard_chance_3
		clr_country_flag = hoard_chance_4
	}
	
	option = {		
		name = flavor_kobildzan.100.a
		trigger = {
			has_country_flag = hoard_chance_1
		}
		ai_chance = {
			factor = 10
		}
		
		add_stability_or_adm_power = yes
	}
	
	option = {		
		name = flavor_kobildzan.100.a
		trigger = {
			has_country_flag = hoard_chance_1
		}
		ai_chance = {
			factor = 90
		}
	}
	
	option = {		
		name = flavor_kobildzan.100.a
		trigger = {
			has_country_flag = hoard_chance_2
		}
		ai_chance = {
			factor = 25
		}
		
		add_stability_or_adm_power = yes
	}
	
	option = {		
		name = flavor_kobildzan.100.a
		trigger = {
			has_country_flag = hoard_chance_2
		}
		ai_chance = {
			factor = 75
		}
	}
	
	option = {		
		name = flavor_kobildzan.100.a
		trigger = {
			has_country_flag = hoard_chance_3
		}
		ai_chance = {
			factor = 50
		}
		
		add_stability_or_adm_power = yes
	}
	
	option = {		
		name = flavor_kobildzan.100.a
		trigger = {
			has_country_flag = hoard_chance_3
		}
		ai_chance = {
			factor = 50
		}
	}
	
	option = {		
		name = flavor_kobildzan.100.a
		trigger = {
			has_country_flag = hoard_chance_4
		}
		ai_chance = {
			factor = 75
		}
		
		add_stability_or_adm_power = yes
	}
	
	option = {		
		name = flavor_kobildzan.100.a
		trigger = {
			has_country_flag = hoard_chance_4
		}
		ai_chance = {
			factor = 25
		}
	}
}

country_event = { #dragon path govt-change
	id = flavor_kobildzan.20
	title = flavor_kobildzan.20.t
	desc = flavor_kobildzan.20.d
	picture = WITCHBURNING_eventPicture
	
	is_triggered_only = yes
	fire_only_once = yes
		
	option = {		
		name = flavor_kobildzan.20.a
		ai_chance = { factor = 1 }	
		change_government = theocracy
		add_government_reform = leading_clergy_reform
	}
	option = {
		name = flavor_kobildzan.20.b
		ai_chance = { factor = 5 }
		reduce_legitimacy_medium_effect = yes
	}
}

country_event = { #artificer path govt-change
	id = flavor_kobildzan.21
	title = flavor_kobildzan.21.t
	desc = flavor_kobildzan.21.d
	picture = BIG_BOOK_eventPicture
	
	is_triggered_only = yes
	fire_only_once = yes
		
	option = {		
		name = flavor_kobildzan.21.a
		ai_chance = { factor = 1 }	
		change_government = republic
		add_government_reform = technocracy_republic_reform
	}
	option = {
		name = flavor_kobildzan.21.b
		ai_chance = { factor = 5 }
		reduce_legitimacy_medium_effect = yes
	}
}

country_event = {
	id = flavor_kobildzan.30
	title = flavor_kobildzan.30.t
	desc = flavor_kobildzan.30.d
	picture = COUNTRY_COLLAPSE_eventPicture
	
	is_triggered_only = yes
	fire_only_once = yes
	
	
	option = {
		name = flavor_kobildzan.30.a
		ai_chance = { factor = 1 }
		213 = { 
			change_culture = ROOT
			change_religion = ROOT
			add_devastation = 75
			add_base_production = -2
			add_base_manpower = -2
			hidden_effect = { province_event = { id = race_setup_events.15 } }
		}
		reverse_add_opinion = {
			who = A13
			modifier = kobold_eagle_slaughter
		}
		add_country_modifier = { 
			name = kobold_avenged_on_barbarism
			duration = 7300
		}
	}
}

