namespace = ogre_tolerance_events

# Event organizer for the ogre tolerance events - should be a huge improvement to performance - having 1 overall check for having the minority instead of one for EACH new event that gets added
country_event = {
	id = ogre_tolerance_events.0
	title = race_setup_events.1.d
	desc = race_setup_events.1.d
	picture = BORDER_TENSION_eventPicture

	is_triggered_only = yes
	hidden = yes

	trigger = {
		NOT = { culture_group = ogre }
		any_owned_province = {
			has_ogre_minority_trigger = yes
		}
	}
	
	mean_time_to_happen = {
		days = 1
		modifier = {
			factor = 10
			has_country_modifier = racial_focus_ogre
		}
	}
	option = {
		random_list = {
			# # 
			# 1 = {
				# trigger = {
					
				# }
				# modifier = {
					
				# }
				# country_event = {
					# #id = 
				# }
			# } 
			#ogre minister
			1 = {
				modifier = {
					factor = 1.5
					medium_tolerance_ogre_race_trigger = yes
				}
				modifier = {
					factor = 2
					high_tolerance_ogre_race_trigger = yes
				}
				country_event = {
					id = ogre_tolerance_events.1
				}
			}
			#insastiable
			1 = {
				trigger = {
					NOT = { has_country_modifier = ogre_food_riots }
					has_estate = estate_burghers
				}
				modifier = {
					factor = 0.5
					trading_bonus = {
						trade_goods = grain
						value = yes
					}
				}
				modifier = {
					factor = 0.5
					trading_bonus = {
						trade_goods = livestock
						value = yes
					}
				}
				country_event = {
					id = ogre_tolerance_events.3
				}
			}
			#getting into the swamp
			1 = {
				trigger = {
					NOT = { has_country_modifier = ogre_draining_the_swamp }
				}
				country_event = {
					id = ogre_tolerance_events.4
				}
			}
			#bigger is better
			1 = {
				trigger = {
					OR = {
						NOT = { has_country_modifier = ogre_monumentality }
						NOT = { has_country_modifier = ogre_building_accomodations }
						NOT = { has_country_modifier = giantkin_monumentality }
					}
				}
				modifier = {
					factor = 1.5
					medium_tolerance_ogre_race_trigger = yes
				}
				modifier = {
					factor = 1.5
					high_tolerance_ogre_race_trigger = yes
				}
				modifier = {
					factor = 1.5
					treasury = 1000
				}
				country_event = {
					id = ogre_tolerance_events.5
				}
			}
			#cannibals in army
			1 = {
				trigger = {
					OR = {
						NOT = { has_country_modifier = ogre_ritual_cannibalism_outlawed }
						NOT = { has_country_modifier = ogre_ritual_cannibalism_restricted }
						NOT = { has_country_modifier = ogre_ritual_cannibalism_allowed }
					}
				}
				modifier = {
					factor = 1.5
					NOT = { check_variable = { army_tradition = 30 } }
				}
				country_event = {
					id = ogre_tolerance_events.6
				}
			}
		}
	}
}

# ogre minister
country_event = {
	id = ogre_tolerance_events.1
	title = ogre_tolerance_events.1.t
	desc = ogre_tolerance_events.1.d
	picture = ADVISOR_eventPicture
	
	is_triggered_only = yes

	# If you have a ogre culture province, that's the one the advisor comes from
	immediate = {
		hidden_effect = {
			if = {
				limit = {
					any_owned_province = {
						culture_group = ogre
					}
				}
				random_owned_province = {
					limit = { culture_group = ogre }
					save_event_target_as = ogre_advisor_culture_province
				}
				set_country_flag = ogre_advisor_culture_set
			}
		}
	}

	# Recruit the ogre
	option = {
		name = ogre_tolerance_events.1.a
		ai_chance = {
			factor = 50
			modifier = {
				factor = 0.5
				wants_to_maintain_tolerance_ogre = yes
			}
			modifier = {
				factor = 0.1
				wants_to_decrease_tolerance_ogre = yes
			}
		}
		small_increase_of_ogre_tolerance_effect = yes
		if = {
			limit = { has_country_flag = ogre_advisor_culture_set }
			if = {
				limit = { monthly_income = 50 }
				random_list = {
					1 = {
						define_advisor = {
							type = artist
							culture = event_target:ogre_advisor_culture_province
							religion = event_target:ogre_advisor_culture_province
							skill = 3
							
							discount = yes
						}
					}
					1 = {
						define_advisor = {
							type = quartermaster
							culture = event_target:ogre_advisor_culture_province
							religion = event_target:ogre_advisor_culture_province
							skill = 3
							
							discount = yes
						}
					}
				}
			}
			else_if = {
				limit = { monthly_income = 25 }
				random_list = {
					1 = {
						define_advisor = {
							type = artist
							culture = event_target:ogre_advisor_culture_province
							religion = event_target:ogre_advisor_culture_province
							skill = 2							
							discount = yes
						}
					}
					1 = {
						define_advisor = {
							type = quartermaster
							culture = event_target:ogre_advisor_culture_province
							religion = event_target:ogre_advisor_culture_province
							skill = 2							
							discount = yes
						}
					}
				}
			}
			else = {
				random_list = {
					1 = {
						define_advisor = {
							type = artist
							culture = event_target:ogre_advisor_culture_province
							religion = event_target:ogre_advisor_culture_province
							skill = 1
							discount = yes
						}
					}
					1 = {
						define_advisor = {
							type = quartermaster
							culture = event_target:ogre_advisor_culture_province
							religion = event_target:ogre_advisor_culture_province
							skill = 1							
							discount = yes
						}
					}
				}
			}
		}
		else_if = {
			limit = { 
				tag = J47
			}
			if = {
				limit = { monthly_income = 50 }
				random_list = {
					1 = {
						define_advisor = {
							type = artist
							culture = bloodtooth_ogre
							skill = 3
							
							discount = yes
						}
					}
					1 = {
						define_advisor = {
							type = quartermaster
							culture = bloodtooth_ogre
							skill = 3
							
							discount = yes
						}
					}
				}
			}
			else_if = {
				limit = { monthly_income = 25 }
				random_list = {
					1 = {
						define_advisor = {
							type = artist
							culture = bloodtooth_ogre
							skill = 2
							
							discount = yes
						}
					}
					1 = {
						define_advisor = {
							type = quartermaster
							culture = bloodtooth_ogre
							skill = 2
							discount = yes
						}
					}
				}
			}
			else = {
				random_list = {
					1 = {
						define_advisor = {
							type = artist
							culture = bloodtooth_ogre
							skill = 1
							
							discount = yes
						}
					}
					1 = {
						define_advisor = {
							type = quartermaster
							culture = bloodtooth_ogre
							skill = 1
							discount = yes
						}
					}
				}
			}
		}
		else_if = {
			limit = { 
				capital_scope = {
					superregion = forbidden_lands_superregion
				} 
			}
			if = {
				limit = { monthly_income = 50 }
				random_list = {
					1 = {
						define_advisor = {
							type = artist
							culture = fathide_ogre
							skill = 3
							
							discount = yes
						}
					}
					1 = {
						define_advisor = {
							type = quartermaster
							culture = fathide_ogre
							skill = 3
							
							discount = yes
						}
					}
				}
			}
			else_if = {
				limit = { monthly_income = 25 }
				random_list = {
					1 = {
						define_advisor = {
							type = artist
							culture = fathide_ogre
							skill = 2
							
							discount = yes
						}
					}
					1 = {
						define_advisor = {
							type = quartermaster
							culture = fathide_ogre
							skill = 2
							
							discount = yes
						}
					}
				}
			}
			else = {
				random_list = {
					1 = {
						define_advisor = {
							type = artist
							culture = fathide_ogre
							skill = 1
							
							discount = yes
						}
					}
					1 = {
						define_advisor = {
							type = quartermaster
							culture = fathide_ogre
							skill = 1
							
							discount = yes
						}
					}
				}
			}
		}
		else_if = {
			limit = { 
				capital_scope = {
					OR = {
						superregion = north_haless_superregion
						superregion = south_haless_superregion
						superregion = yanshen_superregion
					}
				}
			}
			if = {
				limit = { monthly_income = 50 }
				random_list = {
					1 = {
						define_advisor = {
							type = artist
							culture = horned_ogre
							skill = 3
							
							discount = yes
						}
					}
					1 = {
						define_advisor = {
							type = quartermaster
							culture = horned_ogre
							skill = 3
							
							discount = yes
						}
					}
				}
			}
			else_if = {
				limit = { monthly_income = 25 }
				random_list = {
					1 = {
						define_advisor = {
							type = artist
							culture = horned_ogre
							skill = 2
							
							discount = yes
						}
					}
					1 = {
						define_advisor = {
							type = quartermaster
							culture = horned_ogre
							skill = 2
							
							discount = yes
						}
					}
				}
			}
			else = {
				random_list = {
					1 = {
						define_advisor = {
							type = artist
							culture = horned_ogre
							skill = 1
							
							discount = yes
						}
					}
					1 = {
						define_advisor = {
							type = quartermaster
							culture = horned_ogre
							skill = 1
							
							discount = yes
						}
					}
				}
			}
		}
		else = {
			if = {
				limit = { monthly_income = 50 }
				random_list = {
					1 = {
						define_advisor = {
							type = artist
							culture = mossmouth_ogre
							skill = 3
							
							discount = yes
						}
					}
					1 = {
						define_advisor = {
							type = quartermaster
							culture = mossmouth_ogre
							skill = 3
							
							discount = yes
						}
					}
				}
			}
			else_if = {
				limit = { monthly_income = 25 }
				random_list = {
					1 = {
						define_advisor = {
							type = artist
							culture = mossmouth_ogre
							skill = 2
							
							discount = yes
						}
					}
					1 = {
						define_advisor = {
							type = quartermaster
							culture = mossmouth_ogre
							skill = 2
							
							discount = yes
						}
					}
				}
			}
			else = {
				random_list = {
					1 = {
						define_advisor = {
							type = artist
							culture = mossmouth_ogre
							skill = 1
							
							discount = yes
						}
					}
					1 = {
						define_advisor = {
							type = quartermaster
							culture = mossmouth_ogre
							skill = 1
							
							discount = yes
						}
					}
				}
			}
		}
	}

	# A true exemplar of their race
	option = {
		name = ogre_tolerance_events.1.b
		ai_chance = {
			factor = 50
			modifier = {
				factor = 2
				wants_to_increase_tolerance_ogre = yes
			}
		}
		medium_increase_of_ogre_tolerance_effect = yes
	}

	# We dun give a shit
	option = {
		name = ogre_tolerance_events.1.c
		ai_chance = {
			factor = 50
			modifier = {
				factor = 2
				wants_to_decrease_tolerance_ogre = yes
			}
		}
		small_decrease_of_ogre_tolerance_effect = yes
	}

	after = {
		clr_country_flag = ogre_advisor_culture_set
	}
}

#ogres eating da grain
country_event = {
	id = ogre_tolerance_events.3
	title = ogre_tolerance_events.3.t
	desc = ogre_tolerance_events.3.d
	picture = TRADE_GOODS_FURS_FISH_AND_SALT_eventPicture
	
	
	
	is_triggered_only = yes
		
	# subsidize the vulnerable
	option = {	
		name = ogre_tolerance_events.3.a
		ai_chance = {
			factor = 50
			modifier = {
				factor = 0.1
				wants_to_increase_tolerance_ogre = yes
			}
		}
		add_years_of_income = -0.25
		small_increase_of_ogre_tolerance_effect = yes
	}
	
	#i like the ogres more
	option = {
		name = ogre_tolerance_events.3.b
		ai_chance = {
			factor = 50
		}
		reduce_estate_burghers_loyalty_effect = yes
		small_increase_of_ogre_tolerance_effect = yes
	}
	
	#not my problem, sorry ogres
	option = {
		name = ogre_tolerance_events.3.c
		ai_chance = {
			factor = 50
			modifier = {
				factor = 0.5
				wants_to_increase_tolerance_ogre = yes
			}
		}
		largest_decrease_of_ogre_tolerance_effect = yes
		add_country_modifier = {
			name = ogre_food_riots
			duration = 1825
		}
	}
}

#into the swamp
country_event = {
	id = ogre_tolerance_events.4
	title = ogre_tolerance_events.4.t
	desc = ogre_tolerance_events.4.d
	picture = COLONIZATION_eventPicture
	
	is_triggered_only = yes
		
	#settle it over a pint
	option = {	
		name = ogre_tolerance_events.4.a
		ai_chance = {
			factor = 50
			modifier = {
				factor = 0.1
				wants_to_increase_tolerance_ogre = yes
			}
		}
		add_years_of_income = -0.25
		add_dip_power = -20
		medium_increase_of_ogre_tolerance_effect = yes
	}
	
	#some may die but a sacrifice im willing to make
	option = {
		name = ogre_tolerance_events.4.b
		ai_chance = {
			factor = 50
		}
		small_increase_of_ogre_tolerance_effect = yes
	}
	#get out of their swamp
	option = {
		name = ogre_tolerance_events.4.c
		ai_chance = {
			factor = 50
			modifier = {
				factor = 0.5
				wants_to_increase_tolerance_ogre = yes
			}
		}
		add_country_modifier = {
			name = ogre_draining_the_swamp
			duration = 3650
		}
		medium_decrease_of_ogre_tolerance_effect = yes
	}
}

#size does matter
country_event = {
	id = ogre_tolerance_events.5
	title = ogre_tolerance_events.5.t
	desc = ogre_tolerance_events.5.desc
	picture = CITY_DEVELOPMENT_eventPicture
	
	is_triggered_only = yes
		
	#building big doesn't go out of style
	option = {	
		name = ogre_tolerance_events.5.a
		ai_chance = {
			factor = 50
			modifier = {
				factor = 0.1
				wants_to_increase_tolerance_ogre = yes
			}
		}
		add_country_modifier = {
			name = ogre_monumentality
			duration = 3650
		}
		add_prestige = 10
		add_republican_tradition = 10
		add_devotion = 10
		add_legitimacy = 10
		largest_increase_of_ogre_tolerance_effect = yes
	}
	
	#lets stay conservative
	option = {
		name = ogre_tolerance_events.5.b
		ai_chance = {
			factor = 50
		}
		add_country_modifier = {
			name = ogre_building_accomodations
			duration = 3650
		}
		medium_increase_of_ogre_tolerance_effect = yes
	}
	
	#no thanks small doors only
	option = {
		name = ogre_tolerance_events.5.c
		ai_chance = {
			factor = 50
			modifier = {
				factor = 0.5
				wants_to_increase_tolerance_ogre = yes
			}
		}
		medium_decrease_of_ogre_tolerance_effect = yes
	}
	
	#our leader is great at building
	option = {
		name = ogre_tolerance_events.5.d
		trigger = {
			ruler_has_personality = obsessive_perfectionist
		}
		ai_chance = {
			factor = 100
		}
		highlight = yes
		add_country_modifier = {
			name = giantkin_monumentality
			duration = 7300
		}
		add_prestige = 20
		add_republican_tradition = 20
		add_devotion = 20
		add_legitimacy = 20
		largest_increase_of_ogre_tolerance_effect = yes
	}
}

#cannibal ogres in the millitary
country_event = {
	id = ogre_tolerance_events.6
	title = ogre_tolerance_events.6.t
	desc = ogre_tolerance_events.6.desc
	picture = LAND_MILITARY_eventPicture
	
	is_triggered_only = yes
		
	#our ogres need to eat
	option = {	
		name = ogre_tolerance_events.6.a
		ai_chance = {
			factor = 50
			modifier = {
				factor = 0.1
				wants_to_increase_tolerance_ogre = yes
			}
		}
		add_country_modifier = {
			name = ogre_ritual_cannibalism_allowed
			duration = 5475
		}
		medium_increase_of_ogre_tolerance_effect = yes
	}
	
	#discrete rituals
	option = {
		name = ogre_tolerance_events.6.b
		ai_chance = {
			factor = 50
		}
		add_country_modifier = {
			name = ogre_ritual_cannibalism_restricted
			duration = 5475
		}
		small_decrease_of_ogre_tolerance_effect = yes
	}
	
	#people aren't food!
	option = {
		name = ogre_tolerance_events.6.c
		ai_chance = {
			factor = 50
			modifier = {
				factor = 0.5
				wants_to_increase_tolerance_ogre = yes
			}
		}
		add_country_modifier = {
			name = ogre_ritual_cannibalism_outlawed
			duration = 5475
		}
		medium_decrease_of_ogre_tolerance_effect = yes
	}
	
	#these corpses are recruits not food
	option = {
		name = ogre_tolerance_events.6.d
		trigger = {
			has_country_modifier = undead_military
		}
		ai_chance = {
			factor = 100
		}
		highlight = yes
		add_country_modifier = {
			name = ogre_ritual_cannibalism_outlawed
			duration = 5475
		}
		add_yearly_manpower = 0.5
		medium_decrease_of_ogre_tolerance_effect = yes
	}
}
