namespace = harimari_tolerance_events

# Event organizer for the harimari tolerance events - should be a huge improvement to performance - having 1 overall check for having the minority instead of one for EACH new event that gets added
country_event = {
	id = harimari_tolerance_events.0
	title = race_setup_events.1.d
	desc = race_setup_events.1.d
	picture = BORDER_TENSION_eventPicture

	is_triggered_only = yes
	hidden = yes

	trigger = {
		NOT = { culture_group = harimari }
		any_owned_province = {
			has_harimari_minority_trigger = yes
		}
	}
	
	mean_time_to_happen = {
		days = 1
		modifier = {
			factor = 10
			has_country_modifier = racial_focus_harimari
		}
	}

	option = {
		random_list = {
			# # 
			# 1 = {
				# trigger = {
					
				# }
				# modifier = {
					
				# }
				# country_event = {
					# #id = 
				# }
			# }
			#harimari minister
			1 = {
				modifier = {
					factor = 1.5
					medium_tolerance_harimari_race_trigger = yes
				}
				modifier = {
					factor = 2
					high_tolerance_harimari_race_trigger = yes
				}
				country_event = {
					id = harimari_tolerance_events.1
				}
			}
			#harimari civil service
			1 = {
				trigger = {
					NOT = { has_country_modifier = harimari_restricted_offices }
					NOT = { has_country_modifier = harimari_expertise_in_government }
					NOT = { has_country_modifier = harimari_restricted_offices }
				}
				modifier = {
					factor = 2
					NOT = { low_tolerance_harimari_race_trigger = yes }
				}
				modifier = {
					factor = 1.5
					corruption = 1.5
				}
				country_event = {
					id = harimari_tolerance_events.2
				}
			}
			#corrupt harimari administrators
			1 = {
				trigger = {
					NOT = { has_country_modifier = harimari_corrupt_administrators }
				}
				modifier = {
					factor = 2
					corruption = 1.5
				}
				modifier = {
					factor = 2.5
					corruption = 3
				}
				country_event = {
					id = harimari_tolerance_events.3
				}
			}
			#harimari scholars
			1 = {
				trigger = {
					NOT = { has_country_modifier = harimari_governing_reforms }
					NOT = { has_country_modifier = harimari_economic_reforms }
					AND = {
						OR = {
							has_estate = estate_burghers
							has_estate = estate_middlecastes
						}
						OR = {
							has_estate = estate_nobles
							has_estate = estate_uppercastes
						}	
					}
				}
				modifier = {
					factor = 2
					NOT = { low_tolerance_harimari_race_trigger = yes }
				}
				modifier = {
					factor = 1.5
					has_institution = renaissance
				}
				country_event = {
					id = harimari_tolerance_events.4
				}
			}
			#harimari debate
			1 = {
				trigger = {
					NOT = { has_country_modifier = harimari_public_debate }
				}
				modifier = {
					factor = 2
					NOT = { low_tolerance_harimari_race_trigger = yes }
				}
				modifier = {
					factor = 2
					has_institution	= enlightenment
				}
				country_event = {
					id = harimari_tolerance_events.5
				}
			}
			#harimari self-governance
			1 = {
				modifier = {
					factor = 3
					NOT = { average_autonomy = 20 }	
				}
				country_event = {
					id = harimari_tolerance_events.6
				}
			}
			#harimari hunters
			1 = {
				country_event = {
					id = harimari_tolerance_events.7
				}
			}
			#primal fury
			1 = {
				trigger = {
					NOT =  { has_country_modifier = harimari_public_pardon }
				}
				modifier = {
					factor = 2
					low_tolerance_harimari_race_trigger = yes
				}
				
				country_event = {
					id = harimari_tolerance_events.8
				}
			}
			#harimari distinguished warrior
			1 = {
				trigger = {
					NOT = { has_country_modifier = harimari_appeased_millitary }
				}
				modifier = {
					factor = 2
					NOT =  { low_tolerance_harimari_race_trigger = yes }
				}
				modifier = {
					factor = 2
					is_at_war = yes
				}
				country_event = {
					id = harimari_tolerance_events.9
				}
			}
			#harimari women
			1 = {
				trigger = {
					NOT = { has_country_modifier = harimari_refused_women_rights }
				}
				modifier = {
					factor = 2
					NOT = { low_tolerance_harimari_race_trigger = yes }
				}
				modifier = {
					factor = 1.5
					has_institution = enlightenment
				}
				country_event = {
					id = harimari_tolerance_events.10
				}
			}
		}
	}
}

# harimari minister
country_event = {
	id = harimari_tolerance_events.1
	title = harimari_tolerance_events.1.t
	desc = harimari_tolerance_events.1.d
	picture = ADVISOR_eventPicture
	
	is_triggered_only = yes

	# If you have a harimari culture province, that's the one the advisor comes from
	immediate = {
		hidden_effect = {
			if = {
				limit = {
					any_owned_province = {
						culture_group = harimari
					}
				}
				random_owned_province = {
					limit = { culture_group = harimari }
					save_event_target_as = harimari_advisor_culture_province
				}
				set_country_flag = harimari_advisor_culture_set
			}
		}
	}

	# Recruit the harimari
	option = {
		name = harimari_tolerance_events.1.a
		ai_chance = {
			factor = 50
			modifier = {
				factor = 0.5
				wants_to_maintain_tolerance_harimari = yes
			}
			modifier = {
				factor = 0.1
				wants_to_decrease_tolerance_harimari = yes
			}
		}
		small_increase_of_harimari_tolerance_effect = yes
		if = {
			limit = { has_country_flag = harimari_advisor_culture_set }
			if = {
				limit = { monthly_income = 50 }
				random_list = {
					1 = {
						define_advisor = {
							type = philosopher
							culture = event_target:harimari_advisor_culture_province
							religion = event_target:harimari_advisor_culture_province
							skill = 3
							
							discount = yes
						}
					}
					1 = {
						define_advisor = {
							type = commandant
							culture = event_target:harimari_advisor_culture_province
							religion = event_target:harimari_advisor_culture_province
							skill = 3
							
							discount = yes
						}
					}
				}
			}
			else_if = {
				limit = { monthly_income = 25 }
				random_list = {
					1 = {
						define_advisor = {
							type = philosopher
							culture = event_target:harimari_advisor_culture_province
							religion = event_target:harimari_advisor_culture_province
							skill = 2
							
							discount = yes
						}
					}
					1 = {
						define_advisor = {
							type = commandant
							culture = event_target:harimari_advisor_culture_province
							religion = event_target:harimari_advisor_culture_province
							skill = 2
							
							discount = yes
						}
					}
				}
			}
			else = {
				random_list = {
					1 = {
						define_advisor = {
							type = philosopher
							culture = event_target:harimari_advisor_culture_province
							religion = event_target:harimari_advisor_culture_province
							skill = 1
							
							discount = yes
						}
					}
					1 = {
						define_advisor = {
							type = commandant
							culture = event_target:harimari_advisor_culture_province
							religion = event_target:harimari_advisor_culture_province
							skill = 1
							
							discount = yes
						}
					}
				}
			}
		}
		else_if = {
			limit = { 
				capital_scope = {
					superregion = rahen_superregion
				} 
			}
			if = {
				limit = { monthly_income = 50 }
				random_list = {
					1 = {
						define_advisor = {
							type = philosopher
							culture = royal_harimari
							skill = 3
							
							discount = yes
						}
					}
					1 = {
						define_advisor = {
							type = commandant
							culture = royal_harimari
							skill = 3
							
							discount = yes
						}
					}
				}
			}
			else_if = {
				limit = { monthly_income = 25 }
				random_list = {
					1 = {
						define_advisor = {
							type = philosopher
							culture = royal_harimari
							skill = 2
							
							discount = yes
						}
					}
					1 = {
						define_advisor = {
							type = commandant
							culture = royal_harimari
							skill = 2
							discount = yes
						}
					}
				}
			}
			else = {
				random_list = {
					1 = {
						define_advisor = {
							type = philosopher
							culture = royal_harimari
							skill = 1
							
							discount = yes
						}
					}
					1 = {
						define_advisor = {
							type = commandant
							culture = royal_harimari
							skill = 1
							discount = yes
						}
					}
				}
			}
		}
		else = {
			if = {
				limit = { monthly_income = 50 }
				random_list = {
					1 = {
						define_advisor = {
							type = philosopher
							culture = east_harimari
							skill = 3
							
							discount = yes
						}
					}
					1 = {
						define_advisor = {
							type = commandant
							culture = east_harimari
							skill = 3
							
							discount = yes
						}
					}
				}
			}
			else_if = {
				limit = { monthly_income = 25 }
				random_list = {
					1 = {
						define_advisor = {
							type = philosopher
							culture = east_harimari
							skill = 2
							
							discount = yes
						}
					}
					1 = {
						define_advisor = {
							type = commandant
							culture = east_harimari
							skill = 2
							
							discount = yes
						}
					}
				}
			}
			else = {
				random_list = {
					1 = {
						define_advisor = {
							type = philosopher
							culture = east_harimari
							skill = 1
							
							discount = yes
						}
					}
					1 = {
						define_advisor = {
							type = commandant
							culture = east_harimari
							skill = 1
							
							discount = yes
						}
					}
				}
			}
		}
	}

	# A true exemplar of their race
	option = {
		name = harimari_tolerance_events.1.b
		ai_chance = {
			factor = 50
			modifier = {
				factor = 2
				wants_to_increase_tolerance_harimari = yes
			}
		}
		medium_increase_of_harimari_tolerance_effect = yes
	}

	# We dun give a shit
	option = {
		name = harimari_tolerance_events.1.c
		ai_chance = {
			factor = 50
			modifier = {
				factor = 2
				wants_to_decrease_tolerance_harimari = yes
			}
		}
		small_decrease_of_harimari_tolerance_effect = yes
	}

	after = {
		clr_country_flag = harimari_advisor_culture_set
	}
}

#harimari civil service
country_event = {
	id = harimari_tolerance_events.2
	title = harimari_tolerance_events.2.t
	desc = harimari_tolerance_events.2.d
	picture = NOBLE_ESTATE_DEMANDS_eventPicture
	
	is_triggered_only = yes
	
	#they're very effective
	option = {
		name = harimari_tolerance_events.2.a
		ai_chance = {
			factor = 50
			modifier = {
				factor = 2
				wants_to_increase_tolerance_harimari = yes
			}
		}
		medium_increase_of_harimari_tolerance_effect = yes
		add_country_modifier = {
			name = harimari_expanded_in_government
			duration = 3650
		}
		change_government_reform_progress = 50
	}
	#things are fine as they are
	option = {
		name = harimari_tolerance_events.2.b
		small_increase_of_harimari_tolerance_effect = yes
		add_country_modifier = {
			name = harimari_expertise_in_government
			duration = 3650
		}
	}
	
	#we can't allow them to dominate the administration
	option = {
		name = harimari_tolerance_events.2.c
		ai_chance = {
			factor = 50
			modifier = {
				factor = 2
				wants_to_decrease_tolerance_harimari = yes
			}
		}
		small_decrease_of_harimari_tolerance_effect = yes
		add_country_modifier = {
			name = harimari_restricted_offices
			duration = 3650
		}
	}
}

#corrupt harimari administrators
country_event = {
	id = harimari_tolerance_events.3
	title = harimari_tolerance_events.3.t
	desc = harimari_tolerance_events.3.d
	picture = CORRUPTION_eventPicture
	
	is_triggered_only = yes
	
	#we can't blame them, innocent until proven guilty
	option = {
		name = harimari_tolerance_events.3.a
		ai_chance = {
			factor = 50
			modifier = {
				factor = 2
				wants_to_increase_tolerance_harimari = yes
			}
		}
		add_country_modifier = {
			name = harimari_corrupt_administrators
			duration = 3650
		}
	}
	
	#fire them all
	option = {
		ai_chance = {
			factor = 50
			modifier = {
				factor = 2
				wants_to_decrease_tolerance_harimari = yes
			}
		}
		name = harimari_tolerance_events.3.b
		medium_decrease_of_harimari_tolerance_effect = yes
	}
}

#harimari scholars
country_event = {
	id = harimari_tolerance_events.4
	title = harimari_tolerance_events.4.t
	desc = harimari_tolerance_events.4.d
	picture = MUSLIM_SCHOLAR_WRITING_eventPicture
	
	is_triggered_only = yes
	
	#implement governing reforms
	option = {
		name = harimari_tolerance_events.4.a
		ai_chance = {
			factor = 50
			modifier = {
				factor = 2
				wants_to_increase_tolerance_harimari = yes
			}
		}
		medium_increase_of_harimari_tolerance_effect = yes
		add_country_modifier = {
			name = harimari_governing_reforms
			duration = 3650
		}
		if = {
			limit = {
					has_estate = estate_burghers
			}
			add_estate_loyalty = {
				estate = estate_burghers
				loyalty = -10
			}
		}
		else = {
			add_estate_loyalty = {
				estate = estate_middlecastes
				loyalty = -10
			}
		}
	}
	
	#implement economic reforms
	option = {
		name = harimari_tolerance_events.4.b
		small_increase_of_harimari_tolerance_effect = yes
		add_country_modifier = {
			name = harimari_economic_reforms
			duration = 3650
		}
		if = {
			limit = {
				has_estate = estate_nobles
			}
			add_estate_loyalty = {
				estate = estate_nobles
				loyalty = -10
			}
		}
		else = {
			add_estate_loyalty = {
				estate = estate_uppercastes
				loyalty = -10
			}
		}
	}
	
	#what insolence, our laws don't need revision
	option = {
		name = harimari_tolerance_events.4.c
		ai_chance = {
			factor = 50
			modifier = {
				factor = 2
				wants_to_decrease_tolerance_harimari = yes
			}
		}
		small_decrease_of_harimari_tolerance_effect = yes
		add_prestige = 15
	}
}

#harimari public debate
country_event = {
	id = harimari_tolerance_events.5
	title = harimari_tolerance_events.5.t
	desc = harimari_tolerance_events.5.d
	picture = PROTESTANT_CATHOLIC_DEBATE_eventPicture
	
	is_triggered_only = yes
	
	#they're harmless, let them have their debate
	option = {
		name = harimari_tolerance_events.5.a
		ai_chance = {
			factor = 50
			modifier = {
				factor = 2
				wants_to_increase_tolerance_harimari = yes
			}
		}
		small_increase_of_harimari_tolerance_effect = yes
		add_country_modifier = {
			name = harimari_public_debate
			duration = 3650
		}
	}
	#they can hold their own gathering if they pay for any damages
	option = {
		name = harimari_tolerance_events.5.b
		small_decrease_of_harimari_tolerance_effect = yes
		add_treasury = 50
	}
	
	#Think of the chaos outlaw it
	option = {
		name = harimari_tolerance_events.5.c
		ai_chance = {
			factor = 50
			modifier = {
				factor = 2
				wants_to_decrease_tolerance_harimari = yes
			}
		}
		medium_decrease_of_harimari_tolerance_effect = yes
	}
}

#harimari self-governance
country_event = {
	id = harimari_tolerance_events.6
	title = harimari_tolerance_events.6.t
	desc = harimari_tolerance_events.6.d
	picture = ANGRY_MOB_eventPicture
	GOTO = upset_local_government
		
	is_triggered_only = yes
	
	immediate = {
		hidden_effect = {
			random_owned_province = {
				limit = {
					NOT = { has_province_modifier = harimari_upset_local_government }
					has_harimari_minority_trigger = yes
				}
				save_event_target_as = upset_local_government
			}
			random_owned_province = {
				limit = {
					NOT = { has_province_modifier = harimari_upset_local_government }
					has_large_harimari_minority_trigger = yes
				}
				save_event_target_as = upset_local_government
			}
		}
	}
	
	#Grant the request
	option = {	
		name = harimari_tolerance_events.6.a
		ai_chance = {
			factor = 50
			modifier = {
				factor = 2
				wants_to_increase_tolerance_harimari = yes
			}
		}
		event_target:upset_local_government = {
			add_province_modifier = {
				name = harimari_upset_local_government
				duration = 3650
			}
		}
		small_increase_of_harimari_tolerance_effect = yes
	}
	#We will not make expections
	option = {
		name = harimari_tolerance_events.6.b
		ai_chance = {
			factor = 50
			modifier = {
				factor = 2
				wants_to_decrease_tolerance_harimari = yes
			}
		}
		small_decrease_of_harimari_tolerance_effect = yes
	}
}

#harimari hunting in woods
country_event = {
	id = harimari_tolerance_events.7
	title = harimari_tolerance_events.7.t
	desc = harimari_tolerance_events.7.d
	picture = NATIVES_eventPicture
	GOTO = upset_hunters
		
	is_triggered_only = yes
	
	immediate = {
		hidden_effect = {
			random_owned_province = {
				limit = {
					NOT = { has_province_modifier = harimari_upset_hunters }
					has_harimari_minority_trigger = yes
				}
				save_event_target_as = upset_hunters
			}
			random_owned_province = {
				limit = {
					NOT = { has_province_modifier = harimari_upset_hunters }
					has_large_harimari_minority_trigger = yes
				}
				save_event_target_as = upset_hunters
			}
		}
	}
	
	#let the harimari hunt
	option = {	
		name = harimari_tolerance_events.7.a
		ai_chance = {
			factor = 50
			modifier = {
				factor = 2
				wants_to_increase_tolerance_harimari = yes
			}
		}
		event_target:upset_hunters = {
			add_province_modifier = {
				name = harimari_upset_hunters
				duration = 3650
			}
		}
		small_increase_of_harimari_tolerance_effect = yes
	}
	#they may not hunt
	option = {
		name = harimari_tolerance_events.7.b
		ai_chance = {
			factor = 50
			modifier = {
				factor = 2
				wants_to_decrease_tolerance_harimari = yes
			}
		}
		small_decrease_of_harimari_tolerance_effect = yes
	}
}

#prmal fury of the harimari
country_event = {
	id = harimari_tolerance_events.8
	title = harimari_tolerance_events.8.t
	desc = harimari_tolerance_events.8.d
	picture = COURT_eventPicture
	GOTO = harimari_local_distrust
		
	is_triggered_only = yes
	
	immediate = {
		hidden_effect = {
			random_owned_province = {
				limit = {
					NOT = { has_province_modifier = harimari_local_distrust }
					has_harimari_minority_trigger = yes
				}
				save_event_target_as = harimari_local_distrust
			}
			random_owned_province = {
				limit = {
					NOT = { has_province_modifier = harimari_local_distrust }
					has_large_harimari_minority_trigger = yes
				}
				save_event_target_as = harimari_local_distrust
			}
		}
	}
	
	#Publicly denounce the proceedings and offer restitution to the accused
	option = {	
		name = harimari_tolerance_events.8.a
		ai_chance = {
			factor = 50
			modifier = {
				factor = 2
				wants_to_increase_tolerance_harimari = yes
			}
		}

		medium_increase_of_harimari_tolerance_effect = yes
		add_country_modifier = {
			name = harimari_public_pardon
			duration = 3650
		}
		add_treasury = -50
	}
	#they are no diffesrent than we are throw out the case
	option = {
		name = harimari_tolerance_events.8.b
		small_increase_of_harimari_tolerance_effect = yes
		event_target:harimari_local_distrust = {
			add_province_modifier = {
				name = harimari_local_distrust
				duration = 1825
			}
		}
	}
	#these beasts are clearly responsible
	option = {
		name = harimari_tolerance_events.8.c
		ai_chance = {
			factor = 50
			modifier = {
				factor = 2
				wants_to_decrease_tolerance_harimari = yes
			}
		}
		medium_decrease_of_harimari_tolerance_effect = yes
	}
}

#distinguished harimari warrior
country_event = {
	id = harimari_tolerance_events.9
	title = harimari_tolerance_events.9.t
	desc = harimari_tolerance_events.9.d
	picture = SWORD_OF_OSMAN_eventPicture
		
	is_triggered_only = yes
	
	#grant the soldier the commission 
	option = {	
		name = harimari_tolerance_events.9.a
		ai_chance = {
			factor = 50
			modifier = {
				factor = 2
				wants_to_increase_tolerance_harimari = yes
			}
		}
		small_increase_of_harimari_tolerance_effect = yes
		if = {
			limit = { 
				capital_scope = {
					superregion = rahen_superregion
				} 
			}
			create_general = { tradition = 60 culture = royal_harimari }
		}
		else = {
			create_general = { tradition = 60 culture = east_harimari }
		}
	}
	#pass over the warrior
	option = {
		name = harimari_tolerance_events.9.b
		ai_chance = {
			factor = 50
			modifier = {
				factor = 2
				wants_to_decrease_tolerance_harimari = yes
			}
		}
		small_decrease_of_harimari_tolerance_effect = yes
		add_country_modifier = {
			name = harimari_appeased_millitary
			duration = 3650
		}
	}
}

#harimari women
country_event = {
	id = harimari_tolerance_events.10
	title = harimari_tolerance_events.10.t
	desc = harimari_tolerance_events.10.d
	picture = QUEEN_AT_COUNCIL_TABLE_eventPicture
		
	is_triggered_only = yes
	
	#these are family matters not state
	option = {
		name = harimari_tolerance_events.10.a
		ai_chance = {
			factor = 50
			modifier = {
				factor = 2
				wants_to_increase_tolerance_harimari = yes
			}
		}
		add_country_modifier = {
			name = harimari_refused_women_rights
			duration = 3650
		}
	}
	
	#ensure the rights are protected
	option = {	
		name = harimari_tolerance_events.10.b
		ai_chance = {
			factor = 50
			modifier = {
				factor = 2
				wants_to_decrease_tolerance_harimari = yes
			}
		}
		medium_decrease_of_harimari_tolerance_effect = yes
	}
}