namespace = elven_tolerance_events

#Elf Event Manager
country_event = {
	id = elven_tolerance_events.0
	title = elven_tolerance_events.1.t
	desc = elven_tolerance_events.1.d
	picture = DEBATE_REPUBLICAN_eventPicture

	hidden = yes
	is_triggered_only = yes

	trigger = {
		NOT = { culture_group = elven }
		any_owned_province = {
			has_elven_minority_trigger = yes
		}
	}
	
	mean_time_to_happen = {
		days = 1
		modifier = {
			factor = 10
			has_country_modifier = racial_focus_elven
		}
	}

	option = {
		random_list = {
			# Elven Demand Representation
			1 = {
				trigger = {
					any_owned_province = {
						NOT = { has_province_modifier = elven_represenatives_prov }
						NOT = { has_province_modifier = elven_not_given_represenatives_prov }
						NOT = { local_autonomy = 50 }
						has_elven_minority_trigger = yes
					}
				}
				country_event = {
					id = elven_tolerance_events.1
				}
			}
			# Elven Lords
			1 = {
				trigger = {
					any_owned_province = {
						NOT = { has_province_modifier = elven_local_lords }
						NOT = { has_province_modifier = elven_local_lords_punished }
						has_elven_minority_trigger = yes
					}
				}
				country_event = {
					id = elven_tolerance_events.2
				}
			}
			# Elven Bandits
			1 = {
				trigger = {
					any_owned_province = {
						NOT = { has_province_modifier = elven_bandits_punished }
						NOT = { has_province_modifier = elven_bandits_run_free }
						NOT = { has_province_modifier = elven_bandits_run_free_gov_support }
						has_elven_minority_trigger = yes
					}
				}
				country_event = {
					id = elven_tolerance_events.3
				}
			}
			# Elven Minister
			1 = {
				modifier = {
					factor = 1.5
					medium_tolerance_elven_race_trigger = yes
				}
				modifier = {
					factor = 2
					high_tolerance_elven_race_trigger = yes
				}
				country_event = {
					id = elven_tolerance_events.4
				}
			}
			# Elves block progress
			1 = {
				trigger = {
					any_owned_province = {
						has_elven_minority_trigger = yes
						NOT = {
							has_province_modifier = enforced_old_elven_rights
						}
					}
				}
				modifier = {
					factor = 1.5
					medium_tolerance_elven_race_trigger = yes
				}
				modifier = {
					factor = 2
					high_tolerance_elven_race_trigger = yes
				}
				country_event = {
					id = elven_tolerance_events.5
				}
			}
			# Craftsmen jealous of elves
			1 = {
				country_event = {
					id = elven_tolerance_events.6
				}
			}
			# Elven Magi
			1 = {
				trigger = {
					has_estate = estate_mages
				}
				country_event = {
					id = elven_tolerance_events.7
				}
			}
			# Powerful Official caught in Scandal
			1 = {
				modifier = {
					factor = 1.5
					medium_tolerance_elven_race_trigger = yes
				}
				modifier = {
					factor = 2
					high_tolerance_elven_race_trigger = yes
				}
				country_event = {
					id = elven_tolerance_events.8
				}
			}
			# Fears of Elven Puppeteers
			1 = {
				trigger = {
					high_tolerance_elven_race_trigger = yes
				}
				country_event = {
					id = elven_tolerance_events.10
				}
			}
			#Peaceful Protest
			1 = {
				trigger = {
					low_tolerance_elven_race_trigger = yes
				}
				country_event = {
					id = elven_tolerance_events.10
				}
			}
			#Elven Guerillas
			1 = {
				trigger = {
					low_tolerance_elven_race_trigger = yes
					any_owned_province = {
						has_elven_minority_trigger = yes
						NOT = { has_province_modifier = elven_guerillas }
					}
				}
				modifier = {
					factor = 2
					any_owned_province = {
						has_elven_minority_trigger = yes
						NOT = { has_province_modifier = elven_guerillas }
						superregion = deepwoods_superregion
					}
				}
				country_event = {
					id = elven_tolerance_events.11
				}
			}
		}
	}
}

# Elven Demand Representation
country_event = {
	id = elven_tolerance_events.1
	title = elven_tolerance_events.1.t
	desc = elven_tolerance_events.1.d
	picture = DEBATE_REPUBLICAN_eventPicture
	
	is_triggered_only = yes
	
	mean_time_to_happen = {
		days = 1
	}
	immediate = {
		hidden_effect = {
			random_owned_province = {
				limit = {
					NOT = { has_province_modifier = elven_represenatives_prov }
					NOT = { has_province_modifier = elven_not_given_represenatives_prov }
					NOT = { local_autonomy = 50 }
					has_elven_minority_trigger = yes
				}
				save_event_target_as = elven_wants_representation_province
			}
			random_owned_province = {
				limit = {
					NOT = { has_province_modifier = elven_represenatives_prov }
					NOT = { has_province_modifier = elven_not_given_represenatives_prov }
					NOT = { local_autonomy = 50 }
					has_elven_minority_trigger = yes
					is_in_capital_area = yes
				}
				save_event_target_as = elven_wants_representation_province
			}
			random_owned_province = {
				limit = {
					NOT = { has_province_modifier = elven_represenatives_prov }
					NOT = { has_province_modifier = elven_not_given_represenatives_prov }
					NOT = { local_autonomy = 50 }
					has_elven_minority_trigger = yes
					is_in_capital_area = yes
					development = 10
				}
				save_event_target_as = elven_wants_representation_province
			}
			random_owned_province = {
				limit = {
					NOT = { has_province_modifier = elven_represenatives_prov }
					NOT = { has_province_modifier = elven_not_given_represenatives_prov }
					NOT = { local_autonomy = 50 }
					has_elven_minority_trigger = yes
					is_in_capital_area = yes
					development = 20
				}
				save_event_target_as = elven_wants_representation_province
			}
		}
	}
	
	option = {		# Of course!
		name = elven_tolerance_events.1.a
		ai_chance = {
			factor = 50
			modifier = {
				factor = 0.5
				wants_to_maintain_tolerance_elven = yes
			}
			modifier = {
				factor = 0.1
				wants_to_decrease_tolerance_elven = yes
			}
		}
		add_adm_power = -40
		small_increase_of_elven_tolerance_effect = yes
		event_target:elven_wants_representation_province = {
			area = {
				limit = {
					owned_by = ROOT
					NOT = { has_province_modifier = elven_represenatives_prov }
					NOT = { has_province_modifier = elven_not_given_represenatives_prov }
					NOT = { local_autonomy = 50 }
					has_elven_minority_trigger = yes
				}
				add_province_modifier = {
					name = elven_represenatives_prov
					duration = 1825
				}
			}
		}
	}
	option = {		# Make some concessions
		name = elven_tolerance_events.1.b
		ai_chance = {
			factor = 50
		}
		add_adm_power = -20
		event_target:elven_wants_representation_province = {
			area = {
				limit = {
					owned_by = ROOT
					NOT = { has_province_modifier = elven_represenatives_prov }
					NOT = { has_province_modifier = elven_not_given_represenatives_prov }
					NOT = { local_autonomy = 50 }
					has_elven_minority_trigger = yes
				}
				add_local_autonomy = 2.5
			}
		}
	}
	option = {		# No. Haven't we given them enough?!
		name = elven_tolerance_events.1.c
		ai_chance = {
			factor = 50
			modifier = {
				factor = 0.5
				wants_to_maintain_tolerance_elven = yes
			}
			modifier = {
				factor = 0.1
				wants_to_increase_tolerance_elven = yes
			}
		}
		small_decrease_of_elven_tolerance_effect = yes
		event_target:elven_wants_representation_province = {
			area = {
				limit = {
					owned_by = ROOT
					NOT = { has_province_modifier = elven_represenatives_prov }
					NOT = { has_province_modifier = elven_not_given_represenatives_prov }
					NOT = { local_autonomy = 50 }
					has_elven_minority_trigger = yes
				}
				add_province_modifier = {
					name = elven_not_given_represenatives_prov
					duration = 1825
				}
			}
		}
	}
	option = {		# What an interesting idea
		name = elven_tolerance_events.1.e
		trigger = { ruler_has_personality = free_thinker_personality }
				highlight = yes
		ai_chance = {
			factor = 100
			modifier = {
				factor = 0.5
				wants_to_maintain_tolerance_elven = yes
			}
			modifier = {
				factor = 0.1
				wants_to_decrease_tolerance_elven = yes
			}
		}
		add_adm_power = -20
		medium_increase_of_elven_tolerance_effect = yes
		event_target:elven_wants_representation_province = {
			area = {
				limit = {
					owned_by = ROOT
					NOT = { has_province_modifier = elven_represenatives_prov }
					NOT = { has_province_modifier = elven_not_given_represenatives_prov }
					NOT = { local_autonomy = 50 }
					has_elven_minority_trigger = yes
				}
				add_local_autonomy = 5
				add_province_modifier = {
					name = elven_represenatives_prov
					duration = 3650
				}
			}
		}
	}
}

# Elven Lords
country_event = {
	id = elven_tolerance_events.2
	title = elven_tolerance_events.2.t
	desc = elven_tolerance_events.2.d
	picture = COURT_eventPicture
	
	is_triggered_only = yes
	
	mean_time_to_happen = {
		days = 1
	}
	
	immediate = {
		hidden_effect = {
			random_owned_province = {
				limit = {
					NOT = { has_province_modifier = elven_local_lords }
					NOT = { has_province_modifier = elven_local_lords_punished }
					has_elven_minority_trigger = yes
				}
				save_event_target_as = elven_lords_province
			}
			random_owned_province = {
				limit = {
					NOT = { has_province_modifier = elven_local_lords }
					NOT = { has_province_modifier = elven_local_lords_punished }
					has_elven_minority_trigger = yes
					development = 10
				}
				save_event_target_as = elven_lords_province
			}
		}
	}
	
	option = {		# A lord is a lord
		name = elven_tolerance_events.2.a
		ai_chance = {
			factor = 50
			modifier = {
				factor = 0.5
				has_dlc = "The Cossacks"
				has_estate = estate_nobles
				NOT = {
					estate_loyalty = {
						estate = estate_nobles
						loyalty = 40
					}
				}
			}
			modifier = {
				factor = 0.5
				wants_to_maintain_tolerance_elven = yes
			}
			modifier = {
				factor = 0.1
				wants_to_decrease_tolerance_elven = yes
			}
		}
		add_prestige = 10
		reduce_legitimacy_small_effect = yes
		reduce_estate_nobles_loyalty_effect = yes
		small_increase_of_elven_tolerance_effect = yes
		event_target:elven_lords_province = {
			area = {
				limit = {
					owned_by = ROOT
					NOT = { has_province_modifier = elven_local_lords }
					NOT = { has_province_modifier = elven_local_lords_punished }
					has_elven_minority_trigger = yes
				}
				add_province_modifier = {
					name = elven_local_lords
					duration = 3650
				}
			}
		}
	}
	option = {		# Obviously these claims are fake
		name = elven_tolerance_events.2.b
		ai_chance = {
			factor = 50
			modifier = {
				factor = 0.8
				legitimacy = 75
			}
		}
		add_prestige = -10
		increase_legitimacy_small_effect = yes
	}
	option = {		# Punish them for these lies
		name = elven_tolerance_events.2.c
		ai_chance = {
			factor = 50
			modifier = {
				factor = 1.2
				has_dlc = "The Cossacks"
				has_estate = estate_nobles
				NOT = {
					estate_loyalty = {
						estate = estate_nobles
						loyalty = 40
					}
				}
			}
			modifier = {
				factor = 0.5
				wants_to_maintain_tolerance_elven = yes
			}
			modifier = {
				factor = 0.1
				wants_to_increase_tolerance_elven = yes
			}
		}
		add_mil_power = -10
		if = {
			limit = { has_estate = estate_nobles }
			add_estate_loyalty = {
				estate = estate_nobles
				loyalty = 5
			}
		}
		small_decrease_of_elven_tolerance_effect = yes
		event_target:elven_lords_province = {
			area = {
				limit = {
					owned_by = ROOT
					NOT = { has_province_modifier = elven_local_lords }
					NOT = { has_province_modifier = elven_local_lords_punished }
					has_elven_minority_trigger = yes
				}
				add_province_modifier = {
					name = elven_local_lords_punished
					duration = 3650
				}
			}
		}
	}
	option = {		# Explain their duties to them
		name = elven_tolerance_events.2.e
		trigger = { ruler_has_personality = calm_personality }
				highlight = yes
		ai_chance = {
			factor = 100
		}
		custom_tooltip = elven_tolerance_events_2_e_tooltip
	}
	option = {		# These documents are fake!
		name = elven_tolerance_events.2.f
		trigger = {
			OR = {
				ruler_has_personality = embezzler_personality
				ruler_has_personality = intricate_web_weaver_personality
			}
		}
						highlight = yes
		ai_chance = {
			factor = 100
			modifier = {
				factor = 1.2
				has_dlc = "The Cossacks"
				has_estate = estate_nobles
				NOT = {
					estate_loyalty = {
						estate = estate_nobles
						loyalty = 40
					}
				}
			}
			modifier = {
				factor = 0.5
				wants_to_maintain_tolerance_elven = yes
			}
			modifier = {
				factor = 0.1
				wants_to_increase_tolerance_elven = yes
			}
		}
		custom_tooltip = elven_tolerance_events_2_f_tooltip
		add_estate_nobles_loyalty_effect = yes
		small_decrease_of_elven_tolerance_effect = yes
		event_target:elven_lords_province = {
			area = {
				limit = {
					owned_by = ROOT
					NOT = { has_province_modifier = elven_local_lords }
					NOT = { has_province_modifier = elven_local_lords_punished }
					has_elven_minority_trigger = yes
				}
				add_unrest = -1
				add_province_modifier = {
					name = elven_local_lords_punished
					duration = 1825
				}
			}
		}
	}
}

#Elven Bandits
country_event = {
	id = elven_tolerance_events.3
	title = elven_tolerance_events.3.t
	desc = elven_tolerance_events.3.d
	picture = BORDER_TENSION_eventPicture
	
	is_triggered_only = yes
	
	mean_time_to_happen = {
		days = 1
	}
	
	immediate = {
		hidden_effect = {
			random_owned_province = {
				limit = {
					NOT = { has_province_modifier = elven_bandits_punished }
					NOT = { has_province_modifier = elven_bandits_run_free }
					NOT = { has_province_modifier = elven_bandits_run_free_gov_support }
					has_elven_minority_trigger = yes
				}
				save_event_target_as = elven_bandit_province
			}
		}
	}
	
	option = {		# This is an issue we can ignore
		name = elven_tolerance_events.3.a
		ai_chance = {
			factor = 50
			modifier = {
				factor = 0.8
				NOT = { prestige = 0 }
			}
			modifier = {
				factor = 0.5
				has_dlc = "The Cossacks"
				has_estate = estate_nobles
				NOT = {
					estate_loyalty = {
						estate = estate_nobles
						loyalty = 40
					}
				}
			}
			modifier = {
				factor = 0.5
				has_dlc = "The Cossacks"
				has_estate = estate_burghers
				NOT = {
					estate_loyalty = {
						estate = estate_burghers
						loyalty = 40
					}
				}
			}
		}
		add_prestige = -5
		reduce_estate_nobles_loyalty_effect = yes
		reduce_estate_burghers_loyalty_effect = yes
		event_target:elven_bandit_province = {
			area = {
				limit = {
					owned_by = ROOT
					NOT = { has_province_modifier = elven_bandits_punished }
					NOT = { has_province_modifier = elven_bandits_run_free }
					NOT = { has_province_modifier = elven_bandits_run_free_gov_support }
					has_elven_minority_trigger = yes
				}
				add_province_modifier = {
					name = elven_bandits_run_free
					duration = 1825
				}
			}
		}
	}
	option = {	# We need to punish them!
		name = elven_tolerance_events.3.b
		ai_chance = {
			factor = 50
			modifier = {
				factor = 0.5
				wants_to_maintain_tolerance_elven = yes
			}
			modifier = {
				factor = 0.1
				wants_to_increase_tolerance_elven = yes
			}
		}
		add_mil_power = -10
		if = {
			limit = { has_estate = estate_nobles }
			add_estate_loyalty = {
				estate = estate_nobles
				loyalty = 5
			}
		}
		if = {
			limit = { has_estate = estate_burghers }
			add_estate_loyalty = {
				estate = estate_burghers
				loyalty = 5
			}
		}
		small_decrease_of_elven_tolerance_effect = yes
		event_target:elven_bandit_province = {
			area = {
				limit = {
					owned_by = ROOT
					NOT = { has_province_modifier = elven_bandits_punished }
					NOT = { has_province_modifier = elven_bandits_run_free }
					NOT = { has_province_modifier = elven_bandits_run_free_gov_support }
					has_elven_minority_trigger = yes
				}
				add_province_modifier = {
					name = elven_bandits_punished
					duration = 1825
				}
			}
		}
	}
	option = {		# Hire them to collect our taxes
		name = elven_tolerance_events.3.c
		trigger = {
			NOT = { has_country_modifier = minority_bandits_run_free_gov_support_global }
			ruler_has_personality = embezzler_personality
		}
		highlight = yes
		ai_chance = {
			factor = 100
			modifier = {
				factor = 0.8
				NOT = { prestige = 0 }
			}
			modifier = {
				factor = 0.5
				has_dlc = "The Cossacks"
				has_estate = estate_nobles
				NOT = {
					estate_loyalty = {
						estate = estate_nobles
						loyalty = 45
					}
				}
			}
			modifier = {
				factor = 0.5
				has_dlc = "The Cossacks"
				has_estate = estate_burghers
				NOT = {
					estate_loyalty = {
						estate = estate_burghers
						loyalty = 45
					}
				}
			}
		}
		add_prestige = -10
		if = {
			limit = { has_estate = estate_nobles }
			add_estate_loyalty = {
				estate = estate_nobles
				loyalty = -15
			}
		}
		if = {
			limit = { has_estate = estate_burghers }
			add_estate_loyalty = {
				estate = estate_burghers
				loyalty = -15
			}
		}
		add_country_modifier = {
			name = minority_bandits_run_free_gov_support_global
			duration = 1095
		}
		event_target:elven_bandit_province = {
			area = {
				limit = {
					owned_by = ROOT
					NOT = { has_province_modifier = elven_bandits_punished }
					NOT = { has_province_modifier = elven_bandits_run_free }
					NOT = { has_province_modifier = elven_bandits_run_free_gov_support }
				}
				add_province_modifier = {
					name = elven_bandits_run_free_gov_support
					duration = 1825
				}
			}
		}
	}
}

# Elven Minister
country_event = {
	id = elven_tolerance_events.4
	title = elven_tolerance_events.4.t
	desc = elven_tolerance_events.4.d
	picture = EXPLORERS_eventPicture
	
	is_triggered_only = yes

	# If you have a elven culture province, that's the one the advisor comes from
	immediate = {
		hidden_effect = {
			if = {
				limit = {
					any_owned_province = {
						culture_group = elven
					}
				}
				random_owned_province = {
					limit = { culture_group = elven }
					save_event_target_as = elven_advisor_culture_province
				}
				set_country_flag = elven_advisor_culture_set
			}
			if = {
				limit = {
					capital_scope = { superregion = rahen_superregion }
					NOT = { has_country_flag = elven_advisor_culture_set }
				}
				random = {
					chance = 50
					set_country_flag = culture_is_peridot
				}
			}
		}
	}

	# Recruit the elf
	option = {
		name = elven_tolerance_events.4.a
		ai_chance = {
			factor = 50
			modifier = {
				factor = 0.5
				wants_to_maintain_tolerance_elven = yes
			}
			modifier = {
				factor = 0.1
				wants_to_decrease_tolerance_elven = yes
			}
		}
		small_increase_of_elven_tolerance_effect = yes
		if = {
			limit = { has_country_flag = elven_advisor_culture_set }
			if = {
				limit = { monthly_income = 50 }
				random_list = {
					1 = {
						define_advisor = {
							type = artist
							culture = event_target:elven_advisor_culture_province
							religion = event_target:elven_advisor_culture_province
							skill = 3
							discount = yes
						}
					}
					1 = {
						define_advisor = {
							type = statesman
							culture = event_target:elven_advisor_culture_province
							religion = event_target:elven_advisor_culture_province
							skill = 3
							discount = yes
						}
					}
				}
			}
			else_if = {
				limit = { monthly_income = 25 }
				random_list = {
					1 = {
						define_advisor = {
							type = artist
							culture = event_target:elven_advisor_culture_province
							religion = event_target:elven_advisor_culture_province
							skill = 2
							discount = yes
						}
					}
					1 = {
						define_advisor = {
							type = statesman
							culture = event_target:elven_advisor_culture_province
							religion = event_target:elven_advisor_culture_province
							skill = 2
							discount = yes
						}
					}
				}
			}
			else = {
				random_list = {
					1 = {
						define_advisor = {
							type = artist
							culture = event_target:elven_advisor_culture_province
							religion = event_target:elven_advisor_culture_province
							skill = 1
							discount = yes
						}
					}
					1 = {
						define_advisor = {
							type = statesman
							culture = event_target:elven_advisor_culture_province
							religion = event_target:elven_advisor_culture_province
							skill = 1
							discount = yes
						}
					}
				}
			}
		}
		if = {
			limit = { has_country_flag = orcish_advisor_culture_set }
			if = {
				limit = { monthly_income = 50 }
				random_list = {
					1 = {
						define_advisor = {
							type = artist
							culture = event_target:orcish_advisor_culture_province
							religion = event_target:orcish_advisor_culture_province
							skill = 3
							discount = yes
						}
					}
					1 = {
						define_advisor = {
							type = statesman
							culture = event_target:orcish_advisor_culture_province
							religion = event_target:orcish_advisor_culture_province
							skill = 3
							discount = yes
						}
					}
				}
			}
			else_if = {
				limit = { monthly_income = 25 }
				random_list = {
					1 = {
						define_advisor = {
							type = artist
							culture = event_target:orcish_advisor_culture_province
							religion = event_target:orcish_advisor_culture_province
							skill = 2
							discount = yes
						}
					}
					1 = {
						define_advisor = {
							type = statesman
							culture = event_target:orcish_advisor_culture_province
							religion = event_target:orcish_advisor_culture_province
							skill = 2
							discount = yes
						}
					}
				}
			}
			else = {
				random_list = {
					1 = {
						define_advisor = {
							type = artist
							culture = event_target:orcish_advisor_culture_province
							religion = event_target:orcish_advisor_culture_province
							skill = 1
							discount = yes
						}
					}
					1 = {
						define_advisor = {
							type = statesman
							culture = event_target:orcish_advisor_culture_province
							religion = event_target:orcish_advisor_culture_province
							skill = 1
							discount = yes
						}
					}
				}
			}
		}
		else_if = {
			limit = { 
				capital_scope = {
					OR = {
						continent = europe
					}
				} 
			}
			if = {
				limit = { monthly_income = 50 }
				random_list = {
					1 = {
						define_advisor = {
							type = artist
							culture = moon_elf
							skill = 3
							discount = yes
						}
					}
					1 = {
						define_advisor = {
							type = statesman
							culture = moon_elf
							skill = 3
							discount = yes
						}
					}
				}
			}
			else_if = {
				limit = { monthly_income = 25 }
				random_list = {
					1 = {
						define_advisor = {
							type = artist
							culture = moon_elf
							skill = 2
							discount = yes
						}
					}
					1 = {
						define_advisor = {
							type = statesman
							culture = moon_elf
							skill = 2
							discount = yes
						}
					}
				}
			}
			else = {
				random_list = {
					1 = {
						define_advisor = {
							type = artist
							culture = moon_elf
							skill = 1
							discount = yes
						}
					}
					1 = {
						define_advisor = {
							type = statesman
							culture = moon_elf
							skill = 1
							discount = yes
						}
					}
				}
			}
		}
		else_if = {
			limit = { 
				capital_scope = {
					OR = {
						continent = south_america
					}
				} 
			}
			if = {
				limit = { monthly_income = 50 }
				random_list = {
					1 = {
						define_advisor = {
							type = artist
							culture = dawn_elf
							skill = 3
							discount = yes
						}
					}
					1 = {
						define_advisor = {
							type = statesman
							culture = dawn_elf
							skill = 3
							discount = yes
						}
					}
				}
			}
			else_if = {
				limit = { monthly_income = 25 }
				random_list = {
					1 = {
						define_advisor = {
							type = artist
							culture = dawn_elf
							skill = 2
							discount = yes
						}
					}
					1 = {
						define_advisor = {
							type = statesman
							culture = dawn_elf
							skill = 2
							discount = yes
						}
					}
				}
			}
			else = {
				random_list = {
					1 = {
						define_advisor = {
							type = artist
							culture = dawn_elf
							skill = 1
							discount = yes
						}
					}
					1 = {
						define_advisor = {
							type = statesman
							culture = dawn_elf
							skill = 1
							discount = yes
						}
					}
				}
			}
		}
		else_if = {
			limit = { 
				capital_scope = {
					superregion = bulwar_superregion
					continent = serpentspine
				} 
			}
			if = {
				limit = { monthly_income = 50 }
				random_list = {
					1 = {
						define_advisor = {
							type = artist
							culture = sun_elf
							skill = 3
							discount = yes
						}
					}
					1 = {
						define_advisor = {
							type = statesman
							culture = sun_elf
							skill = 3
							discount = yes
						}
					}
				}
			}
			else_if = {
				limit = { monthly_income = 25 }
				random_list = {
					1 = {
						define_advisor = {
							type = artist
							culture = sun_elf
							skill = 2
							discount = yes
						}
					}
					1 = {
						define_advisor = {
							type = statesman
							culture = sun_elf
							skill = 2
							discount = yes
						}
					}
				}
			}
			else = {
				random_list = {
					1 = {
						define_advisor = {
							type = artist
							culture = sun_elf
							skill = 1
							discount = yes
						}
					}
					1 = {
						define_advisor = {
							type = statesman
							culture = sun_elf
							skill = 1
							discount = yes
						}
					}
				}
			}
		}
		else_if = {
			limit = { 
				capital_scope = {
					continent = asia
				}
			}
			if = {
				limit = { monthly_income = 50 }
				random_list = {
					1 = {
						define_advisor = {
							type = artist
							culture = sun_elf
							skill = 3
							discount = yes
						}
					}
					1 = {
						define_advisor = {
							type = statesman
							culture = sun_elf
							skill = 3
							discount = yes
						}
					}
				}
			}
			else_if = {
				limit = { monthly_income = 25 }
				random_list = {
					1 = {
						define_advisor = {
							type = artist
							culture = sun_elf
							skill = 2
							discount = yes
						}
					}
					1 = {
						define_advisor = {
							type = statesman
							culture = sun_elf
							skill = 2
							discount = yes
						}
					}
				}
			}
			else = {
				random_list = {
					1 = {
						define_advisor = {
							type = artist
							culture = sun_elf
							skill = 1
							discount = yes
						}
					}
					1 = {
						define_advisor = {
							type = statesman
							culture = sun_elf
							skill = 1
							discount = yes
						}
					}
				}
			}
		}
		else = {
			if = {
				limit = { monthly_income = 50 }
				random_list = {
					1 = {
						define_advisor = {
							type = artist
							culture = sea_elf
							skill = 3
							discount = yes
						}
					}
					1 = {
						define_advisor = {
							type = statesman
							culture = sea_elf
							skill = 3
							discount = yes
						}
					}
				}
			}
			else_if = {
				limit = { monthly_income = 25 }
				random_list = {
					1 = {
						define_advisor = {
							type = artist
							culture = sea_elf
							skill = 2
							discount = yes
						}
					}
					1 = {
						define_advisor = {
							type = statesman
							culture = sea_elf
							skill = 2
							discount = yes
						}
					}
				}
			}
			else = {
				random_list = {
					1 = {
						define_advisor = {
							type = artist
							culture = sea_elf
							skill = 1
							discount = yes
						}
					}
					1 = {
						define_advisor = {
							type = statesman
							culture = sea_elf
							skill = 1
							discount = yes
						}
					}
				}
			}
		}
	}

	# A true exemplar of their race
	option = {
		name = elven_tolerance_events.4.b
		ai_chance = {
			factor = 50
			modifier = {
				factor = 2
				wants_to_increase_tolerance_elven = yes
			}
		}
		medium_increase_of_elven_tolerance_effect = yes
	}

	# We dun give a shit
	option = {
		name = elven_tolerance_events.4.c
		ai_chance = {
			factor = 50
			modifier = {
				factor = 2
				wants_to_decrease_tolerance_elven = yes
			}
		}
		small_decrease_of_elven_tolerance_effect = yes
	}

	after = {
		clr_country_flag = elven_advisor_culture_set
	}
}

# Elves stop progress
country_event = {
	id = elven_tolerance_events.5
	title = elven_tolerance_events.5.t
	desc = elven_tolerance_events.5.d
	picture = ANGRY_MOB_eventPicture
	goto = elven_rights_province
	
	is_triggered_only = yes
	
	
	immediate = {
		random_owned_province = {
			limit = {
				has_elven_minority_trigger = yes
				NOT = {
					has_province_modifier = enforced_old_elven_rights
				}
			}
			save_event_target_as = elven_rights_province
		}
	}
	
	#Let us respect their wishes
	option = {
		name = elven_tolerance_events.5.a
		ai_chance = {
			factor = 50
			modifier = {
				factor = 2
				wants_to_increase_tolerance_elven = yes
			}
			modifier = {
				factor = 0.5
				wants_to_decrease_tolerance_elven = yes
			}
		}
		small_increase_of_elven_tolerance_effect = yes
		event_target:elven_rights_province = {
			add_province_modifier = {
				name = enforced_old_elven_rights
				duration = 1825
			}
		}
	}
	
	#Offer them some compensation
	option = {
		name = elven_tolerance_events.5.b
		ai_chance = {
			factor = 50
			modifier = {
				factor = 2
				wants_to_maintain_tolerance_elven = yes
			}
		}
		add_years_of_income = -0.25
	}
	
	#Forcibly remove them!
	option = {
		name = elven_tolerance_events.5.c
		ai_chance = {
			factor = 50
			modifier = {
				factor = 2
				wants_to_decrease_tolerance_elven = yes
			}
			modifier = {
				factor = 0.5
				wants_to_increase_tolerance_elven = yes
			}
		}
		medium_decrease_of_elven_tolerance_effect = yes
	}
}

# Elves upset craftsmen
country_event = {
	id = elven_tolerance_events.6
	title = elven_tolerance_events.6.t
	desc = elven_tolerance_events.6.d
	picture = ANGRY_MOB_eventPicture
	
	is_triggered_only = yes
	
	# Award the elves
	option = {
		name = elven_tolerance_events.6.a
		ai_chance = {
			factor = 50
			modifier = {
				factor = 2
				wants_to_increase_tolerance_elven = yes
			}
			modifier = {
				factor = 0.5
				wants_to_decrease_tolerance_elven = yes
			}
		}
		medium_increase_of_elven_tolerance_effect = yes
		add_years_of_income = -0.10
		if = {
			limit = {
				has_estate = estate_burghers
			}
			add_estate_loyalty = {
				estate = estate_burghers
				loyalty = -10
			}
		}
	}
	
	# This is the nature of the free market
	option = {
		name = elven_tolerance_events.6.b
		ai_chance = {
			factor = 50
			modifier = {
				factor = 2
				wants_to_maintain_tolerance_elven = yes
			}
		}
		small_decrease_of_elven_tolerance_effect = yes
		if = {
			limit = {
				has_estate = estate_burghers
			}
			add_estate_loyalty = {
				estate = estate_burghers
				loyalty = -5
			}
		}
	}
	
	# We cannot allow our craftsmen to be outshone
	option = {
		name = elven_tolerance_events.6.c
		ai_chance = {
			factor = 50
			modifier = {
				factor = 2
				wants_to_decrease_tolerance_elven = yes
			}
			modifier = {
				factor = 0.5
				wants_to_increase_tolerance_elven = yes
			}
		}
		add_years_of_income = 0.10
		medium_decrease_of_elven_tolerance_effect = yes
		if = {
			limit = {
				has_estate = estate_burghers
			}
			add_estate_loyalty = {
				estate = estate_burghers
				loyalty = 10
			}
		}
	}
}

# Elven Magi
country_event = {
	id = elven_tolerance_events.7
	title = elven_tolerance_events.7.t
	desc = elven_tolerance_events.7.d
	picture = DIPLOMACY_eventPicture
	
	is_triggered_only = yes
	
	# We must heed the wisdom of old mages
	option = {
		name = elven_tolerance_events.7.a
		ai_chance = {
			factor = 50
			modifier = {
				factor = 2
				wants_to_increase_tolerance_elven = yes
			}
			modifier = {
				factor = 0.5
				wants_to_decrease_tolerance_elven = yes
			}
		}
		small_increase_of_elven_tolerance_effect = yes
		add_years_of_income = 0.10
		if = {
			limit = {
				has_estate = estate_mages
			}
			add_estate_loyalty = {
				estate = estate_mages
				loyalty = -10
			}
		}
	}
	
	# Let the mages handle this themselves
	option = {
		name = elven_tolerance_events.7.b
		ai_chance = {
			factor = 50
			modifier = {
				factor = 2
				wants_to_maintain_tolerance_elven = yes
			}
		}
		add_prestige = -5
	}
	
	# Elevate non-elves to higher positions
	option = {
		name = elven_tolerance_events.7.c
		ai_chance = {
			factor = 50
			modifier = {
				factor = 2
				wants_to_decrease_tolerance_elven = yes
			}
			modifier = {
				factor = 0.5
				wants_to_increase_tolerance_elven = yes
			}
		}
		medium_decrease_of_elven_tolerance_effect = yes
		if = {
			limit = {
				has_estate = estate_mages
			}
			add_estate_loyalty = {
				estate = estate_mages
				loyalty = 10
			}
		}
	}
}

# Powerful Official caught in Scandal
country_event = {
	id = elven_tolerance_events.8
	title = elven_tolerance_events.8.t
	desc = elven_tolerance_events.8.d
	picture = BAD_WITH_MONARCH_eventPicture
	
	is_triggered_only = yes
	
	# An elven mistress? I don't blame 'em!
	option = {
		name = elven_tolerance_events.8.a
		ai_chance = {
			factor = 50
			modifier = {
				factor = 2
				wants_to_increase_tolerance_elven = yes
			}
			modifier = {
				factor = 0.5
				wants_to_decrease_tolerance_elven = yes
			}
		}
		small_increase_of_elven_tolerance_effect = yes
		add_prestige = -10
	}
	
	# Distance ourselves from this offical
	option = {
		name = elven_tolerance_events.8.b
		ai_chance = {
			factor = 50
			modifier = {
				factor = 2
				wants_to_maintain_tolerance_elven = yes
			}
		}
		add_adm_power = -10
	}
	
	# Make an example of him and his mistress
	option = {
		name = elven_tolerance_events.8.c
		ai_chance = {
			factor = 50
			modifier = {
				factor = 2
				wants_to_decrease_tolerance_elven = yes
			}
			modifier = {
				factor = 0.5
				wants_to_increase_tolerance_elven = yes
			}
		}
		medium_decrease_of_elven_tolerance_effect = yes
	}
}

# Fears of Elven Puppeteers
country_event = {
	id = elven_tolerance_events.9
	title = elven_tolerance_events.9.t
	desc = elven_tolerance_events.9.d
	picture = ACCUSATION_eventPicture
	
	is_triggered_only = yes
	
	# There's nothing wrong with a bit of elven wisdom
	option = {
		name = elven_tolerance_events.9.a
		ai_chance = {
			factor = 50
			modifier = {
				factor = 2
				wants_to_increase_tolerance_elven = yes
			}
			modifier = {
				factor = 0.5
				wants_to_decrease_tolerance_elven = yes
			}
		}
		small_increase_of_elven_tolerance_effect = yes
		reduce_stability_or_adm_power = yes
		add_adm_power = 50
		add_dip_power = 50
	}
	
	# Dismiss these Claims
	option = {
		name = elven_tolerance_events.9.b
		ai_chance = {
			factor = 50
			modifier = {
				factor = 2
				wants_to_maintain_tolerance_elven = yes
			}
		}
		small_decrease_of_elven_tolerance_effect = yes
	}
	
	# Oust influential elves from our government!
	option = {
		name = elven_tolerance_events.9.c
		ai_chance = {
			factor = 50
			modifier = {
				factor = 2
				wants_to_decrease_tolerance_elven = yes
			}
			modifier = {
				factor = 0.5
				wants_to_increase_tolerance_elven = yes
			}
		}
		large_decrease_of_elven_tolerance_effect = yes
		add_stability_or_adm_power = yes
		add_dip_power = -50
	}
}

#Peaceful Protest
country_event = {
	id = elven_tolerance_events.10
	title = elven_tolerance_events.10.t
	desc = elven_tolerance_events.10.d
	picture = BAD_WITH_MONARCH_eventPicture
	
	is_triggered_only = yes
	
	# Listen to their demands
	option = {
		name = elven_tolerance_events.10.a
		ai_chance = {
			factor = 50
			modifier = {
				factor = 2
				wants_to_increase_tolerance_elven = yes
			}
			modifier = {
				factor = 0.5
				wants_to_decrease_tolerance_elven = yes
			}
		}
		small_increase_of_elven_tolerance_effect = yes
		add_dip_power = -50
	}
	
	# Dispel the protesters peacefully
	option = {
		name = elven_tolerance_events.10.b
		ai_chance = {
			factor = 50
			modifier = {
				factor = 2
				wants_to_maintain_tolerance_elven = yes
			}
		}
		add_dip_power = -10
	}
	
	# Dispel the protesters with violence
	option = {
		name = elven_tolerance_events.10.c
		ai_chance = {
			factor = 50
			modifier = {
				factor = 2
				wants_to_decrease_tolerance_elven = yes
			}
			modifier = {
				factor = 0.5
				wants_to_increase_tolerance_elven = yes
			}
		}
		medium_decrease_of_elven_tolerance_effect = yes
		add_mil_power = -1
	}
}

# Elven Guerillas 
country_event = {
	id = elven_tolerance_events.11
	title = elven_tolerance_events.11.t
	desc = elven_tolerance_events.11.d
	picture = CIVIL_WAR_eventPicture
	goto = elven_gorilla_province
	
	is_triggered_only = yes
	
	immediate = {
		random_owned_province = {
			limit = {
				has_elven_minority_trigger = yes
				NOT = { has_province_modifier = elven_guerillas }
			}
			save_event_target_as = elven_gorilla_province
		}
	}
	
	# Offer them a chance to hand themselves in
	option = {
		name = elven_tolerance_events.11.a
		ai_chance = {
			factor = 50
			modifier = {
				factor = 2
				wants_to_increase_tolerance_elven = yes
			}
			modifier = {
				factor = 0.5
				wants_to_decrease_tolerance_elven = yes
			}
		}
		small_increase_of_elven_tolerance_effect = yes
		event_target:elven_gorilla_province = {
			add_province_modifier = {
				name = elven_guerillas
				duration = 3650
			}
		}
	}
	
	# Bring them to justice
	option = {
		name = elven_tolerance_events.11.b
		ai_chance = {
			factor = 50
			modifier = {
				factor = 2
				wants_to_maintain_tolerance_elven = yes
			}
		}
		small_decrease_of_elven_tolerance_effect = yes
		event_target:elven_gorilla_province = {
			add_province_modifier = {
				name = elven_guerillas
				duration = 1825
			}
		}
	}
	
	# Execute some of their kind to draw them in!
	option = {
		name = elven_tolerance_events.11.c
		ai_chance = {
			factor = 50
			modifier = {
				factor = 2
				wants_to_decrease_tolerance_elven = yes
			}
			modifier = {
				factor = 0.5
				wants_to_increase_tolerance_elven = yes
			}
		}
		medium_decrease_of_elven_tolerance_effect = yes
		add_mil_power = -50
	}
}